%YAML 1.1
%TAG !u! tag:unity3d.com,2011:
--- !u!1 &1598633476429910970
GameObject:
  m_ObjectHideFlags: 0
  m_CorrespondingSourceObject: {fileID: 0}
  m_PrefabInstance: {fileID: 0}
  m_PrefabAsset: {fileID: 0}
  serializedVersion: 6
  m_Component:
  - component: {fileID: 4619428235301423867}
  - component: {fileID: 4263464721465745551}
  - component: {fileID: 6299330725523993903}
  m_Layer: 31
  m_Name: Layer1
  m_TagString: Untagged
  m_Icon: {fileID: 0}
  m_NavMeshLayer: 0
  m_StaticEditorFlags: 0
  m_IsActive: 1
--- !u!4 &4619428235301423867
Transform:
  m_ObjectHideFlags: 0
  m_CorrespondingSourceObject: {fileID: 0}
  m_PrefabInstance: {fileID: 0}
  m_PrefabAsset: {fileID: 0}
  m_GameObject: {fileID: 1598633476429910970}
  m_LocalRotation: {x: -0, y: -0, z: -0, w: 1}
  m_LocalPosition: {x: 0, y: 0, z: 0}
  m_LocalScale: {x: 1, y: 1, z: 1}
  m_Children: []
  m_Father: {fileID: 2858445150295552873}
  m_RootOrder: 0
  m_LocalEulerAnglesHint: {x: 0, y: 0, z: 0}
--- !u!1839735485 &4263464721465745551
Tilemap:
  m_ObjectHideFlags: 0
  m_CorrespondingSourceObject: {fileID: 0}
  m_PrefabInstance: {fileID: 0}
  m_PrefabAsset: {fileID: 0}
  m_GameObject: {fileID: 1598633476429910970}
  m_Enabled: 1
  m_Tiles:
  - first: {x: 0, y: -4, z: 0}
    second:
      m_TileIndex: 24
      m_TileSpriteIndex: 93
      m_TileMatrixIndex: 0
      m_TileColorIndex: 26
      m_ObjectToInstantiate: {fileID: 0}
      m_TileFlags: 1
      m_ColliderType: 1
  - first: {x: 9, y: -4, z: 0}
    second:
      m_TileIndex: 22
      m_TileSpriteIndex: 92
      m_TileMatrixIndex: 0
      m_TileColorIndex: 26
      m_ObjectToInstantiate: {fileID: 0}
      m_TileFlags: 1
      m_ColliderType: 1
  - first: {x: 10, y: -4, z: 0}
    second:
      m_TileIndex: 21
      m_TileSpriteIndex: 91
      m_TileMatrixIndex: 0
      m_TileColorIndex: 26
      m_ObjectToInstantiate: {fileID: 0}
      m_TileFlags: 1
      m_ColliderType: 1
  - first: {x: 0, y: -3, z: 0}
    second:
      m_TileIndex: 34
      m_TileSpriteIndex: 90
      m_TileMatrixIndex: 0
      m_TileColorIndex: 26
      m_ObjectToInstantiate: {fileID: 0}
      m_TileFlags: 1
      m_ColliderType: 1
  - first: {x: 1, y: -3, z: 0}
    second:
      m_TileIndex: 33
      m_TileSpriteIndex: 89
      m_TileMatrixIndex: 0
      m_TileColorIndex: 26
      m_ObjectToInstantiate: {fileID: 0}
      m_TileFlags: 1
      m_ColliderType: 1
  - first: {x: 2, y: -3, z: 0}
    second:
      m_TileIndex: 32
      m_TileSpriteIndex: 88
      m_TileMatrixIndex: 0
      m_TileColorIndex: 26
      m_ObjectToInstantiate: {fileID: 0}
      m_TileFlags: 1
      m_ColliderType: 1
  - first: {x: 8, y: -3, z: 0}
    second:
      m_TileIndex: 31
      m_TileSpriteIndex: 87
      m_TileMatrixIndex: 0
      m_TileColorIndex: 26
      m_ObjectToInstantiate: {fileID: 0}
      m_TileFlags: 1
      m_ColliderType: 1
  - first: {x: 9, y: -3, z: 0}
    second:
      m_TileIndex: 30
      m_TileSpriteIndex: 86
      m_TileMatrixIndex: 0
      m_TileColorIndex: 26
      m_ObjectToInstantiate: {fileID: 0}
      m_TileFlags: 1
      m_ColliderType: 1
  - first: {x: 10, y: -3, z: 0}
    second:
      m_TileIndex: 29
      m_TileSpriteIndex: 85
      m_TileMatrixIndex: 0
      m_TileColorIndex: 26
      m_ObjectToInstantiate: {fileID: 0}
      m_TileFlags: 1
      m_ColliderType: 1
  - first: {x: 11, y: -3, z: 0}
    second:
      m_TileIndex: 28
      m_TileSpriteIndex: 84
      m_TileMatrixIndex: 0
      m_TileColorIndex: 26
      m_ObjectToInstantiate: {fileID: 0}
      m_TileFlags: 1
      m_ColliderType: 1
  - first: {x: 12, y: -3, z: 0}
    second:
      m_TileIndex: 27
      m_TileSpriteIndex: 83
      m_TileMatrixIndex: 0
      m_TileColorIndex: 26
      m_ObjectToInstantiate: {fileID: 0}
      m_TileFlags: 1
      m_ColliderType: 1
  - first: {x: 13, y: -3, z: 0}
    second:
      m_TileIndex: 26
      m_TileSpriteIndex: 82
      m_TileMatrixIndex: 0
      m_TileColorIndex: 26
      m_ObjectToInstantiate: {fileID: 0}
      m_TileFlags: 1
      m_ColliderType: 1
  - first: {x: 14, y: -3, z: 0}
    second:
      m_TileIndex: 25
      m_TileSpriteIndex: 34
      m_TileMatrixIndex: 0
      m_TileColorIndex: 26
      m_ObjectToInstantiate: {fileID: 0}
      m_TileFlags: 1
      m_ColliderType: 1
  - first: {x: 18, y: -3, z: 0}
    second:
      m_TileIndex: 117
      m_TileSpriteIndex: 117
      m_TileMatrixIndex: 0
      m_TileColorIndex: 26
      m_ObjectToInstantiate: {fileID: 0}
      m_TileFlags: 1
      m_ColliderType: 1
  - first: {x: 19, y: -3, z: 0}
    second:
      m_TileIndex: 116
      m_TileSpriteIndex: 116
      m_TileMatrixIndex: 0
      m_TileColorIndex: 26
      m_ObjectToInstantiate: {fileID: 0}
      m_TileFlags: 1
      m_ColliderType: 1
  - first: {x: 20, y: -3, z: 0}
    second:
      m_TileIndex: 115
      m_TileSpriteIndex: 115
      m_TileMatrixIndex: 0
      m_TileColorIndex: 26
      m_ObjectToInstantiate: {fileID: 0}
      m_TileFlags: 1
      m_ColliderType: 1
  - first: {x: 21, y: -3, z: 0}
    second:
      m_TileIndex: 114
      m_TileSpriteIndex: 114
      m_TileMatrixIndex: 0
      m_TileColorIndex: 26
      m_ObjectToInstantiate: {fileID: 0}
      m_TileFlags: 1
      m_ColliderType: 1
  - first: {x: 22, y: -3, z: 0}
    second:
      m_TileIndex: 122
      m_TileSpriteIndex: 122
      m_TileMatrixIndex: 0
      m_TileColorIndex: 26
      m_ObjectToInstantiate: {fileID: 0}
      m_TileFlags: 1
      m_ColliderType: 1
  - first: {x: 23, y: -3, z: 0}
    second:
      m_TileIndex: 123
      m_TileSpriteIndex: 123
      m_TileMatrixIndex: 0
      m_TileColorIndex: 26
      m_ObjectToInstantiate: {fileID: 0}
      m_TileFlags: 1
      m_ColliderType: 1
  - first: {x: 24, y: -3, z: 0}
    second:
      m_TileIndex: 124
      m_TileSpriteIndex: 124
      m_TileMatrixIndex: 0
      m_TileColorIndex: 26
      m_ObjectToInstantiate: {fileID: 0}
      m_TileFlags: 1
      m_ColliderType: 1
  - first: {x: 25, y: -3, z: 0}
    second:
      m_TileIndex: 125
      m_TileSpriteIndex: 125
      m_TileMatrixIndex: 0
      m_TileColorIndex: 26
      m_ObjectToInstantiate: {fileID: 0}
      m_TileFlags: 1
      m_ColliderType: 1
  - first: {x: -7, y: -2, z: 0}
    second:
      m_TileIndex: 23
      m_TileSpriteIndex: 33
      m_TileMatrixIndex: 0
      m_TileColorIndex: 26
      m_ObjectToInstantiate: {fileID: 0}
      m_TileFlags: 1
      m_ColliderType: 1
  - first: {x: -6, y: -2, z: 0}
    second:
      m_TileIndex: 20
      m_TileSpriteIndex: 32
      m_TileMatrixIndex: 0
      m_TileColorIndex: 26
      m_ObjectToInstantiate: {fileID: 0}
      m_TileFlags: 1
      m_ColliderType: 1
  - first: {x: -3, y: -2, z: 0}
    second:
      m_TileIndex: 19
      m_TileSpriteIndex: 31
      m_TileMatrixIndex: 0
      m_TileColorIndex: 26
      m_ObjectToInstantiate: {fileID: 0}
      m_TileFlags: 1
      m_ColliderType: 1
  - first: {x: -2, y: -2, z: 0}
    second:
      m_TileIndex: 18
      m_TileSpriteIndex: 30
      m_TileMatrixIndex: 0
      m_TileColorIndex: 26
      m_ObjectToInstantiate: {fileID: 0}
      m_TileFlags: 1
      m_ColliderType: 1
  - first: {x: 2, y: -2, z: 0}
    second:
      m_TileIndex: 43
      m_TileSpriteIndex: 43
      m_TileMatrixIndex: 0
      m_TileColorIndex: 26
      m_ObjectToInstantiate: {fileID: 0}
      m_TileFlags: 1
      m_ColliderType: 1
  - first: {x: 3, y: -2, z: 0}
    second:
      m_TileIndex: 42
      m_TileSpriteIndex: 42
      m_TileMatrixIndex: 0
      m_TileColorIndex: 26
      m_ObjectToInstantiate: {fileID: 0}
      m_TileFlags: 1
      m_ColliderType: 1
  - first: {x: 7, y: -2, z: 0}
    second:
      m_TileIndex: 41
      m_TileSpriteIndex: 41
      m_TileMatrixIndex: 0
      m_TileColorIndex: 26
      m_ObjectToInstantiate: {fileID: 0}
      m_TileFlags: 1
      m_ColliderType: 1
  - first: {x: 8, y: -2, z: 0}
    second:
      m_TileIndex: 40
      m_TileSpriteIndex: 40
      m_TileMatrixIndex: 0
      m_TileColorIndex: 26
      m_ObjectToInstantiate: {fileID: 0}
      m_TileFlags: 1
      m_ColliderType: 1
  - first: {x: 11, y: -2, z: 0}
    second:
      m_TileIndex: 39
      m_TileSpriteIndex: 39
      m_TileMatrixIndex: 0
      m_TileColorIndex: 26
      m_ObjectToInstantiate: {fileID: 0}
      m_TileFlags: 1
      m_ColliderType: 1
  - first: {x: 12, y: -2, z: 0}
    second:
      m_TileIndex: 38
      m_TileSpriteIndex: 38
      m_TileMatrixIndex: 0
      m_TileColorIndex: 26
      m_ObjectToInstantiate: {fileID: 0}
      m_TileFlags: 1
      m_ColliderType: 1
  - first: {x: 13, y: -2, z: 0}
    second:
      m_TileIndex: 37
      m_TileSpriteIndex: 37
      m_TileMatrixIndex: 0
      m_TileColorIndex: 26
      m_ObjectToInstantiate: {fileID: 0}
      m_TileFlags: 1
      m_ColliderType: 1
  - first: {x: 14, y: -2, z: 0}
    second:
      m_TileIndex: 36
      m_TileSpriteIndex: 36
      m_TileMatrixIndex: 0
      m_TileColorIndex: 26
      m_ObjectToInstantiate: {fileID: 0}
      m_TileFlags: 1
      m_ColliderType: 1
  - first: {x: 16, y: -2, z: 0}
    second:
      m_TileIndex: 35
      m_TileSpriteIndex: 35
      m_TileMatrixIndex: 0
      m_TileColorIndex: 26
      m_ObjectToInstantiate: {fileID: 0}
      m_TileFlags: 1
      m_ColliderType: 1
  - first: {x: 18, y: -2, z: 0}
    second:
      m_TileIndex: 113
      m_TileSpriteIndex: 113
      m_TileMatrixIndex: 0
      m_TileColorIndex: 26
      m_ObjectToInstantiate: {fileID: 0}
      m_TileFlags: 1
      m_ColliderType: 1
  - first: {x: 19, y: -2, z: 0}
    second:
      m_TileIndex: 112
      m_TileSpriteIndex: 112
      m_TileMatrixIndex: 0
      m_TileColorIndex: 26
      m_ObjectToInstantiate: {fileID: 0}
      m_TileFlags: 1
      m_ColliderType: 1
  - first: {x: 20, y: -2, z: 0}
    second:
      m_TileIndex: 111
      m_TileSpriteIndex: 111
      m_TileMatrixIndex: 0
      m_TileColorIndex: 26
      m_ObjectToInstantiate: {fileID: 0}
      m_TileFlags: 1
      m_ColliderType: 1
  - first: {x: 21, y: -2, z: 0}
    second:
      m_TileIndex: 110
      m_TileSpriteIndex: 110
      m_TileMatrixIndex: 0
      m_TileColorIndex: 26
      m_ObjectToInstantiate: {fileID: 0}
      m_TileFlags: 1
      m_ColliderType: 1
  - first: {x: 22, y: -2, z: 0}
    second:
      m_TileIndex: 118
      m_TileSpriteIndex: 118
      m_TileMatrixIndex: 0
      m_TileColorIndex: 26
      m_ObjectToInstantiate: {fileID: 0}
      m_TileFlags: 1
      m_ColliderType: 1
  - first: {x: 23, y: -2, z: 0}
    second:
      m_TileIndex: 119
      m_TileSpriteIndex: 119
      m_TileMatrixIndex: 0
      m_TileColorIndex: 26
      m_ObjectToInstantiate: {fileID: 0}
      m_TileFlags: 1
      m_ColliderType: 1
  - first: {x: 24, y: -2, z: 0}
    second:
      m_TileIndex: 120
      m_TileSpriteIndex: 120
      m_TileMatrixIndex: 0
      m_TileColorIndex: 26
      m_ObjectToInstantiate: {fileID: 0}
      m_TileFlags: 1
      m_ColliderType: 1
  - first: {x: 25, y: -2, z: 0}
    second:
      m_TileIndex: 121
      m_TileSpriteIndex: 121
      m_TileMatrixIndex: 0
      m_TileColorIndex: 26
      m_ObjectToInstantiate: {fileID: 0}
      m_TileFlags: 1
      m_ColliderType: 1
  - first: {x: -5, y: -1, z: 0}
    second:
      m_TileIndex: 17
      m_TileSpriteIndex: 29
      m_TileMatrixIndex: 0
      m_TileColorIndex: 26
      m_ObjectToInstantiate: {fileID: 0}
      m_TileFlags: 1
      m_ColliderType: 1
  - first: {x: -4, y: -1, z: 0}
    second:
      m_TileIndex: 16
      m_TileSpriteIndex: 28
      m_TileMatrixIndex: 0
      m_TileColorIndex: 26
      m_ObjectToInstantiate: {fileID: 0}
      m_TileFlags: 1
      m_ColliderType: 1
  - first: {x: 0, y: -1, z: 0}
    second:
      m_TileIndex: 51
      m_TileSpriteIndex: 51
      m_TileMatrixIndex: 0
      m_TileColorIndex: 26
      m_ObjectToInstantiate: {fileID: 0}
      m_TileFlags: 1
      m_ColliderType: 1
  - first: {x: 3, y: -1, z: 0}
    second:
      m_TileIndex: 50
      m_TileSpriteIndex: 50
      m_TileMatrixIndex: 0
      m_TileColorIndex: 26
      m_ObjectToInstantiate: {fileID: 0}
      m_TileFlags: 1
      m_ColliderType: 1
  - first: {x: 4, y: -1, z: 0}
    second:
      m_TileIndex: 49
      m_TileSpriteIndex: 49
      m_TileMatrixIndex: 0
      m_TileColorIndex: 26
      m_ObjectToInstantiate: {fileID: 0}
      m_TileFlags: 1
      m_ColliderType: 1
  - first: {x: 5, y: -1, z: 0}
    second:
      m_TileIndex: 48
      m_TileSpriteIndex: 48
      m_TileMatrixIndex: 0
      m_TileColorIndex: 26
      m_ObjectToInstantiate: {fileID: 0}
      m_TileFlags: 1
      m_ColliderType: 1
  - first: {x: 6, y: -1, z: 0}
    second:
      m_TileIndex: 47
      m_TileSpriteIndex: 47
      m_TileMatrixIndex: 0
      m_TileColorIndex: 26
      m_ObjectToInstantiate: {fileID: 0}
      m_TileFlags: 1
      m_ColliderType: 1
  - first: {x: 7, y: -1, z: 0}
    second:
      m_TileIndex: 46
      m_TileSpriteIndex: 46
      m_TileMatrixIndex: 0
      m_TileColorIndex: 26
      m_ObjectToInstantiate: {fileID: 0}
      m_TileFlags: 1
      m_ColliderType: 1
  - first: {x: 10, y: -1, z: 0}
    second:
      m_TileIndex: 45
      m_TileSpriteIndex: 45
      m_TileMatrixIndex: 0
      m_TileColorIndex: 26
      m_ObjectToInstantiate: {fileID: 0}
      m_TileFlags: 1
      m_ColliderType: 1
  - first: {x: 16, y: -1, z: 0}
    second:
      m_TileIndex: 44
      m_TileSpriteIndex: 44
      m_TileMatrixIndex: 0
      m_TileColorIndex: 26
      m_ObjectToInstantiate: {fileID: 0}
      m_TileFlags: 1
      m_ColliderType: 1
  - first: {x: 18, y: -1, z: 0}
    second:
      m_TileIndex: 109
      m_TileSpriteIndex: 109
      m_TileMatrixIndex: 0
      m_TileColorIndex: 26
      m_ObjectToInstantiate: {fileID: 0}
      m_TileFlags: 1
      m_ColliderType: 1
  - first: {x: 19, y: -1, z: 0}
    second:
      m_TileIndex: 108
      m_TileSpriteIndex: 108
      m_TileMatrixIndex: 0
      m_TileColorIndex: 26
      m_ObjectToInstantiate: {fileID: 0}
      m_TileFlags: 1
      m_ColliderType: 1
  - first: {x: 20, y: -1, z: 0}
    second:
      m_TileIndex: 107
      m_TileSpriteIndex: 107
      m_TileMatrixIndex: 0
      m_TileColorIndex: 26
      m_ObjectToInstantiate: {fileID: 0}
      m_TileFlags: 1
      m_ColliderType: 1
  - first: {x: 21, y: -1, z: 0}
    second:
      m_TileIndex: 106
      m_TileSpriteIndex: 106
      m_TileMatrixIndex: 0
      m_TileColorIndex: 26
      m_ObjectToInstantiate: {fileID: 0}
      m_TileFlags: 1
      m_ColliderType: 1
  - first: {x: -5, y: 0, z: 0}
    second:
      m_TileIndex: 15
      m_TileSpriteIndex: 27
      m_TileMatrixIndex: 0
      m_TileColorIndex: 26
      m_ObjectToInstantiate: {fileID: 0}
      m_TileFlags: 1
      m_ColliderType: 1
  - first: {x: -4, y: 0, z: 0}
    second:
      m_TileIndex: 14
      m_TileSpriteIndex: 26
      m_TileMatrixIndex: 0
      m_TileColorIndex: 26
      m_ObjectToInstantiate: {fileID: 0}
      m_TileFlags: 1
      m_ColliderType: 1
  - first: {x: 0, y: 0, z: 0}
    second:
      m_TileIndex: 59
      m_TileSpriteIndex: 59
      m_TileMatrixIndex: 0
      m_TileColorIndex: 26
      m_ObjectToInstantiate: {fileID: 0}
      m_TileFlags: 1
      m_ColliderType: 1
  - first: {x: 1, y: 0, z: 0}
    second:
      m_TileIndex: 58
      m_TileSpriteIndex: 58
      m_TileMatrixIndex: 0
      m_TileColorIndex: 26
      m_ObjectToInstantiate: {fileID: 0}
      m_TileFlags: 1
      m_ColliderType: 1
  - first: {x: 4, y: 0, z: 0}
    second:
      m_TileIndex: 57
      m_TileSpriteIndex: 57
      m_TileMatrixIndex: 0
      m_TileColorIndex: 26
      m_ObjectToInstantiate: {fileID: 0}
      m_TileFlags: 1
      m_ColliderType: 1
  - first: {x: 5, y: 0, z: 0}
    second:
      m_TileIndex: 56
      m_TileSpriteIndex: 56
      m_TileMatrixIndex: 0
      m_TileColorIndex: 26
      m_ObjectToInstantiate: {fileID: 0}
      m_TileFlags: 1
      m_ColliderType: 1
  - first: {x: 6, y: 0, z: 0}
    second:
      m_TileIndex: 55
      m_TileSpriteIndex: 55
      m_TileMatrixIndex: 0
      m_TileColorIndex: 26
      m_ObjectToInstantiate: {fileID: 0}
      m_TileFlags: 1
      m_ColliderType: 1
  - first: {x: 9, y: 0, z: 0}
    second:
      m_TileIndex: 54
      m_TileSpriteIndex: 54
      m_TileMatrixIndex: 0
      m_TileColorIndex: 26
      m_ObjectToInstantiate: {fileID: 0}
      m_TileFlags: 1
      m_ColliderType: 1
  - first: {x: 10, y: 0, z: 0}
    second:
      m_TileIndex: 53
      m_TileSpriteIndex: 53
      m_TileMatrixIndex: 0
      m_TileColorIndex: 26
      m_ObjectToInstantiate: {fileID: 0}
      m_TileFlags: 1
      m_ColliderType: 1
  - first: {x: 16, y: 0, z: 0}
    second:
      m_TileIndex: 52
      m_TileSpriteIndex: 52
      m_TileMatrixIndex: 0
      m_TileColorIndex: 26
      m_ObjectToInstantiate: {fileID: 0}
      m_TileFlags: 1
      m_ColliderType: 1
  - first: {x: 18, y: 0, z: 0}
    second:
      m_TileIndex: 105
      m_TileSpriteIndex: 105
      m_TileMatrixIndex: 0
      m_TileColorIndex: 26
      m_ObjectToInstantiate: {fileID: 0}
      m_TileFlags: 1
      m_ColliderType: 1
  - first: {x: 19, y: 0, z: 0}
    second:
      m_TileIndex: 104
      m_TileSpriteIndex: 104
      m_TileMatrixIndex: 0
      m_TileColorIndex: 26
      m_ObjectToInstantiate: {fileID: 0}
      m_TileFlags: 1
      m_ColliderType: 1
  - first: {x: 20, y: 0, z: 0}
    second:
      m_TileIndex: 103
      m_TileSpriteIndex: 103
      m_TileMatrixIndex: 0
      m_TileColorIndex: 26
      m_ObjectToInstantiate: {fileID: 0}
      m_TileFlags: 1
      m_ColliderType: 1
  - first: {x: 21, y: 0, z: 0}
    second:
      m_TileIndex: 102
      m_TileSpriteIndex: 102
      m_TileMatrixIndex: 0
      m_TileColorIndex: 26
      m_ObjectToInstantiate: {fileID: 0}
      m_TileFlags: 1
      m_ColliderType: 1
  - first: {x: -7, y: 1, z: 0}
    second:
      m_TileIndex: 13
      m_TileSpriteIndex: 25
      m_TileMatrixIndex: 0
      m_TileColorIndex: 26
      m_ObjectToInstantiate: {fileID: 0}
      m_TileFlags: 1
      m_ColliderType: 1
  - first: {x: -2, y: 1, z: 0}
    second:
      m_TileIndex: 12
      m_TileSpriteIndex: 24
      m_TileMatrixIndex: 0
      m_TileColorIndex: 26
      m_ObjectToInstantiate: {fileID: 0}
      m_TileFlags: 1
      m_ColliderType: 1
  - first: {x: 1, y: 1, z: 0}
    second:
      m_TileIndex: 64
      m_TileSpriteIndex: 64
      m_TileMatrixIndex: 0
      m_TileColorIndex: 26
      m_ObjectToInstantiate: {fileID: 0}
      m_TileFlags: 1
      m_ColliderType: 1
  - first: {x: 2, y: 1, z: 0}
    second:
      m_TileIndex: 63
      m_TileSpriteIndex: 63
      m_TileMatrixIndex: 0
      m_TileColorIndex: 26
      m_ObjectToInstantiate: {fileID: 0}
      m_TileFlags: 1
      m_ColliderType: 1
  - first: {x: 8, y: 1, z: 0}
    second:
      m_TileIndex: 62
      m_TileSpriteIndex: 62
      m_TileMatrixIndex: 0
      m_TileColorIndex: 26
      m_ObjectToInstantiate: {fileID: 0}
      m_TileFlags: 1
      m_ColliderType: 1
  - first: {x: 9, y: 1, z: 0}
    second:
      m_TileIndex: 61
      m_TileSpriteIndex: 61
      m_TileMatrixIndex: 0
      m_TileColorIndex: 26
      m_ObjectToInstantiate: {fileID: 0}
      m_TileFlags: 1
      m_ColliderType: 1
  - first: {x: 12, y: 1, z: 0}
    second:
      m_TileIndex: 78
      m_TileSpriteIndex: 78
      m_TileMatrixIndex: 0
      m_TileColorIndex: 26
      m_ObjectToInstantiate: {fileID: 0}
      m_TileFlags: 1
      m_ColliderType: 1
  - first: {x: 13, y: 1, z: 0}
    second:
      m_TileIndex: 79
      m_TileSpriteIndex: 79
      m_TileMatrixIndex: 0
      m_TileColorIndex: 26
      m_ObjectToInstantiate: {fileID: 0}
      m_TileFlags: 1
      m_ColliderType: 1
  - first: {x: 16, y: 1, z: 0}
    second:
      m_TileIndex: 60
      m_TileSpriteIndex: 60
      m_TileMatrixIndex: 0
      m_TileColorIndex: 26
      m_ObjectToInstantiate: {fileID: 0}
      m_TileFlags: 1
      m_ColliderType: 1
  - first: {x: 18, y: 1, z: 0}
    second:
      m_TileIndex: 101
      m_TileSpriteIndex: 101
      m_TileMatrixIndex: 0
      m_TileColorIndex: 26
      m_ObjectToInstantiate: {fileID: 0}
      m_TileFlags: 1
      m_ColliderType: 1
  - first: {x: 19, y: 1, z: 0}
    second:
      m_TileIndex: 100
      m_TileSpriteIndex: 100
      m_TileMatrixIndex: 0
      m_TileColorIndex: 26
      m_ObjectToInstantiate: {fileID: 0}
      m_TileFlags: 1
      m_ColliderType: 1
  - first: {x: 20, y: 1, z: 0}
    second:
      m_TileIndex: 99
      m_TileSpriteIndex: 99
      m_TileMatrixIndex: 0
      m_TileColorIndex: 26
      m_ObjectToInstantiate: {fileID: 0}
      m_TileFlags: 1
      m_ColliderType: 1
  - first: {x: 21, y: 1, z: 0}
    second:
      m_TileIndex: 98
      m_TileSpriteIndex: 98
      m_TileMatrixIndex: 0
      m_TileColorIndex: 26
      m_ObjectToInstantiate: {fileID: 0}
      m_TileFlags: 1
      m_ColliderType: 1
  - first: {x: -7, y: 2, z: 0}
    second:
      m_TileIndex: 11
      m_TileSpriteIndex: 23
      m_TileMatrixIndex: 0
      m_TileColorIndex: 26
      m_ObjectToInstantiate: {fileID: 0}
      m_TileFlags: 1
      m_ColliderType: 1
  - first: {x: -2, y: 2, z: 0}
    second:
      m_TileIndex: 10
      m_TileSpriteIndex: 22
      m_TileMatrixIndex: 0
      m_TileColorIndex: 26
      m_ObjectToInstantiate: {fileID: 0}
      m_TileFlags: 1
      m_ColliderType: 1
  - first: {x: 2, y: 2, z: 0}
    second:
      m_TileIndex: 72
      m_TileSpriteIndex: 72
      m_TileMatrixIndex: 0
      m_TileColorIndex: 26
      m_ObjectToInstantiate: {fileID: 0}
      m_TileFlags: 1
      m_ColliderType: 1
  - first: {x: 3, y: 2, z: 0}
    second:
      m_TileIndex: 71
      m_TileSpriteIndex: 71
      m_TileMatrixIndex: 0
      m_TileColorIndex: 26
      m_ObjectToInstantiate: {fileID: 0}
      m_TileFlags: 1
      m_ColliderType: 1
  - first: {x: 4, y: 2, z: 0}
    second:
      m_TileIndex: 70
      m_TileSpriteIndex: 70
      m_TileMatrixIndex: 0
      m_TileColorIndex: 26
      m_ObjectToInstantiate: {fileID: 0}
      m_TileFlags: 1
      m_ColliderType: 1
  - first: {x: 5, y: 2, z: 0}
    second:
      m_TileIndex: 69
      m_TileSpriteIndex: 69
      m_TileMatrixIndex: 0
      m_TileColorIndex: 26
      m_ObjectToInstantiate: {fileID: 0}
      m_TileFlags: 1
      m_ColliderType: 1
  - first: {x: 6, y: 2, z: 0}
    second:
      m_TileIndex: 68
      m_TileSpriteIndex: 68
      m_TileMatrixIndex: 0
      m_TileColorIndex: 26
      m_ObjectToInstantiate: {fileID: 0}
      m_TileFlags: 1
      m_ColliderType: 1
  - first: {x: 7, y: 2, z: 0}
    second:
      m_TileIndex: 67
      m_TileSpriteIndex: 67
      m_TileMatrixIndex: 0
      m_TileColorIndex: 26
      m_ObjectToInstantiate: {fileID: 0}
      m_TileFlags: 1
      m_ColliderType: 1
  - first: {x: 8, y: 2, z: 0}
    second:
      m_TileIndex: 66
      m_TileSpriteIndex: 66
      m_TileMatrixIndex: 0
      m_TileColorIndex: 26
      m_ObjectToInstantiate: {fileID: 0}
      m_TileFlags: 1
      m_ColliderType: 1
  - first: {x: 12, y: 2, z: 0}
    second:
      m_TileIndex: 2
      m_TileSpriteIndex: 21
      m_TileMatrixIndex: 0
      m_TileColorIndex: 26
      m_ObjectToInstantiate: {fileID: 0}
      m_TileFlags: 1
      m_ColliderType: 1
  - first: {x: 13, y: 2, z: 0}
    second:
      m_TileIndex: 1
      m_TileSpriteIndex: 20
      m_TileMatrixIndex: 0
      m_TileColorIndex: 26
      m_ObjectToInstantiate: {fileID: 0}
      m_TileFlags: 1
      m_ColliderType: 1
  - first: {x: 14, y: 2, z: 0}
    second:
      m_TileIndex: 0
      m_TileSpriteIndex: 19
      m_TileMatrixIndex: 0
      m_TileColorIndex: 26
      m_ObjectToInstantiate: {fileID: 0}
      m_TileFlags: 1
      m_ColliderType: 1
  - first: {x: 15, y: 2, z: 0}
    second:
      m_TileIndex: 87
      m_TileSpriteIndex: 80
      m_TileMatrixIndex: 0
      m_TileColorIndex: 26
      m_ObjectToInstantiate: {fileID: 0}
      m_TileFlags: 1
      m_ColliderType: 1
  - first: {x: 16, y: 2, z: 0}
    second:
      m_TileIndex: 65
      m_TileSpriteIndex: 81
      m_TileMatrixIndex: 0
      m_TileColorIndex: 26
      m_ObjectToInstantiate: {fileID: 0}
      m_TileFlags: 1
      m_ColliderType: 1
  - first: {x: 18, y: 2, z: 0}
    second:
      m_TileIndex: 97
      m_TileSpriteIndex: 97
      m_TileMatrixIndex: 0
      m_TileColorIndex: 26
      m_ObjectToInstantiate: {fileID: 0}
      m_TileFlags: 1
      m_ColliderType: 1
  - first: {x: 19, y: 2, z: 0}
    second:
      m_TileIndex: 96
      m_TileSpriteIndex: 96
      m_TileMatrixIndex: 0
      m_TileColorIndex: 26
      m_ObjectToInstantiate: {fileID: 0}
      m_TileFlags: 1
      m_ColliderType: 1
  - first: {x: 20, y: 2, z: 0}
    second:
      m_TileIndex: 95
      m_TileSpriteIndex: 95
      m_TileMatrixIndex: 0
      m_TileColorIndex: 26
      m_ObjectToInstantiate: {fileID: 0}
      m_TileFlags: 1
      m_ColliderType: 1
  - first: {x: 21, y: 2, z: 0}
    second:
      m_TileIndex: 94
      m_TileSpriteIndex: 94
      m_TileMatrixIndex: 0
      m_TileColorIndex: 26
      m_ObjectToInstantiate: {fileID: 0}
      m_TileFlags: 1
      m_ColliderType: 1
  - first: {x: -5, y: 3, z: 0}
    second:
      m_TileIndex: 9
      m_TileSpriteIndex: 18
      m_TileMatrixIndex: 0
      m_TileColorIndex: 26
      m_ObjectToInstantiate: {fileID: 0}
      m_TileFlags: 1
      m_ColliderType: 1
  - first: {x: -4, y: 3, z: 0}
    second:
      m_TileIndex: 8
      m_TileSpriteIndex: 17
      m_TileMatrixIndex: 0
      m_TileColorIndex: 26
      m_ObjectToInstantiate: {fileID: 0}
      m_TileFlags: 1
      m_ColliderType: 1
  - first: {x: 3, y: 3, z: 0}
    second:
      m_TileIndex: 77
      m_TileSpriteIndex: 77
      m_TileMatrixIndex: 0
      m_TileColorIndex: 26
      m_ObjectToInstantiate: {fileID: 0}
      m_TileFlags: 1
      m_ColliderType: 1
  - first: {x: 4, y: 3, z: 0}
    second:
      m_TileIndex: 76
      m_TileSpriteIndex: 76
      m_TileMatrixIndex: 0
      m_TileColorIndex: 26
      m_ObjectToInstantiate: {fileID: 0}
      m_TileFlags: 1
      m_ColliderType: 1
  - first: {x: 5, y: 3, z: 0}
    second:
      m_TileIndex: 75
      m_TileSpriteIndex: 75
      m_TileMatrixIndex: 0
      m_TileColorIndex: 26
      m_ObjectToInstantiate: {fileID: 0}
      m_TileFlags: 1
      m_ColliderType: 1
  - first: {x: 6, y: 3, z: 0}
    second:
      m_TileIndex: 74
      m_TileSpriteIndex: 74
      m_TileMatrixIndex: 0
      m_TileColorIndex: 26
      m_ObjectToInstantiate: {fileID: 0}
      m_TileFlags: 1
      m_ColliderType: 1
  - first: {x: 7, y: 3, z: 0}
    second:
      m_TileIndex: 73
      m_TileSpriteIndex: 73
      m_TileMatrixIndex: 0
      m_TileColorIndex: 26
      m_ObjectToInstantiate: {fileID: 0}
      m_TileFlags: 1
      m_ColliderType: 1
  - first: {x: 12, y: 3, z: 0}
    second:
      m_TileIndex: 7
      m_TileSpriteIndex: 16
      m_TileMatrixIndex: 0
      m_TileColorIndex: 26
      m_ObjectToInstantiate: {fileID: 0}
      m_TileFlags: 1
      m_ColliderType: 1
  - first: {x: 13, y: 3, z: 0}
    second:
      m_TileIndex: 4
      m_TileSpriteIndex: 15
      m_TileMatrixIndex: 0
      m_TileColorIndex: 26
      m_ObjectToInstantiate: {fileID: 0}
      m_TileFlags: 1
      m_ColliderType: 1
  - first: {x: 14, y: 3, z: 0}
    second:
      m_TileIndex: 3
      m_TileSpriteIndex: 14
      m_TileMatrixIndex: 0
      m_TileColorIndex: 26
      m_ObjectToInstantiate: {fileID: 0}
      m_TileFlags: 1
      m_ColliderType: 1
  - first: {x: 15, y: 3, z: 0}
    second:
      m_TileIndex: 83
      m_TileSpriteIndex: 65
      m_TileMatrixIndex: 0
      m_TileColorIndex: 26
      m_ObjectToInstantiate: {fileID: 0}
      m_TileFlags: 1
      m_ColliderType: 1
  - first: {x: -5, y: 4, z: 0}
    second:
      m_TileIndex: 6
      m_TileSpriteIndex: 13
      m_TileMatrixIndex: 0
      m_TileColorIndex: 26
      m_ObjectToInstantiate: {fileID: 0}
      m_TileFlags: 1
      m_ColliderType: 1
  - first: {x: -4, y: 4, z: 0}
    second:
      m_TileIndex: 5
      m_TileSpriteIndex: 12
      m_TileMatrixIndex: 0
      m_TileColorIndex: 26
      m_ObjectToInstantiate: {fileID: 0}
      m_TileFlags: 1
      m_ColliderType: 1
  m_AnimatedTiles: {}
  m_TileAssetArray:
  - m_RefCount: 1
    m_Data: {fileID: 11400000, guid: 4270eb71948b09b4e9634bdc96c1bdd3, type: 2}
  - m_RefCount: 1
    m_Data: {fileID: 11400000, guid: 5c86996c3e1013d4eb69f067cde4709e, type: 2}
  - m_RefCount: 1
    m_Data: {fileID: 11400000, guid: 53db15b308d364f4aa3fc09e43dee409, type: 2}
  - m_RefCount: 1
    m_Data: {fileID: 11400000, guid: ef265e7f5c4d47a46bb85a877c8c3e4b, type: 2}
  - m_RefCount: 1
    m_Data: {fileID: 11400000, guid: faebb093e17ad6546b178cf14450b172, type: 2}
  - m_RefCount: 1
    m_Data: {fileID: 11400000, guid: 974ecfa08031ec24796b178937d3c9f4, type: 2}
  - m_RefCount: 1
    m_Data: {fileID: 11400000, guid: 1c9a508a9c01c434e869e59d2666b1ca, type: 2}
  - m_RefCount: 1
    m_Data: {fileID: 11400000, guid: 104cf144f6552764da7d458bfab25224, type: 2}
  - m_RefCount: 1
    m_Data: {fileID: 11400000, guid: 0f5496e2186f36d4abb438210f6ca0b0, type: 2}
  - m_RefCount: 1
    m_Data: {fileID: 11400000, guid: 608607510bca3224ba818e9acb658151, type: 2}
  - m_RefCount: 1
    m_Data: {fileID: 11400000, guid: ce50a7985dc87c24d8f2b4c622707234, type: 2}
  - m_RefCount: 1
    m_Data: {fileID: 11400000, guid: 30a79e5f7dd1dc54894a4ea563689f12, type: 2}
  - m_RefCount: 1
    m_Data: {fileID: 11400000, guid: 6bf7264b664fb5e4ca16fc05ac150feb, type: 2}
  - m_RefCount: 1
    m_Data: {fileID: 11400000, guid: de7d1d5629f5fa346a7f945b5e5c6db4, type: 2}
  - m_RefCount: 1
    m_Data: {fileID: 11400000, guid: fd16c381638452543801f02d504cb43e, type: 2}
  - m_RefCount: 1
    m_Data: {fileID: 11400000, guid: 6b304a9b924e22b46a9da6cde33240b3, type: 2}
  - m_RefCount: 1
    m_Data: {fileID: 11400000, guid: 541743ed84c6a40498f25ae11e17f202, type: 2}
  - m_RefCount: 1
    m_Data: {fileID: 11400000, guid: 968f10371b1ecd7409d222ca71466767, type: 2}
  - m_RefCount: 1
    m_Data: {fileID: 11400000, guid: 30b43e37efd75d042bf299432042d2e8, type: 2}
  - m_RefCount: 1
    m_Data: {fileID: 11400000, guid: 9ed4e88001f7f8c4f86d1e4450b1b214, type: 2}
  - m_RefCount: 1
    m_Data: {fileID: 11400000, guid: dc483c34c8c348d468c4bc9c4dc45815, type: 2}
  - m_RefCount: 1
    m_Data: {fileID: 11400000, guid: 58aa561718616144c8391efa872beead, type: 2}
  - m_RefCount: 1
    m_Data: {fileID: 11400000, guid: 7f07943ee0dbda6418fb27e45982396e, type: 2}
  - m_RefCount: 1
    m_Data: {fileID: 11400000, guid: cfa020d7a3b04cc4bb0fa1bc63779196, type: 2}
  - m_RefCount: 1
    m_Data: {fileID: 11400000, guid: 1e4d170c7519dd1408cb8e9a4980f463, type: 2}
  - m_RefCount: 1
    m_Data: {fileID: 11400000, guid: a8e4dcf9bb898a446a27f6f211d46ee8, type: 2}
  - m_RefCount: 1
    m_Data: {fileID: 11400000, guid: f29d701a167f6534d87b50a83d653e3d, type: 2}
  - m_RefCount: 1
    m_Data: {fileID: 11400000, guid: 1badb12c8cd8d4a4099e9e9500d31591, type: 2}
  - m_RefCount: 1
    m_Data: {fileID: 11400000, guid: 2ecd7de0bfea3ca468afc4f5692834d4, type: 2}
  - m_RefCount: 1
    m_Data: {fileID: 11400000, guid: d1d340d8c00f58146bbd6fb98b94aa9d, type: 2}
  - m_RefCount: 1
    m_Data: {fileID: 11400000, guid: 023f552c099b9ad4b9d359aa64f545fa, type: 2}
  - m_RefCount: 1
    m_Data: {fileID: 11400000, guid: 73cccd5f5ec66d443ad2956c59718ae4, type: 2}
  - m_RefCount: 1
    m_Data: {fileID: 11400000, guid: ac0c95864fad6ba4a8e41b6295062b7b, type: 2}
  - m_RefCount: 1
    m_Data: {fileID: 11400000, guid: af98186ba67d79f41b4863257807edd7, type: 2}
  - m_RefCount: 1
    m_Data: {fileID: 11400000, guid: 53ce8c38dd47abe47988bb8d37af181f, type: 2}
  - m_RefCount: 1
    m_Data: {fileID: 11400000, guid: 27a08c5f4b9d0d74d9d412f3d5a4c5d8, type: 2}
  - m_RefCount: 1
    m_Data: {fileID: 11400000, guid: 80becfd94cb43204bad652d0eeb4f1aa, type: 2}
  - m_RefCount: 1
    m_Data: {fileID: 11400000, guid: 974ce996d49e1df4aaa19f25e35eb07d, type: 2}
  - m_RefCount: 1
    m_Data: {fileID: 11400000, guid: 37c854572e35d684298dc2852a3a2f94, type: 2}
  - m_RefCount: 1
    m_Data: {fileID: 11400000, guid: 9083813a5f7a87a4d8695c0757052124, type: 2}
  - m_RefCount: 1
    m_Data: {fileID: 11400000, guid: ab266961887d6094b83b4e27a771c3d8, type: 2}
  - m_RefCount: 1
    m_Data: {fileID: 11400000, guid: de8e03642ae521646b6326fa3e5cf590, type: 2}
  - m_RefCount: 1
    m_Data: {fileID: 11400000, guid: 80663cfc53b0fcc42bee19bc4a9b6e9e, type: 2}
  - m_RefCount: 1
    m_Data: {fileID: 11400000, guid: 29b6f6543c9fc03439cd22c386ebc425, type: 2}
  - m_RefCount: 1
    m_Data: {fileID: 11400000, guid: 092c9f4e4f0849740925cd78e334d1c4, type: 2}
  - m_RefCount: 1
    m_Data: {fileID: 11400000, guid: 7131b5d888d0af346953cf19ef78d7a2, type: 2}
  - m_RefCount: 1
    m_Data: {fileID: 11400000, guid: 1c330d054d512804e950d740fc4e9da3, type: 2}
  - m_RefCount: 1
    m_Data: {fileID: 11400000, guid: 428ae6a79e2e086479537eb0ae1dad8f, type: 2}
  - m_RefCount: 1
    m_Data: {fileID: 11400000, guid: 1617600fa1959f140a17550d87513c01, type: 2}
  - m_RefCount: 1
    m_Data: {fileID: 11400000, guid: fd97103b2f9f9ab4eaeb57a69945ce60, type: 2}
  - m_RefCount: 1
    m_Data: {fileID: 11400000, guid: 8abd9df4f7e3a904eb5da0490b158359, type: 2}
  - m_RefCount: 1
    m_Data: {fileID: 11400000, guid: d9c2940debf02cc468e4182337ec5d4d, type: 2}
  - m_RefCount: 1
    m_Data: {fileID: 11400000, guid: 96713f0f1e684d147abee0c251a91507, type: 2}
  - m_RefCount: 1
    m_Data: {fileID: 11400000, guid: 7ce9300d71573cc46b1372f38e338e42, type: 2}
  - m_RefCount: 1
    m_Data: {fileID: 11400000, guid: b702711471a30f24f80a3100028ff57d, type: 2}
  - m_RefCount: 1
    m_Data: {fileID: 11400000, guid: d74774c533d24ff4684af8d576b4e532, type: 2}
  - m_RefCount: 1
    m_Data: {fileID: 11400000, guid: eaabf0530b00970479b262a76a40acde, type: 2}
  - m_RefCount: 1
    m_Data: {fileID: 11400000, guid: 6025fa4f157e40e46975521e2523e992, type: 2}
  - m_RefCount: 1
    m_Data: {fileID: 11400000, guid: 20f9e4e4e121e924785a6828da81b0cb, type: 2}
  - m_RefCount: 1
    m_Data: {fileID: 11400000, guid: bc57869e37f394441bad8b6067ff5564, type: 2}
  - m_RefCount: 1
    m_Data: {fileID: 11400000, guid: 7eb437bf4c5ad634bb2879bb75ce65bd, type: 2}
  - m_RefCount: 1
    m_Data: {fileID: 11400000, guid: 156500500956d274aa0b383b7010d3db, type: 2}
  - m_RefCount: 1
    m_Data: {fileID: 11400000, guid: 9020f630ffcc5664db673afb70b13c83, type: 2}
  - m_RefCount: 1
    m_Data: {fileID: 11400000, guid: 76185504fc38d174883da1e6e8a3a0dd, type: 2}
  - m_RefCount: 1
    m_Data: {fileID: 11400000, guid: 7564a414e67ced94ea5d93a2c107a797, type: 2}
  - m_RefCount: 1
    m_Data: {fileID: 11400000, guid: dc21016c6ad19fb43bf2d0aa6dc755f8, type: 2}
  - m_RefCount: 1
    m_Data: {fileID: 11400000, guid: 0fb958f4903ee414c8c3370f3080b1c1, type: 2}
  - m_RefCount: 1
    m_Data: {fileID: 11400000, guid: 70ec5f3c134d2f64da4c5743efaab849, type: 2}
  - m_RefCount: 1
    m_Data: {fileID: 11400000, guid: 86b916bc96fffc74c9ad747eeae793c9, type: 2}
  - m_RefCount: 1
    m_Data: {fileID: 11400000, guid: 446db24859c32a94782928ef6e699406, type: 2}
  - m_RefCount: 1
    m_Data: {fileID: 11400000, guid: 8012744dcd258ab4485d0f63d680990b, type: 2}
  - m_RefCount: 1
    m_Data: {fileID: 11400000, guid: 188a59e41b7409542bbe95d1641a236a, type: 2}
  - m_RefCount: 1
    m_Data: {fileID: 11400000, guid: f222c333faaf9d940bdbfb775769521f, type: 2}
  - m_RefCount: 1
    m_Data: {fileID: 11400000, guid: 5911ba26a93207244ac9216affbb5cbd, type: 2}
  - m_RefCount: 1
    m_Data: {fileID: 11400000, guid: 7f5976312de40fc479d4263523fed289, type: 2}
  - m_RefCount: 1
    m_Data: {fileID: 11400000, guid: 2b94d4d460273434eb2ea79a61f50df5, type: 2}
  - m_RefCount: 1
    m_Data: {fileID: 11400000, guid: 9246da039b515714b894a19e167de138, type: 2}
  - m_RefCount: 1
    m_Data: {fileID: 11400000, guid: 7c9cd9a95ba460b4aa47673e28d559ea, type: 2}
  - m_RefCount: 1
    m_Data: {fileID: 11400000, guid: 601c9977cba85c047beba02769162307, type: 2}
  - m_RefCount: 1
    m_Data: {fileID: 11400000, guid: 9151621d0a721be4a8aa3f4154a6f952, type: 2}
  - m_RefCount: 0
    m_Data: {fileID: 0}
  - m_RefCount: 0
    m_Data: {fileID: 0}
  - m_RefCount: 0
    m_Data: {fileID: 0}
  - m_RefCount: 1
    m_Data: {fileID: 11400000, guid: 4b4defcf23bd58547b00dd9f34c6ea76, type: 2}
  - m_RefCount: 0
    m_Data: {fileID: 0}
  - m_RefCount: 0
    m_Data: {fileID: 0}
  - m_RefCount: 0
    m_Data: {fileID: 0}
  - m_RefCount: 1
    m_Data: {fileID: 11400000, guid: 4207e2ebf83420b4d8224cc830905469, type: 2}
  - m_RefCount: 0
    m_Data: {fileID: 0}
  - m_RefCount: 0
    m_Data: {fileID: 0}
  - m_RefCount: 0
    m_Data: {fileID: 0}
  - m_RefCount: 0
    m_Data: {fileID: 0}
  - m_RefCount: 0
    m_Data: {fileID: 0}
  - m_RefCount: 0
    m_Data: {fileID: 0}
  - m_RefCount: 1
    m_Data: {fileID: 11400000, guid: d2fee1e6dee4f6742adfe6f1d7072a2c, type: 2}
  - m_RefCount: 1
    m_Data: {fileID: 11400000, guid: 3f166b3003ea4624195290a0cd90e252, type: 2}
  - m_RefCount: 1
    m_Data: {fileID: 11400000, guid: a1b4796319753c8488922aaf06a3f188, type: 2}
  - m_RefCount: 1
    m_Data: {fileID: 11400000, guid: 89a7d2ba307e5c346b22eb37a73617e2, type: 2}
  - m_RefCount: 1
    m_Data: {fileID: 11400000, guid: d74e0ce5cba20f542ae844bc6bd16c60, type: 2}
  - m_RefCount: 1
    m_Data: {fileID: 11400000, guid: a2304983e35e5aa429de6a40ce125798, type: 2}
  - m_RefCount: 1
    m_Data: {fileID: 11400000, guid: 7b2c0743da0543c46b942e8f0730d80c, type: 2}
  - m_RefCount: 1
    m_Data: {fileID: 11400000, guid: 2b5564007e7467b4db4c1e6375a550aa, type: 2}
  - m_RefCount: 1
    m_Data: {fileID: 11400000, guid: de93f342cafb8c64d801cb546a90c1f1, type: 2}
  - m_RefCount: 1
    m_Data: {fileID: 11400000, guid: 4a3c6b3404b1c70459ec65ead17b2373, type: 2}
  - m_RefCount: 1
    m_Data: {fileID: 11400000, guid: 198b2ba4042bb2c4a80047c5295c1e71, type: 2}
  - m_RefCount: 1
    m_Data: {fileID: 11400000, guid: db079b562e839044abba112a0a2d7f28, type: 2}
  - m_RefCount: 1
    m_Data: {fileID: 11400000, guid: b708431a83ce5b64e98fa4b1126a4ba5, type: 2}
  - m_RefCount: 1
    m_Data: {fileID: 11400000, guid: 9e940007081a782448858b9590af87ec, type: 2}
  - m_RefCount: 1
    m_Data: {fileID: 11400000, guid: 9998c6c775eb85d4596add70e49f0cf7, type: 2}
  - m_RefCount: 1
    m_Data: {fileID: 11400000, guid: d7087402c7efdbd4fb87825897839877, type: 2}
  - m_RefCount: 1
    m_Data: {fileID: 11400000, guid: 1fa2dd4d3f5e99746b4fc36a176e082c, type: 2}
  - m_RefCount: 1
    m_Data: {fileID: 11400000, guid: 04d8cdd2bfe80ab4db90e67ed3dc450a, type: 2}
  - m_RefCount: 1
    m_Data: {fileID: 11400000, guid: d1c0024f248e07544982e5ce1cf8cfbb, type: 2}
  - m_RefCount: 1
    m_Data: {fileID: 11400000, guid: 696f43d20a24be544b66b81b35a8a4fe, type: 2}
  - m_RefCount: 1
    m_Data: {fileID: 11400000, guid: f611a44e2fced1342bec801e59952904, type: 2}
  - m_RefCount: 1
    m_Data: {fileID: 11400000, guid: dfda52db4f5653042ae27349b2599189, type: 2}
  - m_RefCount: 1
    m_Data: {fileID: 11400000, guid: f2e54d927c41582429cd85dedf0420be, type: 2}
  - m_RefCount: 1
    m_Data: {fileID: 11400000, guid: 14500183bea21314297f4aa59b263e83, type: 2}
  - m_RefCount: 1
    m_Data: {fileID: 11400000, guid: 519c1102d64a87845994db41ae4d74c3, type: 2}
  - m_RefCount: 1
    m_Data: {fileID: 11400000, guid: 58e21e0a29b6523479cb4aa5c4971796, type: 2}
  - m_RefCount: 1
    m_Data: {fileID: 11400000, guid: 565fde1cbedf3a047bb620841ff8d690, type: 2}
  - m_RefCount: 1
    m_Data: {fileID: 11400000, guid: 39d5d38eb3c93514eb8fb8a6ea8e591b, type: 2}
  - m_RefCount: 1
    m_Data: {fileID: 11400000, guid: 0dd25c5cd96d81b42bbf604ce97f744a, type: 2}
  - m_RefCount: 1
    m_Data: {fileID: 11400000, guid: ad40f52333b0da54a86bdec4d107bf63, type: 2}
  - m_RefCount: 1
    m_Data: {fileID: 11400000, guid: 97b73497ad204da4e8d618176020d8cf, type: 2}
  - m_RefCount: 1
    m_Data: {fileID: 11400000, guid: b740b59eb3ae5634dad8fb9ec09e4612, type: 2}
  m_TileSpriteArray:
  - m_RefCount: 0
    m_Data: {fileID: 0}
  - m_RefCount: 0
    m_Data: {fileID: 0}
  - m_RefCount: 0
    m_Data: {fileID: 0}
  - m_RefCount: 0
    m_Data: {fileID: 0}
  - m_RefCount: 0
    m_Data: {fileID: 0}
  - m_RefCount: 0
    m_Data: {fileID: 0}
  - m_RefCount: 0
    m_Data: {fileID: 0}
  - m_RefCount: 0
    m_Data: {fileID: 0}
  - m_RefCount: 0
    m_Data: {fileID: 0}
  - m_RefCount: 0
    m_Data: {fileID: 0}
  - m_RefCount: 0
    m_Data: {fileID: 0}
  - m_RefCount: 0
    m_Data: {fileID: 0}
  - m_RefCount: 1
    m_Data: {fileID: 21300002, guid: 93f8898b949c28f4f92f7a9520c85fa9, type: 3}
  - m_RefCount: 1
    m_Data: {fileID: 21300000, guid: 93f8898b949c28f4f92f7a9520c85fa9, type: 3}
  - m_RefCount: 1
    m_Data: {fileID: 21300004, guid: 9e5c93f2ce3bc6f40bbb09089ea07627, type: 3}
  - m_RefCount: 1
    m_Data: {fileID: 21300002, guid: 9e5c93f2ce3bc6f40bbb09089ea07627, type: 3}
  - m_RefCount: 1
    m_Data: {fileID: 21300000, guid: 9e5c93f2ce3bc6f40bbb09089ea07627, type: 3}
  - m_RefCount: 1
    m_Data: {fileID: 21300006, guid: 93f8898b949c28f4f92f7a9520c85fa9, type: 3}
  - m_RefCount: 1
    m_Data: {fileID: 21300004, guid: 93f8898b949c28f4f92f7a9520c85fa9, type: 3}
  - m_RefCount: 1
    m_Data: {fileID: 21300010, guid: 9e5c93f2ce3bc6f40bbb09089ea07627, type: 3}
  - m_RefCount: 1
    m_Data: {fileID: 21300008, guid: 9e5c93f2ce3bc6f40bbb09089ea07627, type: 3}
  - m_RefCount: 1
    m_Data: {fileID: 21300006, guid: 9e5c93f2ce3bc6f40bbb09089ea07627, type: 3}
  - m_RefCount: 1
    m_Data: {fileID: 21300010, guid: 93f8898b949c28f4f92f7a9520c85fa9, type: 3}
  - m_RefCount: 1
    m_Data: {fileID: 21300008, guid: 93f8898b949c28f4f92f7a9520c85fa9, type: 3}
  - m_RefCount: 1
    m_Data: {fileID: 21300014, guid: 93f8898b949c28f4f92f7a9520c85fa9, type: 3}
  - m_RefCount: 1
    m_Data: {fileID: 21300012, guid: 93f8898b949c28f4f92f7a9520c85fa9, type: 3}
  - m_RefCount: 1
    m_Data: {fileID: 21300020, guid: 93f8898b949c28f4f92f7a9520c85fa9, type: 3}
  - m_RefCount: 1
    m_Data: {fileID: 21300018, guid: 93f8898b949c28f4f92f7a9520c85fa9, type: 3}
  - m_RefCount: 1
    m_Data: {fileID: 21300026, guid: 93f8898b949c28f4f92f7a9520c85fa9, type: 3}
  - m_RefCount: 1
    m_Data: {fileID: 21300024, guid: 93f8898b949c28f4f92f7a9520c85fa9, type: 3}
  - m_RefCount: 1
    m_Data: {fileID: 21300034, guid: 93f8898b949c28f4f92f7a9520c85fa9, type: 3}
  - m_RefCount: 1
    m_Data: {fileID: 21300032, guid: 93f8898b949c28f4f92f7a9520c85fa9, type: 3}
  - m_RefCount: 1
    m_Data: {fileID: 21300030, guid: 93f8898b949c28f4f92f7a9520c85fa9, type: 3}
  - m_RefCount: 1
    m_Data: {fileID: 21300028, guid: 93f8898b949c28f4f92f7a9520c85fa9, type: 3}
  - m_RefCount: 1
    m_Data: {fileID: 21300104, guid: 5c06ea263b6bbca48a079565a8913950, type: 3}
  - m_RefCount: 1
    m_Data: {fileID: 21300084, guid: 5c06ea263b6bbca48a079565a8913950, type: 3}
  - m_RefCount: 1
    m_Data: {fileID: 21300082, guid: 5c06ea263b6bbca48a079565a8913950, type: 3}
  - m_RefCount: 1
    m_Data: {fileID: 21300080, guid: 5c06ea263b6bbca48a079565a8913950, type: 3}
  - m_RefCount: 1
    m_Data: {fileID: 21300078, guid: 5c06ea263b6bbca48a079565a8913950, type: 3}
  - m_RefCount: 1
    m_Data: {fileID: 21300076, guid: 5c06ea263b6bbca48a079565a8913950, type: 3}
  - m_RefCount: 1
    m_Data: {fileID: 21300074, guid: 5c06ea263b6bbca48a079565a8913950, type: 3}
  - m_RefCount: 1
    m_Data: {fileID: 21300072, guid: 5c06ea263b6bbca48a079565a8913950, type: 3}
  - m_RefCount: 1
    m_Data: {fileID: 21300070, guid: 5c06ea263b6bbca48a079565a8913950, type: 3}
  - m_RefCount: 1
    m_Data: {fileID: 21300068, guid: 5c06ea263b6bbca48a079565a8913950, type: 3}
  - m_RefCount: 1
    m_Data: {fileID: 21300066, guid: 5c06ea263b6bbca48a079565a8913950, type: 3}
  - m_RefCount: 1
    m_Data: {fileID: 21300064, guid: 5c06ea263b6bbca48a079565a8913950, type: 3}
  - m_RefCount: 1
    m_Data: {fileID: 21300062, guid: 5c06ea263b6bbca48a079565a8913950, type: 3}
  - m_RefCount: 1
    m_Data: {fileID: 21300060, guid: 5c06ea263b6bbca48a079565a8913950, type: 3}
  - m_RefCount: 1
    m_Data: {fileID: 21300058, guid: 5c06ea263b6bbca48a079565a8913950, type: 3}
  - m_RefCount: 1
    m_Data: {fileID: 21300056, guid: 5c06ea263b6bbca48a079565a8913950, type: 3}
  - m_RefCount: 1
    m_Data: {fileID: 21300054, guid: 5c06ea263b6bbca48a079565a8913950, type: 3}
  - m_RefCount: 1
    m_Data: {fileID: 21300052, guid: 5c06ea263b6bbca48a079565a8913950, type: 3}
  - m_RefCount: 1
    m_Data: {fileID: 21300050, guid: 5c06ea263b6bbca48a079565a8913950, type: 3}
  - m_RefCount: 1
    m_Data: {fileID: 21300048, guid: 5c06ea263b6bbca48a079565a8913950, type: 3}
  - m_RefCount: 1
    m_Data: {fileID: 21300046, guid: 5c06ea263b6bbca48a079565a8913950, type: 3}
  - m_RefCount: 1
    m_Data: {fileID: 21300044, guid: 5c06ea263b6bbca48a079565a8913950, type: 3}
  - m_RefCount: 1
    m_Data: {fileID: 21300042, guid: 5c06ea263b6bbca48a079565a8913950, type: 3}
  - m_RefCount: 1
    m_Data: {fileID: 21300040, guid: 5c06ea263b6bbca48a079565a8913950, type: 3}
  - m_RefCount: 1
    m_Data: {fileID: 21300038, guid: 5c06ea263b6bbca48a079565a8913950, type: 3}
  - m_RefCount: 1
    m_Data: {fileID: 21300036, guid: 5c06ea263b6bbca48a079565a8913950, type: 3}
  - m_RefCount: 1
    m_Data: {fileID: 21300034, guid: 5c06ea263b6bbca48a079565a8913950, type: 3}
  - m_RefCount: 1
    m_Data: {fileID: 21300032, guid: 5c06ea263b6bbca48a079565a8913950, type: 3}
  - m_RefCount: 1
    m_Data: {fileID: 21300030, guid: 5c06ea263b6bbca48a079565a8913950, type: 3}
  - m_RefCount: 1
    m_Data: {fileID: 21300028, guid: 5c06ea263b6bbca48a079565a8913950, type: 3}
  - m_RefCount: 1
    m_Data: {fileID: 21300026, guid: 5c06ea263b6bbca48a079565a8913950, type: 3}
  - m_RefCount: 1
    m_Data: {fileID: 21300006, guid: 5682301e653bbb143885183d79597ce3, type: 3}
  - m_RefCount: 1
    m_Data: {fileID: 21300022, guid: 5c06ea263b6bbca48a079565a8913950, type: 3}
  - m_RefCount: 1
    m_Data: {fileID: 21300020, guid: 5c06ea263b6bbca48a079565a8913950, type: 3}
  - m_RefCount: 1
    m_Data: {fileID: 21300018, guid: 5c06ea263b6bbca48a079565a8913950, type: 3}
  - m_RefCount: 1
    m_Data: {fileID: 21300016, guid: 5c06ea263b6bbca48a079565a8913950, type: 3}
  - m_RefCount: 1
    m_Data: {fileID: 21300014, guid: 5c06ea263b6bbca48a079565a8913950, type: 3}
  - m_RefCount: 1
    m_Data: {fileID: 21300012, guid: 5c06ea263b6bbca48a079565a8913950, type: 3}
  - m_RefCount: 1
    m_Data: {fileID: 21300010, guid: 5c06ea263b6bbca48a079565a8913950, type: 3}
  - m_RefCount: 1
    m_Data: {fileID: 21300008, guid: 5c06ea263b6bbca48a079565a8913950, type: 3}
  - m_RefCount: 1
    m_Data: {fileID: 21300006, guid: 5c06ea263b6bbca48a079565a8913950, type: 3}
  - m_RefCount: 1
    m_Data: {fileID: 21300004, guid: 5c06ea263b6bbca48a079565a8913950, type: 3}
  - m_RefCount: 1
    m_Data: {fileID: 21300002, guid: 5c06ea263b6bbca48a079565a8913950, type: 3}
  - m_RefCount: 1
    m_Data: {fileID: 21300000, guid: 5c06ea263b6bbca48a079565a8913950, type: 3}
  - m_RefCount: 1
    m_Data: {fileID: 21300012, guid: 9e5c93f2ce3bc6f40bbb09089ea07627, type: 3}
  - m_RefCount: 1
    m_Data: {fileID: 21300014, guid: 9e5c93f2ce3bc6f40bbb09089ea07627, type: 3}
  - m_RefCount: 1
    m_Data: {fileID: 21300014, guid: 5682301e653bbb143885183d79597ce3, type: 3}
  - m_RefCount: 1
    m_Data: {fileID: 21300024, guid: 5c06ea263b6bbca48a079565a8913950, type: 3}
  - m_RefCount: 1
    m_Data: {fileID: 21300102, guid: 5c06ea263b6bbca48a079565a8913950, type: 3}
  - m_RefCount: 1
    m_Data: {fileID: 21300100, guid: 5c06ea263b6bbca48a079565a8913950, type: 3}
  - m_RefCount: 1
    m_Data: {fileID: 21300098, guid: 5c06ea263b6bbca48a079565a8913950, type: 3}
  - m_RefCount: 1
    m_Data: {fileID: 21300096, guid: 5c06ea263b6bbca48a079565a8913950, type: 3}
  - m_RefCount: 1
    m_Data: {fileID: 21300094, guid: 5c06ea263b6bbca48a079565a8913950, type: 3}
  - m_RefCount: 1
    m_Data: {fileID: 21300092, guid: 5c06ea263b6bbca48a079565a8913950, type: 3}
  - m_RefCount: 1
    m_Data: {fileID: 21300090, guid: 5c06ea263b6bbca48a079565a8913950, type: 3}
  - m_RefCount: 1
    m_Data: {fileID: 21300088, guid: 5c06ea263b6bbca48a079565a8913950, type: 3}
  - m_RefCount: 1
    m_Data: {fileID: 21300086, guid: 5c06ea263b6bbca48a079565a8913950, type: 3}
  - m_RefCount: 1
    m_Data: {fileID: 21300112, guid: 5c06ea263b6bbca48a079565a8913950, type: 3}
  - m_RefCount: 1
    m_Data: {fileID: 21300110, guid: 5c06ea263b6bbca48a079565a8913950, type: 3}
  - m_RefCount: 1
    m_Data: {fileID: 21300106, guid: 5c06ea263b6bbca48a079565a8913950, type: 3}
  - m_RefCount: 1
    m_Data: {fileID: 21300006, guid: c2b7dd33ad3f5df4db7abae57099e693, type: 3}
  - m_RefCount: 1
    m_Data: {fileID: 21300004, guid: c2b7dd33ad3f5df4db7abae57099e693, type: 3}
  - m_RefCount: 1
    m_Data: {fileID: 21300002, guid: c2b7dd33ad3f5df4db7abae57099e693, type: 3}
  - m_RefCount: 1
    m_Data: {fileID: 21300000, guid: c2b7dd33ad3f5df4db7abae57099e693, type: 3}
  - m_RefCount: 1
    m_Data: {fileID: 21300014, guid: c2b7dd33ad3f5df4db7abae57099e693, type: 3}
  - m_RefCount: 1
    m_Data: {fileID: 21300012, guid: c2b7dd33ad3f5df4db7abae57099e693, type: 3}
  - m_RefCount: 1
    m_Data: {fileID: 21300010, guid: c2b7dd33ad3f5df4db7abae57099e693, type: 3}
  - m_RefCount: 1
    m_Data: {fileID: 21300008, guid: c2b7dd33ad3f5df4db7abae57099e693, type: 3}
  - m_RefCount: 1
    m_Data: {fileID: 21300022, guid: c2b7dd33ad3f5df4db7abae57099e693, type: 3}
  - m_RefCount: 1
    m_Data: {fileID: 21300020, guid: c2b7dd33ad3f5df4db7abae57099e693, type: 3}
  - m_RefCount: 1
    m_Data: {fileID: 21300018, guid: c2b7dd33ad3f5df4db7abae57099e693, type: 3}
  - m_RefCount: 1
    m_Data: {fileID: 21300016, guid: c2b7dd33ad3f5df4db7abae57099e693, type: 3}
  - m_RefCount: 1
    m_Data: {fileID: 21300030, guid: c2b7dd33ad3f5df4db7abae57099e693, type: 3}
  - m_RefCount: 1
    m_Data: {fileID: 21300028, guid: c2b7dd33ad3f5df4db7abae57099e693, type: 3}
  - m_RefCount: 1
    m_Data: {fileID: 21300026, guid: c2b7dd33ad3f5df4db7abae57099e693, type: 3}
  - m_RefCount: 1
    m_Data: {fileID: 21300024, guid: c2b7dd33ad3f5df4db7abae57099e693, type: 3}
  - m_RefCount: 1
    m_Data: {fileID: 21300038, guid: c2b7dd33ad3f5df4db7abae57099e693, type: 3}
  - m_RefCount: 1
    m_Data: {fileID: 21300036, guid: c2b7dd33ad3f5df4db7abae57099e693, type: 3}
  - m_RefCount: 1
    m_Data: {fileID: 21300034, guid: c2b7dd33ad3f5df4db7abae57099e693, type: 3}
  - m_RefCount: 1
    m_Data: {fileID: 21300032, guid: c2b7dd33ad3f5df4db7abae57099e693, type: 3}
  - m_RefCount: 1
    m_Data: {fileID: 21300046, guid: c2b7dd33ad3f5df4db7abae57099e693, type: 3}
  - m_RefCount: 1
    m_Data: {fileID: 21300044, guid: c2b7dd33ad3f5df4db7abae57099e693, type: 3}
  - m_RefCount: 1
    m_Data: {fileID: 21300042, guid: c2b7dd33ad3f5df4db7abae57099e693, type: 3}
  - m_RefCount: 1
    m_Data: {fileID: 21300040, guid: c2b7dd33ad3f5df4db7abae57099e693, type: 3}
  - m_RefCount: 1
    m_Data: {fileID: 21300024, guid: 04e95612bfad3344784790eb0e55566a, type: 3}
  - m_RefCount: 1
    m_Data: {fileID: 21300026, guid: 04e95612bfad3344784790eb0e55566a, type: 3}
  - m_RefCount: 1
    m_Data: {fileID: 21300028, guid: 04e95612bfad3344784790eb0e55566a, type: 3}
  - m_RefCount: 1
    m_Data: {fileID: 21300030, guid: 04e95612bfad3344784790eb0e55566a, type: 3}
  - m_RefCount: 1
    m_Data: {fileID: 21300032, guid: 04e95612bfad3344784790eb0e55566a, type: 3}
  - m_RefCount: 1
    m_Data: {fileID: 21300034, guid: 04e95612bfad3344784790eb0e55566a, type: 3}
  - m_RefCount: 1
    m_Data: {fileID: 21300036, guid: 04e95612bfad3344784790eb0e55566a, type: 3}
  - m_RefCount: 1
    m_Data: {fileID: 21300038, guid: 04e95612bfad3344784790eb0e55566a, type: 3}
  m_TileMatrixArray:
  - m_RefCount: 114
    m_Data:
      e00: 1
      e01: 0
      e02: 0
      e03: 0
      e10: 0
      e11: 1
      e12: 0
      e13: 0
      e20: 0
      e21: 0
      e22: 1
      e23: 0
      e30: 0
      e31: 0
      e32: 0
      e33: 1
  m_TileColorArray:
  - m_RefCount: 0
    m_Data: {r: 3e-45, g: 3e-45, b: 3e-45, a: 3e-45}
  - m_RefCount: 0
    m_Data: {r: NaN, g: NaN, b: NaN, a: NaN}
  - m_RefCount: 0
    m_Data: {r: 0, g: 0, b: 0, a: 0}
  - m_RefCount: 0
    m_Data: {r: 1.1e-44, g: 1.1e-44, b: 1.1e-44, a: 1.1e-44}
  - m_RefCount: 0
    m_Data: {r: 1.3e-44, g: 1.3e-44, b: 1.3e-44, a: 1.3e-44}
  - m_RefCount: 0
    m_Data: {r: 1e-45, g: 1e-45, b: 1e-45, a: 1e-45}
  - m_RefCount: 0
    m_Data: {r: 1e-44, g: 1e-44, b: 1e-44, a: 1e-44}
  - m_RefCount: 0
    m_Data: {r: 1.4e-44, g: 1.4e-44, b: 1.4e-44, a: 1.4e-44}
  - m_RefCount: 0
    m_Data: {r: 1.5e-44, g: 1.5e-44, b: 1.5e-44, a: 1.5e-44}
  - m_RefCount: 0
    m_Data: {r: 1.7e-44, g: 1.7e-44, b: 1.7e-44, a: 1.7e-44}
  - m_RefCount: 0
    m_Data: {r: 1.8e-44, g: 1.8e-44, b: 1.8e-44, a: 1.8e-44}
  - m_RefCount: 0
    m_Data: {r: 3e-45, g: 3e-45, b: 3e-45, a: 3e-45}
  - m_RefCount: 0
    m_Data: {r: 8e-45, g: 8e-45, b: 8e-45, a: 8e-45}
  - m_RefCount: 0
    m_Data: {r: NaN, g: NaN, b: NaN, a: NaN}
  - m_RefCount: 0
    m_Data: {r: 4e-45, g: 4e-45, b: 4e-45, a: 4e-45}
  - m_RefCount: 0
    m_Data: {r: 6e-45, g: 6e-45, b: 6e-45, a: 6e-45}
  - m_RefCount: 0
    m_Data: {r: 7e-45, g: 7e-45, b: 7e-45, a: 7e-45}
  - m_RefCount: 0
    m_Data: {r: 1.3e-44, g: 1.3e-44, b: 1.3e-44, a: 1.3e-44}
  - m_RefCount: 0
    m_Data: {r: 0, g: 0, b: 0, a: 0}
  - m_RefCount: 0
    m_Data: {r: 1.1e-44, g: 1.1e-44, b: 1.1e-44, a: 1.1e-44}
  - m_RefCount: 0
    m_Data: {r: 1e-45, g: 1e-45, b: 1e-45, a: 1e-45}
  - m_RefCount: 0
    m_Data: {r: 1e-44, g: 1e-44, b: 1e-44, a: 1e-44}
  - m_RefCount: 0
    m_Data: {r: 3e-45, g: 3e-45, b: 3e-45, a: 3e-45}
  - m_RefCount: 0
    m_Data: {r: 4e-45, g: 4e-45, b: 4e-45, a: 4e-45}
  - m_RefCount: 0
    m_Data: {r: 6e-45, g: 6e-45, b: 6e-45, a: 6e-45}
  - m_RefCount: 0
    m_Data: {r: 7e-45, g: 7e-45, b: 7e-45, a: 7e-45}
  - m_RefCount: 114
    m_Data: {r: 1, g: 1, b: 1, a: 1}
  m_AnimationFrameRate: 1
  m_Color: {r: 1, g: 1, b: 1, a: 1}
  m_Origin: {x: -9, y: -11, z: 0}
  m_Size: {x: 38, y: 16, z: 1}
  m_TileAnchor: {x: 0.5, y: 0.5, z: 0}
  m_TileOrientation: 0
  m_TileOrientationMatrix:
    e00: 1
    e01: 0
    e02: 0
    e03: 0
    e10: 0
    e11: 1
    e12: 0
    e13: 0
    e20: 0
    e21: 0
    e22: 1
    e23: 0
    e30: 0
    e31: 0
    e32: 0
    e33: 1
--- !u!483693784 &6299330725523993903
TilemapRenderer:
  m_ObjectHideFlags: 0
  m_CorrespondingSourceObject: {fileID: 0}
  m_PrefabInstance: {fileID: 0}
  m_PrefabAsset: {fileID: 0}
  m_GameObject: {fileID: 1598633476429910970}
  m_Enabled: 0
  m_CastShadows: 0
  m_ReceiveShadows: 0
  m_DynamicOccludee: 0
  m_MotionVectors: 1
  m_LightProbeUsage: 0
  m_ReflectionProbeUsage: 0
  m_RenderingLayerMask: 1
  m_RendererPriority: 0
  m_Materials:
  - {fileID: 10754, guid: 0000000000000000f000000000000000, type: 0}
  m_StaticBatchInfo:
    firstSubMesh: 0
    subMeshCount: 0
  m_StaticBatchRoot: {fileID: 0}
  m_ProbeAnchor: {fileID: 0}
  m_LightProbeVolumeOverride: {fileID: 0}
  m_ScaleInLightmap: 1
  m_PreserveUVs: 0
  m_IgnoreNormalsForChartDetection: 0
  m_ImportantGI: 0
  m_StitchLightmapSeams: 0
  m_SelectedEditorRenderState: 0
  m_MinimumChartSize: 4
  m_AutoUVMaxDistance: 0.5
  m_AutoUVMaxAngle: 89
  m_LightmapParameters: {fileID: 0}
  m_SortingLayerID: 0
  m_SortingLayer: 0
  m_SortingOrder: 0
  m_ChunkSize: {x: 32, y: 32, z: 32}
  m_ChunkCullingBounds: {x: 0, y: 0, z: 0}
  m_MaxChunkCount: 16
  m_MaxFrameAge: 16
  m_SortOrder: 0
  m_Mode: 0
  m_DetectChunkCullingBounds: 0
  m_MaskInteraction: 0
--- !u!1 &7575823560837998404
GameObject:
  m_ObjectHideFlags: 0
  m_CorrespondingSourceObject: {fileID: 0}
  m_PrefabInstance: {fileID: 0}
  m_PrefabAsset: {fileID: 0}
  serializedVersion: 6
  m_Component:
  - component: {fileID: 2858445150295552873}
  - component: {fileID: 5568893905281205226}
  m_Layer: 31
  m_Name: Exterior
  m_TagString: Untagged
  m_Icon: {fileID: 0}
  m_NavMeshLayer: 0
  m_StaticEditorFlags: 0
  m_IsActive: 1
--- !u!4 &2858445150295552873
Transform:
  m_ObjectHideFlags: 0
  m_CorrespondingSourceObject: {fileID: 0}
  m_PrefabInstance: {fileID: 0}
  m_PrefabAsset: {fileID: 0}
  m_GameObject: {fileID: 7575823560837998404}
  m_LocalRotation: {x: 0, y: 0, z: 0, w: 1}
  m_LocalPosition: {x: 0, y: 0, z: 0}
  m_LocalScale: {x: 1, y: 1, z: 1}
  m_Children:
  - {fileID: 4619428235301423867}
  m_Father: {fileID: 0}
  m_RootOrder: 0
  m_LocalEulerAnglesHint: {x: 0, y: 0, z: 0}
--- !u!156049354 &5568893905281205226
Grid:
  m_ObjectHideFlags: 0
  m_CorrespondingSourceObject: {fileID: 0}
  m_PrefabInstance: {fileID: 0}
  m_PrefabAsset: {fileID: 0}
  m_GameObject: {fileID: 7575823560837998404}
  m_Enabled: 1
  m_CellSize: {x: 1, y: 1, z: 0}
  m_CellGap: {x: 0, y: 0, z: 0}
  m_CellLayout: 0
  m_CellSwizzle: 0
--- !u!114 &114928330706319186
MonoBehaviour:
  m_ObjectHideFlags: 0
  m_CorrespondingSourceObject: {fileID: 0}
  m_PrefabInstance: {fileID: 0}
  m_PrefabAsset: {fileID: 0}
  m_GameObject: {fileID: 0}
  m_Enabled: 1
  m_EditorHideFlags: 0
  m_Script: {fileID: 12395, guid: 0000000000000000e000000000000000, type: 0}
  m_Name: Palette Settings
  m_EditorClassIdentifier: 
  cellSizing: 0
