%YAML 1.1
%TAG !u! tag:unity3d.com,2011:
--- !u!1 &1276815605609143996
GameObject:
  m_ObjectHideFlags: 0
  m_CorrespondingSourceObject: {fileID: 0}
  m_PrefabInstance: {fileID: 0}
  m_PrefabAsset: {fileID: 0}
  serializedVersion: 6
  m_Component:
  - component: {fileID: 5903356545769585465}
  - component: {fileID: 1563402787488618873}
  m_Layer: 31
  m_Name: Exterior Set2
  m_TagString: Untagged
  m_Icon: {fileID: 0}
  m_NavMeshLayer: 0
  m_StaticEditorFlags: 0
  m_IsActive: 1
--- !u!4 &5903356545769585465
Transform:
  m_ObjectHideFlags: 0
  m_CorrespondingSourceObject: {fileID: 0}
  m_PrefabInstance: {fileID: 0}
  m_PrefabAsset: {fileID: 0}
  m_GameObject: {fileID: 1276815605609143996}
  m_LocalRotation: {x: 0, y: 0, z: 0, w: 1}
  m_LocalPosition: {x: 0, y: 0, z: 0}
  m_LocalScale: {x: 1, y: 1, z: 1}
  m_Children:
  - {fileID: 3207004161173406515}
  m_Father: {fileID: 0}
  m_RootOrder: 0
  m_LocalEulerAnglesHint: {x: 0, y: 0, z: 0}
--- !u!156049354 &1563402787488618873
Grid:
  m_ObjectHideFlags: 0
  m_CorrespondingSourceObject: {fileID: 0}
  m_PrefabInstance: {fileID: 0}
  m_PrefabAsset: {fileID: 0}
  m_GameObject: {fileID: 1276815605609143996}
  m_Enabled: 1
  m_CellSize: {x: 1, y: 1, z: 0}
  m_CellGap: {x: 0, y: 0, z: 0}
  m_CellLayout: 0
  m_CellSwizzle: 0
--- !u!1 &8879743545450203288
GameObject:
  m_ObjectHideFlags: 0
  m_CorrespondingSourceObject: {fileID: 0}
  m_PrefabInstance: {fileID: 0}
  m_PrefabAsset: {fileID: 0}
  serializedVersion: 6
  m_Component:
  - component: {fileID: 3207004161173406515}
  - component: {fileID: 2996023496219241117}
  - component: {fileID: 2771095599973420642}
  m_Layer: 31
  m_Name: Layer1
  m_TagString: Untagged
  m_Icon: {fileID: 0}
  m_NavMeshLayer: 0
  m_StaticEditorFlags: 0
  m_IsActive: 1
--- !u!4 &3207004161173406515
Transform:
  m_ObjectHideFlags: 0
  m_CorrespondingSourceObject: {fileID: 0}
  m_PrefabInstance: {fileID: 0}
  m_PrefabAsset: {fileID: 0}
  m_GameObject: {fileID: 8879743545450203288}
  m_LocalRotation: {x: -0, y: -0, z: -0, w: 1}
  m_LocalPosition: {x: 0, y: 0, z: 0}
  m_LocalScale: {x: 1, y: 1, z: 1}
  m_Children: []
  m_Father: {fileID: 5903356545769585465}
  m_RootOrder: 0
  m_LocalEulerAnglesHint: {x: 0, y: 0, z: 0}
--- !u!1839735485 &2996023496219241117
Tilemap:
  m_ObjectHideFlags: 0
  m_CorrespondingSourceObject: {fileID: 0}
  m_PrefabInstance: {fileID: 0}
  m_PrefabAsset: {fileID: 0}
  m_GameObject: {fileID: 8879743545450203288}
  m_Enabled: 1
  m_Tiles:
  - first: {x: 1, y: -7, z: 0}
    second:
      m_TileIndex: 26
      m_TileSpriteIndex: 26
      m_TileMatrixIndex: 0
      m_TileColorIndex: 0
      m_ObjectToInstantiate: {fileID: 0}
      m_TileFlags: 1
      m_ColliderType: 1
  - first: {x: 2, y: -7, z: 0}
    second:
      m_TileIndex: 27
      m_TileSpriteIndex: 27
      m_TileMatrixIndex: 0
      m_TileColorIndex: 0
      m_ObjectToInstantiate: {fileID: 0}
      m_TileFlags: 1
      m_ColliderType: 1
  - first: {x: 3, y: -7, z: 0}
    second:
      m_TileIndex: 28
      m_TileSpriteIndex: 28
      m_TileMatrixIndex: 0
      m_TileColorIndex: 0
      m_ObjectToInstantiate: {fileID: 0}
      m_TileFlags: 1
      m_ColliderType: 1
  - first: {x: 4, y: -7, z: 0}
    second:
      m_TileIndex: 29
      m_TileSpriteIndex: 29
      m_TileMatrixIndex: 0
      m_TileColorIndex: 0
      m_ObjectToInstantiate: {fileID: 0}
      m_TileFlags: 1
      m_ColliderType: 1
  - first: {x: 5, y: -7, z: 0}
    second:
      m_TileIndex: 30
      m_TileSpriteIndex: 30
      m_TileMatrixIndex: 0
      m_TileColorIndex: 0
      m_ObjectToInstantiate: {fileID: 0}
      m_TileFlags: 1
      m_ColliderType: 1
  - first: {x: 6, y: -7, z: 0}
    second:
      m_TileIndex: 31
      m_TileSpriteIndex: 31
      m_TileMatrixIndex: 0
      m_TileColorIndex: 0
      m_ObjectToInstantiate: {fileID: 0}
      m_TileFlags: 1
      m_ColliderType: 1
  - first: {x: 7, y: -7, z: 0}
    second:
      m_TileIndex: 32
      m_TileSpriteIndex: 32
      m_TileMatrixIndex: 0
      m_TileColorIndex: 0
      m_ObjectToInstantiate: {fileID: 0}
      m_TileFlags: 1
      m_ColliderType: 1
  - first: {x: 9, y: -7, z: 0}
    second:
      m_TileIndex: 33
      m_TileSpriteIndex: 33
      m_TileMatrixIndex: 0
      m_TileColorIndex: 0
      m_ObjectToInstantiate: {fileID: 0}
      m_TileFlags: 1
      m_ColliderType: 1
  - first: {x: 1, y: -6, z: 0}
    second:
      m_TileIndex: 18
      m_TileSpriteIndex: 18
      m_TileMatrixIndex: 0
      m_TileColorIndex: 0
      m_ObjectToInstantiate: {fileID: 0}
      m_TileFlags: 1
      m_ColliderType: 1
  - first: {x: 2, y: -6, z: 0}
    second:
      m_TileIndex: 19
      m_TileSpriteIndex: 19
      m_TileMatrixIndex: 0
      m_TileColorIndex: 0
      m_ObjectToInstantiate: {fileID: 0}
      m_TileFlags: 1
      m_ColliderType: 1
  - first: {x: 3, y: -6, z: 0}
    second:
      m_TileIndex: 20
      m_TileSpriteIndex: 20
      m_TileMatrixIndex: 0
      m_TileColorIndex: 0
      m_ObjectToInstantiate: {fileID: 0}
      m_TileFlags: 1
      m_ColliderType: 1
  - first: {x: 4, y: -6, z: 0}
    second:
      m_TileIndex: 21
      m_TileSpriteIndex: 21
      m_TileMatrixIndex: 0
      m_TileColorIndex: 0
      m_ObjectToInstantiate: {fileID: 0}
      m_TileFlags: 1
      m_ColliderType: 1
  - first: {x: 5, y: -6, z: 0}
    second:
      m_TileIndex: 22
      m_TileSpriteIndex: 22
      m_TileMatrixIndex: 0
      m_TileColorIndex: 0
      m_ObjectToInstantiate: {fileID: 0}
      m_TileFlags: 1
      m_ColliderType: 1
  - first: {x: 6, y: -6, z: 0}
    second:
      m_TileIndex: 23
      m_TileSpriteIndex: 23
      m_TileMatrixIndex: 0
      m_TileColorIndex: 0
      m_ObjectToInstantiate: {fileID: 0}
      m_TileFlags: 1
      m_ColliderType: 1
  - first: {x: 7, y: -6, z: 0}
    second:
      m_TileIndex: 24
      m_TileSpriteIndex: 24
      m_TileMatrixIndex: 0
      m_TileColorIndex: 0
      m_ObjectToInstantiate: {fileID: 0}
      m_TileFlags: 1
      m_ColliderType: 1
  - first: {x: 9, y: -6, z: 0}
    second:
      m_TileIndex: 25
      m_TileSpriteIndex: 25
      m_TileMatrixIndex: 0
      m_TileColorIndex: 0
      m_ObjectToInstantiate: {fileID: 0}
      m_TileFlags: 1
      m_ColliderType: 1
  - first: {x: 6, y: -5, z: 0}
    second:
      m_TileIndex: 16
      m_TileSpriteIndex: 16
      m_TileMatrixIndex: 0
      m_TileColorIndex: 0
      m_ObjectToInstantiate: {fileID: 0}
      m_TileFlags: 1
      m_ColliderType: 1
  - first: {x: 7, y: -5, z: 0}
    second:
      m_TileIndex: 17
      m_TileSpriteIndex: 17
      m_TileMatrixIndex: 0
      m_TileColorIndex: 0
      m_ObjectToInstantiate: {fileID: 0}
      m_TileFlags: 1
      m_ColliderType: 1
  - first: {x: 2, y: -3, z: 0}
    second:
      m_TileIndex: 12
      m_TileSpriteIndex: 12
      m_TileMatrixIndex: 0
      m_TileColorIndex: 0
      m_ObjectToInstantiate: {fileID: 0}
      m_TileFlags: 1
      m_ColliderType: 1
  - first: {x: 3, y: -3, z: 0}
    second:
      m_TileIndex: 13
      m_TileSpriteIndex: 13
      m_TileMatrixIndex: 0
      m_TileColorIndex: 0
      m_ObjectToInstantiate: {fileID: 0}
      m_TileFlags: 1
      m_ColliderType: 1
  - first: {x: 4, y: -3, z: 0}
    second:
      m_TileIndex: 14
      m_TileSpriteIndex: 14
      m_TileMatrixIndex: 0
      m_TileColorIndex: 0
      m_ObjectToInstantiate: {fileID: 0}
      m_TileFlags: 1
      m_ColliderType: 1
  - first: {x: 5, y: -3, z: 0}
    second:
      m_TileIndex: 15
      m_TileSpriteIndex: 15
      m_TileMatrixIndex: 0
      m_TileColorIndex: 0
      m_ObjectToInstantiate: {fileID: 0}
      m_TileFlags: 1
      m_ColliderType: 1
  - first: {x: 2, y: -2, z: 0}
    second:
      m_TileIndex: 8
      m_TileSpriteIndex: 8
      m_TileMatrixIndex: 0
      m_TileColorIndex: 0
      m_ObjectToInstantiate: {fileID: 0}
      m_TileFlags: 1
      m_ColliderType: 1
  - first: {x: 3, y: -2, z: 0}
    second:
      m_TileIndex: 9
      m_TileSpriteIndex: 9
      m_TileMatrixIndex: 0
      m_TileColorIndex: 0
      m_ObjectToInstantiate: {fileID: 0}
      m_TileFlags: 1
      m_ColliderType: 1
  - first: {x: 4, y: -2, z: 0}
    second:
      m_TileIndex: 10
      m_TileSpriteIndex: 10
      m_TileMatrixIndex: 0
      m_TileColorIndex: 0
      m_ObjectToInstantiate: {fileID: 0}
      m_TileFlags: 1
      m_ColliderType: 1
  - first: {x: 5, y: -2, z: 0}
    second:
      m_TileIndex: 11
      m_TileSpriteIndex: 11
      m_TileMatrixIndex: 0
      m_TileColorIndex: 0
      m_ObjectToInstantiate: {fileID: 0}
      m_TileFlags: 1
      m_ColliderType: 1
  - first: {x: 2, y: -1, z: 0}
    second:
      m_TileIndex: 4
      m_TileSpriteIndex: 4
      m_TileMatrixIndex: 0
      m_TileColorIndex: 0
      m_ObjectToInstantiate: {fileID: 0}
      m_TileFlags: 1
      m_ColliderType: 1
  - first: {x: 3, y: -1, z: 0}
    second:
      m_TileIndex: 5
      m_TileSpriteIndex: 5
      m_TileMatrixIndex: 0
      m_TileColorIndex: 0
      m_ObjectToInstantiate: {fileID: 0}
      m_TileFlags: 1
      m_ColliderType: 1
  - first: {x: 4, y: -1, z: 0}
    second:
      m_TileIndex: 6
      m_TileSpriteIndex: 6
      m_TileMatrixIndex: 0
      m_TileColorIndex: 0
      m_ObjectToInstantiate: {fileID: 0}
      m_TileFlags: 1
      m_ColliderType: 1
  - first: {x: 5, y: -1, z: 0}
    second:
      m_TileIndex: 7
      m_TileSpriteIndex: 7
      m_TileMatrixIndex: 0
      m_TileColorIndex: 0
      m_ObjectToInstantiate: {fileID: 0}
      m_TileFlags: 1
      m_ColliderType: 1
  - first: {x: 2, y: 0, z: 0}
    second:
      m_TileIndex: 0
      m_TileSpriteIndex: 0
      m_TileMatrixIndex: 0
      m_TileColorIndex: 0
      m_ObjectToInstantiate: {fileID: 0}
      m_TileFlags: 1
      m_ColliderType: 1
  - first: {x: 3, y: 0, z: 0}
    second:
      m_TileIndex: 1
      m_TileSpriteIndex: 1
      m_TileMatrixIndex: 0
      m_TileColorIndex: 0
      m_ObjectToInstantiate: {fileID: 0}
      m_TileFlags: 1
      m_ColliderType: 1
  - first: {x: 4, y: 0, z: 0}
    second:
      m_TileIndex: 2
      m_TileSpriteIndex: 2
      m_TileMatrixIndex: 0
      m_TileColorIndex: 0
      m_ObjectToInstantiate: {fileID: 0}
      m_TileFlags: 1
      m_ColliderType: 1
  - first: {x: 5, y: 0, z: 0}
    second:
      m_TileIndex: 3
      m_TileSpriteIndex: 3
      m_TileMatrixIndex: 0
      m_TileColorIndex: 0
      m_ObjectToInstantiate: {fileID: 0}
      m_TileFlags: 1
      m_ColliderType: 1
  m_AnimatedTiles: {}
  m_TileAssetArray:
  - m_RefCount: 1
    m_Data: {fileID: 11400000, guid: 30673be85c11e5548841986526cd281c, type: 2}
  - m_RefCount: 1
    m_Data: {fileID: 11400000, guid: 20b94f646a2699344a8c904f605db3aa, type: 2}
  - m_RefCount: 1
    m_Data: {fileID: 11400000, guid: 56b702b1a380f1547b535492dff02a5d, type: 2}
  - m_RefCount: 1
    m_Data: {fileID: 11400000, guid: dffea7872b7d83f489100d1e2e31eb4b, type: 2}
  - m_RefCount: 1
    m_Data: {fileID: 11400000, guid: 6b0526e1d8585514894fda0abe43adb8, type: 2}
  - m_RefCount: 1
    m_Data: {fileID: 11400000, guid: 12279538fd8e44447a6f920a7fa13870, type: 2}
  - m_RefCount: 1
    m_Data: {fileID: 11400000, guid: 9ac22ad1f9e9ae446a5c40fea5b29569, type: 2}
  - m_RefCount: 1
    m_Data: {fileID: 11400000, guid: e2b004647fb70cc488894de67bf2a3ad, type: 2}
  - m_RefCount: 1
    m_Data: {fileID: 11400000, guid: 5b38cfcb1e0012343b70f7a98688c632, type: 2}
  - m_RefCount: 1
    m_Data: {fileID: 11400000, guid: f2b44aaf6356cd045a7e50d4dfef157a, type: 2}
  - m_RefCount: 1
    m_Data: {fileID: 11400000, guid: 803155c2e88c8fd4cbbc9555ae4eb9ae, type: 2}
  - m_RefCount: 1
    m_Data: {fileID: 11400000, guid: 488fdcc91bcc4eb4ab4f1ecb4fdf9011, type: 2}
  - m_RefCount: 1
    m_Data: {fileID: 11400000, guid: 5ffcd66d9e51f1a4ea7a4e9c9fddeb3a, type: 2}
  - m_RefCount: 1
    m_Data: {fileID: 11400000, guid: adeeb24f0fdc099468a51d362dfdbc50, type: 2}
  - m_RefCount: 1
    m_Data: {fileID: 11400000, guid: a80696eab270f0d4d8e89eaf3f6eb57e, type: 2}
  - m_RefCount: 1
    m_Data: {fileID: 11400000, guid: dadec385d5e6d4148a3e05892a4f70be, type: 2}
  - m_RefCount: 1
    m_Data: {fileID: 11400000, guid: f37acec40a35bee488d09cfb9ec91a14, type: 2}
  - m_RefCount: 1
    m_Data: {fileID: 11400000, guid: c81f32e64ff38bc4f824e10fb05c1554, type: 2}
  - m_RefCount: 1
    m_Data: {fileID: 11400000, guid: 893035a7f19939d4a94f93656aad63c2, type: 2}
  - m_RefCount: 1
    m_Data: {fileID: 11400000, guid: e1285c894a6b6a149b7555639e1078c9, type: 2}
  - m_RefCount: 1
    m_Data: {fileID: 11400000, guid: b72aa93b00700f54c95e629817755350, type: 2}
  - m_RefCount: 1
    m_Data: {fileID: 11400000, guid: ac64aafa61f749544a48a4e63412cc23, type: 2}
  - m_RefCount: 1
    m_Data: {fileID: 11400000, guid: f30f14044700ff44f898c59b682f2517, type: 2}
  - m_RefCount: 1
    m_Data: {fileID: 11400000, guid: 6a7b42544a815704a9b80d6127531098, type: 2}
  - m_RefCount: 1
    m_Data: {fileID: 11400000, guid: 4af0fcca6b645b84c8f1e857cf26fa2c, type: 2}
  - m_RefCount: 1
    m_Data: {fileID: 11400000, guid: 1172a05e7cf05e844a9c7ad0baabebc9, type: 2}
  - m_RefCount: 1
    m_Data: {fileID: 11400000, guid: e182b550b12a4344099d2c176b2c9dd5, type: 2}
  - m_RefCount: 1
    m_Data: {fileID: 11400000, guid: 01be890d6d64f414cb7191d9c4c2fb23, type: 2}
  - m_RefCount: 1
    m_Data: {fileID: 11400000, guid: 55720016f5cf4db43a3085bb4c6e6b07, type: 2}
  - m_RefCount: 1
    m_Data: {fileID: 11400000, guid: 089ddc4e85471c5458ac3c6460ded1c4, type: 2}
  - m_RefCount: 1
    m_Data: {fileID: 11400000, guid: 324a35f48896f574996f11018b8ccbb3, type: 2}
  - m_RefCount: 1
    m_Data: {fileID: 11400000, guid: 9825eb6c3dcc8424fb7f6db5dd6c991e, type: 2}
  - m_RefCount: 1
    m_Data: {fileID: 11400000, guid: a30268a2ad434d44b8bcd3a21eeef722, type: 2}
  - m_RefCount: 1
    m_Data: {fileID: 11400000, guid: 61e1d97c6ca7dea4f94b73edbdcdddfa, type: 2}
  m_TileSpriteArray:
  - m_RefCount: 1
    m_Data: {fileID: 21300000, guid: a8d004154a57b09408ba50f82ba95078, type: 3}
  - m_RefCount: 1
    m_Data: {fileID: 21300002, guid: a8d004154a57b09408ba50f82ba95078, type: 3}
  - m_RefCount: 1
    m_Data: {fileID: 21300004, guid: a8d004154a57b09408ba50f82ba95078, type: 3}
  - m_RefCount: 1
    m_Data: {fileID: 21300006, guid: a8d004154a57b09408ba50f82ba95078, type: 3}
  - m_RefCount: 1
    m_Data: {fileID: 21300008, guid: a8d004154a57b09408ba50f82ba95078, type: 3}
  - m_RefCount: 1
    m_Data: {fileID: 21300010, guid: a8d004154a57b09408ba50f82ba95078, type: 3}
  - m_RefCount: 1
    m_Data: {fileID: 21300012, guid: a8d004154a57b09408ba50f82ba95078, type: 3}
  - m_RefCount: 1
    m_Data: {fileID: 21300014, guid: a8d004154a57b09408ba50f82ba95078, type: 3}
  - m_RefCount: 1
    m_Data: {fileID: 21300016, guid: a8d004154a57b09408ba50f82ba95078, type: 3}
  - m_RefCount: 1
    m_Data: {fileID: 21300018, guid: a8d004154a57b09408ba50f82ba95078, type: 3}
  - m_RefCount: 1
    m_Data: {fileID: 21300020, guid: a8d004154a57b09408ba50f82ba95078, type: 3}
  - m_RefCount: 1
    m_Data: {fileID: 21300022, guid: a8d004154a57b09408ba50f82ba95078, type: 3}
  - m_RefCount: 1
    m_Data: {fileID: 21300024, guid: a8d004154a57b09408ba50f82ba95078, type: 3}
  - m_RefCount: 1
    m_Data: {fileID: 21300026, guid: a8d004154a57b09408ba50f82ba95078, type: 3}
  - m_RefCount: 1
    m_Data: {fileID: 21300028, guid: a8d004154a57b09408ba50f82ba95078, type: 3}
  - m_RefCount: 1
    m_Data: {fileID: 21300030, guid: a8d004154a57b09408ba50f82ba95078, type: 3}
  - m_RefCount: 1
    m_Data: {fileID: 21300032, guid: a8d004154a57b09408ba50f82ba95078, type: 3}
  - m_RefCount: 1
    m_Data: {fileID: 21300034, guid: a8d004154a57b09408ba50f82ba95078, type: 3}
  - m_RefCount: 1
    m_Data: {fileID: 21300036, guid: a8d004154a57b09408ba50f82ba95078, type: 3}
  - m_RefCount: 1
    m_Data: {fileID: 21300038, guid: a8d004154a57b09408ba50f82ba95078, type: 3}
  - m_RefCount: 1
    m_Data: {fileID: 21300040, guid: a8d004154a57b09408ba50f82ba95078, type: 3}
  - m_RefCount: 1
    m_Data: {fileID: 21300042, guid: a8d004154a57b09408ba50f82ba95078, type: 3}
  - m_RefCount: 1
    m_Data: {fileID: 21300044, guid: a8d004154a57b09408ba50f82ba95078, type: 3}
  - m_RefCount: 1
    m_Data: {fileID: 21300046, guid: a8d004154a57b09408ba50f82ba95078, type: 3}
  - m_RefCount: 1
    m_Data: {fileID: 21300048, guid: a8d004154a57b09408ba50f82ba95078, type: 3}
  - m_RefCount: 1
    m_Data: {fileID: 21300050, guid: a8d004154a57b09408ba50f82ba95078, type: 3}
  - m_RefCount: 1
    m_Data: {fileID: 21300052, guid: a8d004154a57b09408ba50f82ba95078, type: 3}
  - m_RefCount: 1
    m_Data: {fileID: 21300054, guid: a8d004154a57b09408ba50f82ba95078, type: 3}
  - m_RefCount: 1
    m_Data: {fileID: 21300056, guid: a8d004154a57b09408ba50f82ba95078, type: 3}
  - m_RefCount: 1
    m_Data: {fileID: 21300058, guid: a8d004154a57b09408ba50f82ba95078, type: 3}
  - m_RefCount: 1
    m_Data: {fileID: 21300060, guid: a8d004154a57b09408ba50f82ba95078, type: 3}
  - m_RefCount: 1
    m_Data: {fileID: 21300062, guid: a8d004154a57b09408ba50f82ba95078, type: 3}
  - m_RefCount: 1
    m_Data: {fileID: 21300064, guid: a8d004154a57b09408ba50f82ba95078, type: 3}
  - m_RefCount: 1
    m_Data: {fileID: 21300066, guid: a8d004154a57b09408ba50f82ba95078, type: 3}
  m_TileMatrixArray:
  - m_RefCount: 34
    m_Data:
      e00: 1
      e01: 0
      e02: 0
      e03: 0
      e10: 0
      e11: 1
      e12: 0
      e13: 0
      e20: 0
      e21: 0
      e22: 1
      e23: 0
      e30: 0
      e31: 0
      e32: 0
      e33: 1
  m_TileColorArray:
  - m_RefCount: 34
    m_Data: {r: 1, g: 1, b: 1, a: 1}
  m_AnimationFrameRate: 1
  m_Color: {r: 1, g: 1, b: 1, a: 1}
  m_Origin: {x: 0, y: -7, z: 0}
  m_Size: {x: 10, y: 8, z: 1}
  m_TileAnchor: {x: 0.5, y: 0.5, z: 0}
  m_TileOrientation: 0
  m_TileOrientationMatrix:
    e00: 1
    e01: 0
    e02: 0
    e03: 0
    e10: 0
    e11: 1
    e12: 0
    e13: 0
    e20: 0
    e21: 0
    e22: 1
    e23: 0
    e30: 0
    e31: 0
    e32: 0
    e33: 1
--- !u!483693784 &2771095599973420642
TilemapRenderer:
  m_ObjectHideFlags: 0
  m_CorrespondingSourceObject: {fileID: 0}
  m_PrefabInstance: {fileID: 0}
  m_PrefabAsset: {fileID: 0}
  m_GameObject: {fileID: 8879743545450203288}
  m_Enabled: 0
  m_CastShadows: 0
  m_ReceiveShadows: 0
  m_DynamicOccludee: 0
  m_MotionVectors: 1
  m_LightProbeUsage: 0
  m_ReflectionProbeUsage: 0
  m_RenderingLayerMask: 1
  m_RendererPriority: 0
  m_Materials:
  - {fileID: 10754, guid: 0000000000000000f000000000000000, type: 0}
  m_StaticBatchInfo:
    firstSubMesh: 0
    subMeshCount: 0
  m_StaticBatchRoot: {fileID: 0}
  m_ProbeAnchor: {fileID: 0}
  m_LightProbeVolumeOverride: {fileID: 0}
  m_ScaleInLightmap: 1
  m_PreserveUVs: 0
  m_IgnoreNormalsForChartDetection: 0
  m_ImportantGI: 0
  m_StitchLightmapSeams: 0
  m_SelectedEditorRenderState: 0
  m_MinimumChartSize: 4
  m_AutoUVMaxDistance: 0.5
  m_AutoUVMaxAngle: 89
  m_LightmapParameters: {fileID: 0}
  m_SortingLayerID: 0
  m_SortingLayer: 0
  m_SortingOrder: 0
  m_ChunkSize: {x: 32, y: 32, z: 32}
  m_ChunkCullingBounds: {x: 0, y: 0, z: 0}
  m_MaxChunkCount: 16
  m_MaxFrameAge: 16
  m_SortOrder: 0
  m_Mode: 0
  m_DetectChunkCullingBounds: 0
  m_MaskInteraction: 0
--- !u!114 &114881563660660322
MonoBehaviour:
  m_ObjectHideFlags: 0
  m_CorrespondingSourceObject: {fileID: 0}
  m_PrefabInstance: {fileID: 0}
  m_PrefabAsset: {fileID: 0}
  m_GameObject: {fileID: 0}
  m_Enabled: 1
  m_EditorHideFlags: 0
  m_Script: {fileID: 12395, guid: 0000000000000000e000000000000000, type: 0}
  m_Name: Palette Settings
  m_EditorClassIdentifier: 
  cellSizing: 0
