%YAML 1.1
%TAG !u! tag:unity3d.com,2011:
--- !u!1 &3671339968503490346
GameObject:
  m_ObjectHideFlags: 0
  m_CorrespondingSourceObject: {fileID: 0}
  m_PrefabInstance: {fileID: 0}
  m_PrefabAsset: {fileID: 0}
  serializedVersion: 6
  m_Component:
  - component: {fileID: 1549721899554747988}
  - component: {fileID: 8071382749553051525}
  m_Layer: 31
  m_Name: Interior
  m_TagString: Untagged
  m_Icon: {fileID: 0}
  m_NavMeshLayer: 0
  m_StaticEditorFlags: 0
  m_IsActive: 1
--- !u!4 &1549721899554747988
Transform:
  m_ObjectHideFlags: 0
  m_CorrespondingSourceObject: {fileID: 0}
  m_PrefabInstance: {fileID: 0}
  m_PrefabAsset: {fileID: 0}
  m_GameObject: {fileID: 3671339968503490346}
  m_LocalRotation: {x: 0, y: 0, z: 0, w: 1}
  m_LocalPosition: {x: 0, y: 0, z: 0}
  m_LocalScale: {x: 1, y: 1, z: 1}
  m_Children:
  - {fileID: 4415166847317558680}
  m_Father: {fileID: 0}
  m_RootOrder: 0
  m_LocalEulerAnglesHint: {x: 0, y: 0, z: 0}
--- !u!156049354 &8071382749553051525
Grid:
  m_ObjectHideFlags: 0
  m_CorrespondingSourceObject: {fileID: 0}
  m_PrefabInstance: {fileID: 0}
  m_PrefabAsset: {fileID: 0}
  m_GameObject: {fileID: 3671339968503490346}
  m_Enabled: 1
  m_CellSize: {x: 1, y: 1, z: 0}
  m_CellGap: {x: 0, y: 0, z: 0}
  m_CellLayout: 0
  m_CellSwizzle: 0
--- !u!1 &6445793576785947255
GameObject:
  m_ObjectHideFlags: 0
  m_CorrespondingSourceObject: {fileID: 0}
  m_PrefabInstance: {fileID: 0}
  m_PrefabAsset: {fileID: 0}
  serializedVersion: 6
  m_Component:
  - component: {fileID: 4415166847317558680}
  - component: {fileID: 2234914177028391583}
  - component: {fileID: 5333344357711255986}
  m_Layer: 31
  m_Name: Layer1
  m_TagString: Untagged
  m_Icon: {fileID: 0}
  m_NavMeshLayer: 0
  m_StaticEditorFlags: 0
  m_IsActive: 1
--- !u!4 &4415166847317558680
Transform:
  m_ObjectHideFlags: 0
  m_CorrespondingSourceObject: {fileID: 0}
  m_PrefabInstance: {fileID: 0}
  m_PrefabAsset: {fileID: 0}
  m_GameObject: {fileID: 6445793576785947255}
  m_LocalRotation: {x: -0, y: -0, z: -0, w: 1}
  m_LocalPosition: {x: 0, y: 0, z: 0}
  m_LocalScale: {x: 1, y: 1, z: 1}
  m_Children: []
  m_Father: {fileID: 1549721899554747988}
  m_RootOrder: 0
  m_LocalEulerAnglesHint: {x: 0, y: 0, z: 0}
--- !u!1839735485 &2234914177028391583
Tilemap:
  m_ObjectHideFlags: 0
  m_CorrespondingSourceObject: {fileID: 0}
  m_PrefabInstance: {fileID: 0}
  m_PrefabAsset: {fileID: 0}
  m_GameObject: {fileID: 6445793576785947255}
  m_Enabled: 1
  m_Tiles:
  - first: {x: 3, y: -10, z: 0}
    second:
      m_TileIndex: 196
      m_TileSpriteIndex: 224
      m_TileMatrixIndex: 0
      m_TileColorIndex: 0
      m_ObjectToInstantiate: {fileID: 0}
      m_TileFlags: 1
      m_ColliderType: 1
  - first: {x: 4, y: -10, z: 0}
    second:
      m_TileIndex: 197
      m_TileSpriteIndex: 223
      m_TileMatrixIndex: 0
      m_TileColorIndex: 0
      m_ObjectToInstantiate: {fileID: 0}
      m_TileFlags: 1
      m_ColliderType: 1
  - first: {x: 9, y: -10, z: 0}
    second:
      m_TileIndex: 198
      m_TileSpriteIndex: 222
      m_TileMatrixIndex: 0
      m_TileColorIndex: 0
      m_ObjectToInstantiate: {fileID: 0}
      m_TileFlags: 1
      m_ColliderType: 1
  - first: {x: 10, y: -10, z: 0}
    second:
      m_TileIndex: 199
      m_TileSpriteIndex: 221
      m_TileMatrixIndex: 0
      m_TileColorIndex: 0
      m_ObjectToInstantiate: {fileID: 0}
      m_TileFlags: 1
      m_ColliderType: 1
  - first: {x: 11, y: -10, z: 0}
    second:
      m_TileIndex: 200
      m_TileSpriteIndex: 211
      m_TileMatrixIndex: 0
      m_TileColorIndex: 0
      m_ObjectToInstantiate: {fileID: 0}
      m_TileFlags: 1
      m_ColliderType: 1
  - first: {x: 13, y: -10, z: 0}
    second:
      m_TileIndex: 201
      m_TileSpriteIndex: 210
      m_TileMatrixIndex: 0
      m_TileColorIndex: 0
      m_ObjectToInstantiate: {fileID: 0}
      m_TileFlags: 1
      m_ColliderType: 1
  - first: {x: 14, y: -10, z: 0}
    second:
      m_TileIndex: 202
      m_TileSpriteIndex: 203
      m_TileMatrixIndex: 0
      m_TileColorIndex: 0
      m_ObjectToInstantiate: {fileID: 0}
      m_TileFlags: 1
      m_ColliderType: 1
  - first: {x: 15, y: -10, z: 0}
    second:
      m_TileIndex: 203
      m_TileSpriteIndex: 204
      m_TileMatrixIndex: 0
      m_TileColorIndex: 0
      m_ObjectToInstantiate: {fileID: 0}
      m_TileFlags: 1
      m_ColliderType: 1
  - first: {x: 17, y: -10, z: 0}
    second:
      m_TileIndex: 204
      m_TileSpriteIndex: 205
      m_TileMatrixIndex: 0
      m_TileColorIndex: 0
      m_ObjectToInstantiate: {fileID: 0}
      m_TileFlags: 1
      m_ColliderType: 1
  - first: {x: 18, y: -10, z: 0}
    second:
      m_TileIndex: 225
      m_TileSpriteIndex: 206
      m_TileMatrixIndex: 0
      m_TileColorIndex: 0
      m_ObjectToInstantiate: {fileID: 0}
      m_TileFlags: 1
      m_ColliderType: 1
  - first: {x: 19, y: -10, z: 0}
    second:
      m_TileIndex: 205
      m_TileSpriteIndex: 207
      m_TileMatrixIndex: 0
      m_TileColorIndex: 0
      m_ObjectToInstantiate: {fileID: 0}
      m_TileFlags: 1
      m_ColliderType: 1
  - first: {x: 26, y: -10, z: 0}
    second:
      m_TileIndex: 206
      m_TileSpriteIndex: 208
      m_TileMatrixIndex: 0
      m_TileColorIndex: 0
      m_ObjectToInstantiate: {fileID: 0}
      m_TileFlags: 1
      m_ColliderType: 1
  - first: {x: 27, y: -10, z: 0}
    second:
      m_TileIndex: 207
      m_TileSpriteIndex: 209
      m_TileMatrixIndex: 0
      m_TileColorIndex: 0
      m_ObjectToInstantiate: {fileID: 0}
      m_TileFlags: 1
      m_ColliderType: 1
  - first: {x: 28, y: -10, z: 0}
    second:
      m_TileIndex: 208
      m_TileSpriteIndex: 202
      m_TileMatrixIndex: 0
      m_TileColorIndex: 0
      m_ObjectToInstantiate: {fileID: 0}
      m_TileFlags: 1
      m_ColliderType: 1
  - first: {x: 29, y: -10, z: 0}
    second:
      m_TileIndex: 209
      m_TileSpriteIndex: 201
      m_TileMatrixIndex: 0
      m_TileColorIndex: 0
      m_ObjectToInstantiate: {fileID: 0}
      m_TileFlags: 1
      m_ColliderType: 1
  - first: {x: 30, y: -10, z: 0}
    second:
      m_TileIndex: 126
      m_TileSpriteIndex: 13
      m_TileMatrixIndex: 0
      m_TileColorIndex: 0
      m_ObjectToInstantiate: {fileID: 0}
      m_TileFlags: 1
      m_ColliderType: 1
  - first: {x: 31, y: -10, z: 0}
    second:
      m_TileIndex: 125
      m_TileSpriteIndex: 12
      m_TileMatrixIndex: 0
      m_TileColorIndex: 0
      m_ObjectToInstantiate: {fileID: 0}
      m_TileFlags: 1
      m_ColliderType: 1
  - first: {x: -1, y: -9, z: 0}
    second:
      m_TileIndex: 44
      m_TileSpriteIndex: 200
      m_TileMatrixIndex: 0
      m_TileColorIndex: 0
      m_ObjectToInstantiate: {fileID: 0}
      m_TileFlags: 1
      m_ColliderType: 1
  - first: {x: 0, y: -9, z: 0}
    second:
      m_TileIndex: 222
      m_TileSpriteIndex: 199
      m_TileMatrixIndex: 0
      m_TileColorIndex: 0
      m_ObjectToInstantiate: {fileID: 0}
      m_TileFlags: 1
      m_ColliderType: 1
  - first: {x: 1, y: -9, z: 0}
    second:
      m_TileIndex: 12
      m_TileSpriteIndex: 198
      m_TileMatrixIndex: 0
      m_TileColorIndex: 0
      m_ObjectToInstantiate: {fileID: 0}
      m_TileFlags: 1
      m_ColliderType: 1
  - first: {x: 2, y: -9, z: 0}
    second:
      m_TileIndex: 13
      m_TileSpriteIndex: 52
      m_TileMatrixIndex: 0
      m_TileColorIndex: 0
      m_ObjectToInstantiate: {fileID: 0}
      m_TileFlags: 1
      m_ColliderType: 1
  - first: {x: 3, y: -9, z: 0}
    second:
      m_TileIndex: 223
      m_TileSpriteIndex: 51
      m_TileMatrixIndex: 0
      m_TileColorIndex: 0
      m_ObjectToInstantiate: {fileID: 0}
      m_TileFlags: 1
      m_ColliderType: 1
  - first: {x: 4, y: -9, z: 0}
    second:
      m_TileIndex: 182
      m_TileSpriteIndex: 197
      m_TileMatrixIndex: 0
      m_TileColorIndex: 0
      m_ObjectToInstantiate: {fileID: 0}
      m_TileFlags: 1
      m_ColliderType: 1
  - first: {x: 9, y: -9, z: 0}
    second:
      m_TileIndex: 183
      m_TileSpriteIndex: 196
      m_TileMatrixIndex: 0
      m_TileColorIndex: 0
      m_ObjectToInstantiate: {fileID: 0}
      m_TileFlags: 1
      m_ColliderType: 1
  - first: {x: 10, y: -9, z: 0}
    second:
      m_TileIndex: 184
      m_TileSpriteIndex: 184
      m_TileMatrixIndex: 0
      m_TileColorIndex: 0
      m_ObjectToInstantiate: {fileID: 0}
      m_TileFlags: 1
      m_ColliderType: 1
  - first: {x: 11, y: -9, z: 0}
    second:
      m_TileIndex: 185
      m_TileSpriteIndex: 185
      m_TileMatrixIndex: 0
      m_TileColorIndex: 0
      m_ObjectToInstantiate: {fileID: 0}
      m_TileFlags: 1
      m_ColliderType: 1
  - first: {x: 13, y: -9, z: 0}
    second:
      m_TileIndex: 186
      m_TileSpriteIndex: 186
      m_TileMatrixIndex: 0
      m_TileColorIndex: 0
      m_ObjectToInstantiate: {fileID: 0}
      m_TileFlags: 1
      m_ColliderType: 1
  - first: {x: 14, y: -9, z: 0}
    second:
      m_TileIndex: 187
      m_TileSpriteIndex: 187
      m_TileMatrixIndex: 0
      m_TileColorIndex: 0
      m_ObjectToInstantiate: {fileID: 0}
      m_TileFlags: 1
      m_ColliderType: 1
  - first: {x: 15, y: -9, z: 0}
    second:
      m_TileIndex: 188
      m_TileSpriteIndex: 188
      m_TileMatrixIndex: 0
      m_TileColorIndex: 0
      m_ObjectToInstantiate: {fileID: 0}
      m_TileFlags: 1
      m_ColliderType: 1
  - first: {x: 17, y: -9, z: 0}
    second:
      m_TileIndex: 189
      m_TileSpriteIndex: 189
      m_TileMatrixIndex: 0
      m_TileColorIndex: 0
      m_ObjectToInstantiate: {fileID: 0}
      m_TileFlags: 1
      m_ColliderType: 1
  - first: {x: 18, y: -9, z: 0}
    second:
      m_TileIndex: 190
      m_TileSpriteIndex: 190
      m_TileMatrixIndex: 0
      m_TileColorIndex: 0
      m_ObjectToInstantiate: {fileID: 0}
      m_TileFlags: 1
      m_ColliderType: 1
  - first: {x: 19, y: -9, z: 0}
    second:
      m_TileIndex: 224
      m_TileSpriteIndex: 50
      m_TileMatrixIndex: 0
      m_TileColorIndex: 0
      m_ObjectToInstantiate: {fileID: 0}
      m_TileFlags: 1
      m_ColliderType: 1
  - first: {x: 26, y: -9, z: 0}
    second:
      m_TileIndex: 191
      m_TileSpriteIndex: 191
      m_TileMatrixIndex: 0
      m_TileColorIndex: 0
      m_ObjectToInstantiate: {fileID: 0}
      m_TileFlags: 1
      m_ColliderType: 1
  - first: {x: 27, y: -9, z: 0}
    second:
      m_TileIndex: 192
      m_TileSpriteIndex: 192
      m_TileMatrixIndex: 0
      m_TileColorIndex: 0
      m_ObjectToInstantiate: {fileID: 0}
      m_TileFlags: 1
      m_ColliderType: 1
  - first: {x: 28, y: -9, z: 0}
    second:
      m_TileIndex: 193
      m_TileSpriteIndex: 193
      m_TileMatrixIndex: 0
      m_TileColorIndex: 0
      m_ObjectToInstantiate: {fileID: 0}
      m_TileFlags: 1
      m_ColliderType: 1
  - first: {x: 29, y: -9, z: 0}
    second:
      m_TileIndex: 194
      m_TileSpriteIndex: 194
      m_TileMatrixIndex: 0
      m_TileColorIndex: 0
      m_ObjectToInstantiate: {fileID: 0}
      m_TileFlags: 1
      m_ColliderType: 1
  - first: {x: 30, y: -9, z: 0}
    second:
      m_TileIndex: 195
      m_TileSpriteIndex: 195
      m_TileMatrixIndex: 0
      m_TileColorIndex: 0
      m_ObjectToInstantiate: {fileID: 0}
      m_TileFlags: 1
      m_ColliderType: 1
  - first: {x: 31, y: -9, z: 0}
    second:
      m_TileIndex: 11
      m_TileSpriteIndex: 225
      m_TileMatrixIndex: 0
      m_TileColorIndex: 0
      m_ObjectToInstantiate: {fileID: 0}
      m_TileFlags: 1
      m_ColliderType: 1
  - first: {x: 0, y: -8, z: 0}
    second:
      m_TileIndex: 18
      m_TileSpriteIndex: 114
      m_TileMatrixIndex: 0
      m_TileColorIndex: 0
      m_ObjectToInstantiate: {fileID: 0}
      m_TileFlags: 1
      m_ColliderType: 1
  - first: {x: 1, y: -8, z: 0}
    second:
      m_TileIndex: 17
      m_TileSpriteIndex: 90
      m_TileMatrixIndex: 0
      m_TileColorIndex: 0
      m_ObjectToInstantiate: {fileID: 0}
      m_TileFlags: 1
      m_ColliderType: 1
  - first: {x: 2, y: -8, z: 0}
    second:
      m_TileIndex: 16
      m_TileSpriteIndex: 89
      m_TileMatrixIndex: 0
      m_TileColorIndex: 0
      m_ObjectToInstantiate: {fileID: 0}
      m_TileFlags: 1
      m_ColliderType: 1
  - first: {x: 3, y: -8, z: 0}
    second:
      m_TileIndex: 15
      m_TileSpriteIndex: 81
      m_TileMatrixIndex: 0
      m_TileColorIndex: 0
      m_ObjectToInstantiate: {fileID: 0}
      m_TileFlags: 1
      m_ColliderType: 1
  - first: {x: 9, y: -8, z: 0}
    second:
      m_TileIndex: 168
      m_TileSpriteIndex: 183
      m_TileMatrixIndex: 0
      m_TileColorIndex: 0
      m_ObjectToInstantiate: {fileID: 0}
      m_TileFlags: 1
      m_ColliderType: 1
  - first: {x: 10, y: -8, z: 0}
    second:
      m_TileIndex: 169
      m_TileSpriteIndex: 182
      m_TileMatrixIndex: 0
      m_TileColorIndex: 0
      m_ObjectToInstantiate: {fileID: 0}
      m_TileFlags: 1
      m_ColliderType: 1
  - first: {x: 11, y: -8, z: 0}
    second:
      m_TileIndex: 170
      m_TileSpriteIndex: 170
      m_TileMatrixIndex: 0
      m_TileColorIndex: 0
      m_ObjectToInstantiate: {fileID: 0}
      m_TileFlags: 1
      m_ColliderType: 1
  - first: {x: 13, y: -8, z: 0}
    second:
      m_TileIndex: 171
      m_TileSpriteIndex: 171
      m_TileMatrixIndex: 0
      m_TileColorIndex: 0
      m_ObjectToInstantiate: {fileID: 0}
      m_TileFlags: 1
      m_ColliderType: 1
  - first: {x: 14, y: -8, z: 0}
    second:
      m_TileIndex: 172
      m_TileSpriteIndex: 172
      m_TileMatrixIndex: 0
      m_TileColorIndex: 0
      m_ObjectToInstantiate: {fileID: 0}
      m_TileFlags: 1
      m_ColliderType: 1
  - first: {x: 15, y: -8, z: 0}
    second:
      m_TileIndex: 173
      m_TileSpriteIndex: 173
      m_TileMatrixIndex: 0
      m_TileColorIndex: 0
      m_ObjectToInstantiate: {fileID: 0}
      m_TileFlags: 1
      m_ColliderType: 1
  - first: {x: 17, y: -8, z: 0}
    second:
      m_TileIndex: 174
      m_TileSpriteIndex: 174
      m_TileMatrixIndex: 0
      m_TileColorIndex: 0
      m_ObjectToInstantiate: {fileID: 0}
      m_TileFlags: 1
      m_ColliderType: 1
  - first: {x: 18, y: -8, z: 0}
    second:
      m_TileIndex: 175
      m_TileSpriteIndex: 175
      m_TileMatrixIndex: 0
      m_TileColorIndex: 0
      m_ObjectToInstantiate: {fileID: 0}
      m_TileFlags: 1
      m_ColliderType: 1
  - first: {x: 19, y: -8, z: 0}
    second:
      m_TileIndex: 176
      m_TileSpriteIndex: 176
      m_TileMatrixIndex: 0
      m_TileColorIndex: 0
      m_ObjectToInstantiate: {fileID: 0}
      m_TileFlags: 1
      m_ColliderType: 1
  - first: {x: 26, y: -8, z: 0}
    second:
      m_TileIndex: 221
      m_TileSpriteIndex: 64
      m_TileMatrixIndex: 0
      m_TileColorIndex: 0
      m_ObjectToInstantiate: {fileID: 0}
      m_TileFlags: 1
      m_ColliderType: 1
  - first: {x: 27, y: -8, z: 0}
    second:
      m_TileIndex: 177
      m_TileSpriteIndex: 177
      m_TileMatrixIndex: 0
      m_TileColorIndex: 0
      m_ObjectToInstantiate: {fileID: 0}
      m_TileFlags: 1
      m_ColliderType: 1
  - first: {x: 28, y: -8, z: 0}
    second:
      m_TileIndex: 178
      m_TileSpriteIndex: 178
      m_TileMatrixIndex: 0
      m_TileColorIndex: 0
      m_ObjectToInstantiate: {fileID: 0}
      m_TileFlags: 1
      m_ColliderType: 1
  - first: {x: 29, y: -8, z: 0}
    second:
      m_TileIndex: 179
      m_TileSpriteIndex: 179
      m_TileMatrixIndex: 0
      m_TileColorIndex: 0
      m_ObjectToInstantiate: {fileID: 0}
      m_TileFlags: 1
      m_ColliderType: 1
  - first: {x: 30, y: -8, z: 0}
    second:
      m_TileIndex: 180
      m_TileSpriteIndex: 180
      m_TileMatrixIndex: 0
      m_TileColorIndex: 0
      m_ObjectToInstantiate: {fileID: 0}
      m_TileFlags: 1
      m_ColliderType: 1
  - first: {x: 31, y: -8, z: 0}
    second:
      m_TileIndex: 181
      m_TileSpriteIndex: 181
      m_TileMatrixIndex: 0
      m_TileColorIndex: 0
      m_ObjectToInstantiate: {fileID: 0}
      m_TileFlags: 1
      m_ColliderType: 1
  - first: {x: -1, y: -7, z: 0}
    second:
      m_TileIndex: 24
      m_TileSpriteIndex: 153
      m_TileMatrixIndex: 0
      m_TileColorIndex: 0
      m_ObjectToInstantiate: {fileID: 0}
      m_TileFlags: 1
      m_ColliderType: 1
  - first: {x: 0, y: -7, z: 0}
    second:
      m_TileIndex: 23
      m_TileSpriteIndex: 152
      m_TileMatrixIndex: 0
      m_TileColorIndex: 0
      m_ObjectToInstantiate: {fileID: 0}
      m_TileFlags: 1
      m_ColliderType: 1
  - first: {x: 1, y: -7, z: 0}
    second:
      m_TileIndex: 22
      m_TileSpriteIndex: 143
      m_TileMatrixIndex: 0
      m_TileColorIndex: 0
      m_ObjectToInstantiate: {fileID: 0}
      m_TileFlags: 1
      m_ColliderType: 1
  - first: {x: 2, y: -7, z: 0}
    second:
      m_TileIndex: 21
      m_TileSpriteIndex: 142
      m_TileMatrixIndex: 0
      m_TileColorIndex: 0
      m_ObjectToInstantiate: {fileID: 0}
      m_TileFlags: 1
      m_ColliderType: 1
  - first: {x: 3, y: -7, z: 0}
    second:
      m_TileIndex: 20
      m_TileSpriteIndex: 116
      m_TileMatrixIndex: 0
      m_TileColorIndex: 0
      m_ObjectToInstantiate: {fileID: 0}
      m_TileFlags: 1
      m_ColliderType: 1
  - first: {x: 9, y: -7, z: 0}
    second:
      m_TileIndex: 154
      m_TileSpriteIndex: 169
      m_TileMatrixIndex: 0
      m_TileColorIndex: 0
      m_ObjectToInstantiate: {fileID: 0}
      m_TileFlags: 1
      m_ColliderType: 1
  - first: {x: 10, y: -7, z: 0}
    second:
      m_TileIndex: 155
      m_TileSpriteIndex: 168
      m_TileMatrixIndex: 0
      m_TileColorIndex: 0
      m_ObjectToInstantiate: {fileID: 0}
      m_TileFlags: 1
      m_ColliderType: 1
  - first: {x: 11, y: -7, z: 0}
    second:
      m_TileIndex: 156
      m_TileSpriteIndex: 156
      m_TileMatrixIndex: 0
      m_TileColorIndex: 0
      m_ObjectToInstantiate: {fileID: 0}
      m_TileFlags: 1
      m_ColliderType: 1
  - first: {x: 13, y: -7, z: 0}
    second:
      m_TileIndex: 157
      m_TileSpriteIndex: 157
      m_TileMatrixIndex: 0
      m_TileColorIndex: 0
      m_ObjectToInstantiate: {fileID: 0}
      m_TileFlags: 1
      m_ColliderType: 1
  - first: {x: 14, y: -7, z: 0}
    second:
      m_TileIndex: 158
      m_TileSpriteIndex: 158
      m_TileMatrixIndex: 0
      m_TileColorIndex: 0
      m_ObjectToInstantiate: {fileID: 0}
      m_TileFlags: 1
      m_ColliderType: 1
  - first: {x: 15, y: -7, z: 0}
    second:
      m_TileIndex: 159
      m_TileSpriteIndex: 159
      m_TileMatrixIndex: 0
      m_TileColorIndex: 0
      m_ObjectToInstantiate: {fileID: 0}
      m_TileFlags: 1
      m_ColliderType: 1
  - first: {x: 17, y: -7, z: 0}
    second:
      m_TileIndex: 160
      m_TileSpriteIndex: 160
      m_TileMatrixIndex: 0
      m_TileColorIndex: 0
      m_ObjectToInstantiate: {fileID: 0}
      m_TileFlags: 1
      m_ColliderType: 1
  - first: {x: 18, y: -7, z: 0}
    second:
      m_TileIndex: 161
      m_TileSpriteIndex: 161
      m_TileMatrixIndex: 0
      m_TileColorIndex: 0
      m_ObjectToInstantiate: {fileID: 0}
      m_TileFlags: 1
      m_ColliderType: 1
  - first: {x: 19, y: -7, z: 0}
    second:
      m_TileIndex: 162
      m_TileSpriteIndex: 162
      m_TileMatrixIndex: 0
      m_TileColorIndex: 0
      m_ObjectToInstantiate: {fileID: 0}
      m_TileFlags: 1
      m_ColliderType: 1
  - first: {x: 26, y: -7, z: 0}
    second:
      m_TileIndex: 19
      m_TileSpriteIndex: 115
      m_TileMatrixIndex: 0
      m_TileColorIndex: 0
      m_ObjectToInstantiate: {fileID: 0}
      m_TileFlags: 1
      m_ColliderType: 1
  - first: {x: 27, y: -7, z: 0}
    second:
      m_TileIndex: 163
      m_TileSpriteIndex: 163
      m_TileMatrixIndex: 0
      m_TileColorIndex: 0
      m_ObjectToInstantiate: {fileID: 0}
      m_TileFlags: 1
      m_ColliderType: 1
  - first: {x: 28, y: -7, z: 0}
    second:
      m_TileIndex: 164
      m_TileSpriteIndex: 164
      m_TileMatrixIndex: 0
      m_TileColorIndex: 0
      m_ObjectToInstantiate: {fileID: 0}
      m_TileFlags: 1
      m_ColliderType: 1
  - first: {x: 29, y: -7, z: 0}
    second:
      m_TileIndex: 165
      m_TileSpriteIndex: 165
      m_TileMatrixIndex: 0
      m_TileColorIndex: 0
      m_ObjectToInstantiate: {fileID: 0}
      m_TileFlags: 1
      m_ColliderType: 1
  - first: {x: 30, y: -7, z: 0}
    second:
      m_TileIndex: 166
      m_TileSpriteIndex: 166
      m_TileMatrixIndex: 0
      m_TileColorIndex: 0
      m_ObjectToInstantiate: {fileID: 0}
      m_TileFlags: 1
      m_ColliderType: 1
  - first: {x: 31, y: -7, z: 0}
    second:
      m_TileIndex: 167
      m_TileSpriteIndex: 167
      m_TileMatrixIndex: 0
      m_TileColorIndex: 0
      m_ObjectToInstantiate: {fileID: 0}
      m_TileFlags: 1
      m_ColliderType: 1
  - first: {x: 1, y: -6, z: 0}
    second:
      m_TileIndex: 137
      m_TileSpriteIndex: 155
      m_TileMatrixIndex: 0
      m_TileColorIndex: 0
      m_ObjectToInstantiate: {fileID: 0}
      m_TileFlags: 1
      m_ColliderType: 1
  - first: {x: 2, y: -6, z: 0}
    second:
      m_TileIndex: 138
      m_TileSpriteIndex: 154
      m_TileMatrixIndex: 0
      m_TileColorIndex: 0
      m_ObjectToInstantiate: {fileID: 0}
      m_TileFlags: 1
      m_ColliderType: 1
  - first: {x: 3, y: -6, z: 0}
    second:
      m_TileIndex: 139
      m_TileSpriteIndex: 139
      m_TileMatrixIndex: 0
      m_TileColorIndex: 0
      m_ObjectToInstantiate: {fileID: 0}
      m_TileFlags: 1
      m_ColliderType: 1
  - first: {x: 4, y: -6, z: 0}
    second:
      m_TileIndex: 26
      m_TileSpriteIndex: 122
      m_TileMatrixIndex: 0
      m_TileColorIndex: 0
      m_ObjectToInstantiate: {fileID: 0}
      m_TileFlags: 1
      m_ColliderType: 1
  - first: {x: 9, y: -6, z: 0}
    second:
      m_TileIndex: 140
      m_TileSpriteIndex: 140
      m_TileMatrixIndex: 0
      m_TileColorIndex: 0
      m_ObjectToInstantiate: {fileID: 0}
      m_TileFlags: 1
      m_ColliderType: 1
  - first: {x: 10, y: -6, z: 0}
    second:
      m_TileIndex: 141
      m_TileSpriteIndex: 141
      m_TileMatrixIndex: 0
      m_TileColorIndex: 0
      m_ObjectToInstantiate: {fileID: 0}
      m_TileFlags: 1
      m_ColliderType: 1
  - first: {x: 11, y: -6, z: 0}
    second:
      m_TileIndex: 142
      m_TileSpriteIndex: 22
      m_TileMatrixIndex: 0
      m_TileColorIndex: 0
      m_ObjectToInstantiate: {fileID: 0}
      m_TileFlags: 1
      m_ColliderType: 1
  - first: {x: 13, y: -6, z: 0}
    second:
      m_TileIndex: 143
      m_TileSpriteIndex: 125
      m_TileMatrixIndex: 0
      m_TileColorIndex: 0
      m_ObjectToInstantiate: {fileID: 0}
      m_TileFlags: 1
      m_ColliderType: 1
  - first: {x: 14, y: -6, z: 0}
    second:
      m_TileIndex: 144
      m_TileSpriteIndex: 126
      m_TileMatrixIndex: 0
      m_TileColorIndex: 0
      m_ObjectToInstantiate: {fileID: 0}
      m_TileFlags: 1
      m_ColliderType: 1
  - first: {x: 15, y: -6, z: 0}
    second:
      m_TileIndex: 145
      m_TileSpriteIndex: 145
      m_TileMatrixIndex: 0
      m_TileColorIndex: 0
      m_ObjectToInstantiate: {fileID: 0}
      m_TileFlags: 1
      m_ColliderType: 1
  - first: {x: 17, y: -6, z: 0}
    second:
      m_TileIndex: 146
      m_TileSpriteIndex: 146
      m_TileMatrixIndex: 0
      m_TileColorIndex: 0
      m_ObjectToInstantiate: {fileID: 0}
      m_TileFlags: 1
      m_ColliderType: 1
  - first: {x: 18, y: -6, z: 0}
    second:
      m_TileIndex: 147
      m_TileSpriteIndex: 147
      m_TileMatrixIndex: 0
      m_TileColorIndex: 0
      m_ObjectToInstantiate: {fileID: 0}
      m_TileFlags: 1
      m_ColliderType: 1
  - first: {x: 19, y: -6, z: 0}
    second:
      m_TileIndex: 148
      m_TileSpriteIndex: 148
      m_TileMatrixIndex: 0
      m_TileColorIndex: 0
      m_ObjectToInstantiate: {fileID: 0}
      m_TileFlags: 1
      m_ColliderType: 1
  - first: {x: 26, y: -6, z: 0}
    second:
      m_TileIndex: 25
      m_TileSpriteIndex: 144
      m_TileMatrixIndex: 0
      m_TileColorIndex: 0
      m_ObjectToInstantiate: {fileID: 0}
      m_TileFlags: 1
      m_ColliderType: 1
  - first: {x: 27, y: -6, z: 0}
    second:
      m_TileIndex: 149
      m_TileSpriteIndex: 149
      m_TileMatrixIndex: 0
      m_TileColorIndex: 0
      m_ObjectToInstantiate: {fileID: 0}
      m_TileFlags: 1
      m_ColliderType: 1
  - first: {x: 28, y: -6, z: 0}
    second:
      m_TileIndex: 150
      m_TileSpriteIndex: 150
      m_TileMatrixIndex: 0
      m_TileColorIndex: 0
      m_ObjectToInstantiate: {fileID: 0}
      m_TileFlags: 1
      m_ColliderType: 1
  - first: {x: 29, y: -6, z: 0}
    second:
      m_TileIndex: 151
      m_TileSpriteIndex: 151
      m_TileMatrixIndex: 0
      m_TileColorIndex: 0
      m_ObjectToInstantiate: {fileID: 0}
      m_TileFlags: 1
      m_ColliderType: 1
  - first: {x: 30, y: -6, z: 0}
    second:
      m_TileIndex: 152
      m_TileSpriteIndex: 21
      m_TileMatrixIndex: 0
      m_TileColorIndex: 0
      m_ObjectToInstantiate: {fileID: 0}
      m_TileFlags: 1
      m_ColliderType: 1
  - first: {x: 31, y: -6, z: 0}
    second:
      m_TileIndex: 153
      m_TileSpriteIndex: 14
      m_TileMatrixIndex: 0
      m_TileColorIndex: 0
      m_ObjectToInstantiate: {fileID: 0}
      m_TileFlags: 1
      m_ColliderType: 1
  - first: {x: 1, y: -5, z: 0}
    second:
      m_TileIndex: 109
      m_TileSpriteIndex: 138
      m_TileMatrixIndex: 0
      m_TileColorIndex: 0
      m_ObjectToInstantiate: {fileID: 0}
      m_TileFlags: 1
      m_ColliderType: 1
  - first: {x: 2, y: -5, z: 0}
    second:
      m_TileIndex: 110
      m_TileSpriteIndex: 137
      m_TileMatrixIndex: 0
      m_TileColorIndex: 0
      m_ObjectToInstantiate: {fileID: 0}
      m_TileFlags: 1
      m_ColliderType: 1
  - first: {x: 3, y: -5, z: 0}
    second:
      m_TileIndex: 111
      m_TileSpriteIndex: 16
      m_TileMatrixIndex: 0
      m_TileColorIndex: 0
      m_ObjectToInstantiate: {fileID: 0}
      m_TileFlags: 1
      m_ColliderType: 1
  - first: {x: 5, y: -5, z: 0}
    second:
      m_TileIndex: 112
      m_TileSpriteIndex: 98
      m_TileMatrixIndex: 0
      m_TileColorIndex: 0
      m_ObjectToInstantiate: {fileID: 0}
      m_TileFlags: 1
      m_ColliderType: 1
  - first: {x: 6, y: -5, z: 0}
    second:
      m_TileIndex: 113
      m_TileSpriteIndex: 99
      m_TileMatrixIndex: 0
      m_TileColorIndex: 0
      m_ObjectToInstantiate: {fileID: 0}
      m_TileFlags: 1
      m_ColliderType: 1
  - first: {x: 7, y: -5, z: 0}
    second:
      m_TileIndex: 114
      m_TileSpriteIndex: 136
      m_TileMatrixIndex: 0
      m_TileColorIndex: 0
      m_ObjectToInstantiate: {fileID: 0}
      m_TileFlags: 1
      m_ColliderType: 1
  - first: {x: 9, y: -5, z: 0}
    second:
      m_TileIndex: 115
      m_TileSpriteIndex: 135
      m_TileMatrixIndex: 0
      m_TileColorIndex: 0
      m_ObjectToInstantiate: {fileID: 0}
      m_TileFlags: 1
      m_ColliderType: 1
  - first: {x: 10, y: -5, z: 0}
    second:
      m_TileIndex: 116
      m_TileSpriteIndex: 124
      m_TileMatrixIndex: 0
      m_TileColorIndex: 0
      m_ObjectToInstantiate: {fileID: 0}
      m_TileFlags: 1
      m_ColliderType: 1
  - first: {x: 11, y: -5, z: 0}
    second:
      m_TileIndex: 117
      m_TileSpriteIndex: 117
      m_TileMatrixIndex: 0
      m_TileColorIndex: 0
      m_ObjectToInstantiate: {fileID: 0}
      m_TileFlags: 1
      m_ColliderType: 1
  - first: {x: 13, y: -5, z: 0}
    second:
      m_TileIndex: 118
      m_TileSpriteIndex: 118
      m_TileMatrixIndex: 0
      m_TileColorIndex: 0
      m_ObjectToInstantiate: {fileID: 0}
      m_TileFlags: 1
      m_ColliderType: 1
  - first: {x: 14, y: -5, z: 0}
    second:
      m_TileIndex: 119
      m_TileSpriteIndex: 119
      m_TileMatrixIndex: 0
      m_TileColorIndex: 0
      m_ObjectToInstantiate: {fileID: 0}
      m_TileFlags: 1
      m_ColliderType: 1
  - first: {x: 15, y: -5, z: 0}
    second:
      m_TileIndex: 120
      m_TileSpriteIndex: 120
      m_TileMatrixIndex: 0
      m_TileColorIndex: 0
      m_ObjectToInstantiate: {fileID: 0}
      m_TileFlags: 1
      m_ColliderType: 1
  - first: {x: 17, y: -5, z: 0}
    second:
      m_TileIndex: 121
      m_TileSpriteIndex: 121
      m_TileMatrixIndex: 0
      m_TileColorIndex: 0
      m_ObjectToInstantiate: {fileID: 0}
      m_TileFlags: 1
      m_ColliderType: 1
  - first: {x: 18, y: -5, z: 0}
    second:
      m_TileIndex: 122
      m_TileSpriteIndex: 15
      m_TileMatrixIndex: 0
      m_TileColorIndex: 0
      m_ObjectToInstantiate: {fileID: 0}
      m_TileFlags: 1
      m_ColliderType: 1
  - first: {x: 19, y: -5, z: 0}
    second:
      m_TileIndex: 123
      m_TileSpriteIndex: 123
      m_TileMatrixIndex: 0
      m_TileColorIndex: 0
      m_ObjectToInstantiate: {fileID: 0}
      m_TileFlags: 1
      m_ColliderType: 1
  - first: {x: 24, y: -5, z: 0}
    second:
      m_TileIndex: 127
      m_TileSpriteIndex: 127
      m_TileMatrixIndex: 0
      m_TileColorIndex: 0
      m_ObjectToInstantiate: {fileID: 0}
      m_TileFlags: 1
      m_ColliderType: 1
  - first: {x: 25, y: -5, z: 0}
    second:
      m_TileIndex: 128
      m_TileSpriteIndex: 128
      m_TileMatrixIndex: 0
      m_TileColorIndex: 0
      m_ObjectToInstantiate: {fileID: 0}
      m_TileFlags: 1
      m_ColliderType: 1
  - first: {x: 26, y: -5, z: 0}
    second:
      m_TileIndex: 129
      m_TileSpriteIndex: 129
      m_TileMatrixIndex: 0
      m_TileColorIndex: 0
      m_ObjectToInstantiate: {fileID: 0}
      m_TileFlags: 1
      m_ColliderType: 1
  - first: {x: 27, y: -5, z: 0}
    second:
      m_TileIndex: 130
      m_TileSpriteIndex: 130
      m_TileMatrixIndex: 0
      m_TileColorIndex: 0
      m_ObjectToInstantiate: {fileID: 0}
      m_TileFlags: 1
      m_ColliderType: 1
  - first: {x: 28, y: -5, z: 0}
    second:
      m_TileIndex: 131
      m_TileSpriteIndex: 131
      m_TileMatrixIndex: 0
      m_TileColorIndex: 0
      m_ObjectToInstantiate: {fileID: 0}
      m_TileFlags: 1
      m_ColliderType: 1
  - first: {x: 29, y: -5, z: 0}
    second:
      m_TileIndex: 132
      m_TileSpriteIndex: 132
      m_TileMatrixIndex: 0
      m_TileColorIndex: 0
      m_ObjectToInstantiate: {fileID: 0}
      m_TileFlags: 1
      m_ColliderType: 1
  - first: {x: 30, y: -5, z: 0}
    second:
      m_TileIndex: 133
      m_TileSpriteIndex: 133
      m_TileMatrixIndex: 0
      m_TileColorIndex: 0
      m_ObjectToInstantiate: {fileID: 0}
      m_TileFlags: 1
      m_ColliderType: 1
  - first: {x: 31, y: -5, z: 0}
    second:
      m_TileIndex: 134
      m_TileSpriteIndex: 134
      m_TileMatrixIndex: 0
      m_TileColorIndex: 0
      m_ObjectToInstantiate: {fileID: 0}
      m_TileFlags: 1
      m_ColliderType: 1
  - first: {x: 1, y: -4, z: 0}
    second:
      m_TileIndex: 82
      m_TileSpriteIndex: 72
      m_TileMatrixIndex: 0
      m_TileColorIndex: 0
      m_ObjectToInstantiate: {fileID: 0}
      m_TileFlags: 1
      m_ColliderType: 1
  - first: {x: 2, y: -4, z: 0}
    second:
      m_TileIndex: 83
      m_TileSpriteIndex: 73
      m_TileMatrixIndex: 0
      m_TileColorIndex: 0
      m_ObjectToInstantiate: {fileID: 0}
      m_TileFlags: 1
      m_ColliderType: 1
  - first: {x: 3, y: -4, z: 0}
    second:
      m_TileIndex: 84
      m_TileSpriteIndex: 113
      m_TileMatrixIndex: 0
      m_TileColorIndex: 0
      m_ObjectToInstantiate: {fileID: 0}
      m_TileFlags: 1
      m_ColliderType: 1
  - first: {x: 5, y: -4, z: 0}
    second:
      m_TileIndex: 85
      m_TileSpriteIndex: 112
      m_TileMatrixIndex: 0
      m_TileColorIndex: 0
      m_ObjectToInstantiate: {fileID: 0}
      m_TileFlags: 1
      m_ColliderType: 1
  - first: {x: 6, y: -4, z: 0}
    second:
      m_TileIndex: 86
      m_TileSpriteIndex: 111
      m_TileMatrixIndex: 0
      m_TileColorIndex: 0
      m_ObjectToInstantiate: {fileID: 0}
      m_TileFlags: 1
      m_ColliderType: 1
  - first: {x: 7, y: -4, z: 0}
    second:
      m_TileIndex: 87
      m_TileSpriteIndex: 110
      m_TileMatrixIndex: 0
      m_TileColorIndex: 0
      m_ObjectToInstantiate: {fileID: 0}
      m_TileFlags: 1
      m_ColliderType: 1
  - first: {x: 9, y: -4, z: 0}
    second:
      m_TileIndex: 88
      m_TileSpriteIndex: 109
      m_TileMatrixIndex: 0
      m_TileColorIndex: 0
      m_ObjectToInstantiate: {fileID: 0}
      m_TileFlags: 1
      m_ColliderType: 1
  - first: {x: 10, y: -4, z: 0}
    second:
      m_TileIndex: 89
      m_TileSpriteIndex: 108
      m_TileMatrixIndex: 0
      m_TileColorIndex: 0
      m_ObjectToInstantiate: {fileID: 0}
      m_TileFlags: 1
      m_ColliderType: 1
  - first: {x: 11, y: -4, z: 0}
    second:
      m_TileIndex: 90
      m_TileSpriteIndex: 97
      m_TileMatrixIndex: 0
      m_TileColorIndex: 0
      m_ObjectToInstantiate: {fileID: 0}
      m_TileFlags: 1
      m_ColliderType: 1
  - first: {x: 13, y: -4, z: 0}
    second:
      m_TileIndex: 91
      m_TileSpriteIndex: 91
      m_TileMatrixIndex: 0
      m_TileColorIndex: 0
      m_ObjectToInstantiate: {fileID: 0}
      m_TileFlags: 1
      m_ColliderType: 1
  - first: {x: 14, y: -4, z: 0}
    second:
      m_TileIndex: 92
      m_TileSpriteIndex: 92
      m_TileMatrixIndex: 0
      m_TileColorIndex: 0
      m_ObjectToInstantiate: {fileID: 0}
      m_TileFlags: 1
      m_ColliderType: 1
  - first: {x: 15, y: -4, z: 0}
    second:
      m_TileIndex: 93
      m_TileSpriteIndex: 93
      m_TileMatrixIndex: 0
      m_TileColorIndex: 0
      m_ObjectToInstantiate: {fileID: 0}
      m_TileFlags: 1
      m_ColliderType: 1
  - first: {x: 17, y: -4, z: 0}
    second:
      m_TileIndex: 94
      m_TileSpriteIndex: 94
      m_TileMatrixIndex: 0
      m_TileColorIndex: 0
      m_ObjectToInstantiate: {fileID: 0}
      m_TileFlags: 1
      m_ColliderType: 1
  - first: {x: 18, y: -4, z: 0}
    second:
      m_TileIndex: 95
      m_TileSpriteIndex: 95
      m_TileMatrixIndex: 0
      m_TileColorIndex: 0
      m_ObjectToInstantiate: {fileID: 0}
      m_TileFlags: 1
      m_ColliderType: 1
  - first: {x: 19, y: -4, z: 0}
    second:
      m_TileIndex: 96
      m_TileSpriteIndex: 96
      m_TileMatrixIndex: 0
      m_TileColorIndex: 0
      m_ObjectToInstantiate: {fileID: 0}
      m_TileFlags: 1
      m_ColliderType: 1
  - first: {x: 24, y: -4, z: 0}
    second:
      m_TileIndex: 100
      m_TileSpriteIndex: 100
      m_TileMatrixIndex: 0
      m_TileColorIndex: 0
      m_ObjectToInstantiate: {fileID: 0}
      m_TileFlags: 1
      m_ColliderType: 1
  - first: {x: 25, y: -4, z: 0}
    second:
      m_TileIndex: 101
      m_TileSpriteIndex: 101
      m_TileMatrixIndex: 0
      m_TileColorIndex: 0
      m_ObjectToInstantiate: {fileID: 0}
      m_TileFlags: 1
      m_ColliderType: 1
  - first: {x: 26, y: -4, z: 0}
    second:
      m_TileIndex: 102
      m_TileSpriteIndex: 102
      m_TileMatrixIndex: 0
      m_TileColorIndex: 0
      m_ObjectToInstantiate: {fileID: 0}
      m_TileFlags: 1
      m_ColliderType: 1
  - first: {x: 27, y: -4, z: 0}
    second:
      m_TileIndex: 103
      m_TileSpriteIndex: 103
      m_TileMatrixIndex: 0
      m_TileColorIndex: 0
      m_ObjectToInstantiate: {fileID: 0}
      m_TileFlags: 1
      m_ColliderType: 1
  - first: {x: 28, y: -4, z: 0}
    second:
      m_TileIndex: 104
      m_TileSpriteIndex: 104
      m_TileMatrixIndex: 0
      m_TileColorIndex: 0
      m_ObjectToInstantiate: {fileID: 0}
      m_TileFlags: 1
      m_ColliderType: 1
  - first: {x: 29, y: -4, z: 0}
    second:
      m_TileIndex: 105
      m_TileSpriteIndex: 105
      m_TileMatrixIndex: 0
      m_TileColorIndex: 0
      m_ObjectToInstantiate: {fileID: 0}
      m_TileFlags: 1
      m_ColliderType: 1
  - first: {x: 30, y: -4, z: 0}
    second:
      m_TileIndex: 106
      m_TileSpriteIndex: 106
      m_TileMatrixIndex: 0
      m_TileColorIndex: 0
      m_ObjectToInstantiate: {fileID: 0}
      m_TileFlags: 1
      m_ColliderType: 1
  - first: {x: 31, y: -4, z: 0}
    second:
      m_TileIndex: 107
      m_TileSpriteIndex: 107
      m_TileMatrixIndex: 0
      m_TileColorIndex: 0
      m_ObjectToInstantiate: {fileID: 0}
      m_TileFlags: 1
      m_ColliderType: 1
  - first: {x: 1, y: -3, z: 0}
    second:
      m_TileIndex: 56
      m_TileSpriteIndex: 88
      m_TileMatrixIndex: 0
      m_TileColorIndex: 0
      m_ObjectToInstantiate: {fileID: 0}
      m_TileFlags: 1
      m_ColliderType: 1
  - first: {x: 2, y: -3, z: 0}
    second:
      m_TileIndex: 57
      m_TileSpriteIndex: 87
      m_TileMatrixIndex: 0
      m_TileColorIndex: 0
      m_ObjectToInstantiate: {fileID: 0}
      m_TileFlags: 1
      m_ColliderType: 1
  - first: {x: 3, y: -3, z: 0}
    second:
      m_TileIndex: 58
      m_TileSpriteIndex: 86
      m_TileMatrixIndex: 0
      m_TileColorIndex: 0
      m_ObjectToInstantiate: {fileID: 0}
      m_TileFlags: 1
      m_ColliderType: 1
  - first: {x: 5, y: -3, z: 0}
    second:
      m_TileIndex: 59
      m_TileSpriteIndex: 85
      m_TileMatrixIndex: 0
      m_TileColorIndex: 0
      m_ObjectToInstantiate: {fileID: 0}
      m_TileFlags: 1
      m_ColliderType: 1
  - first: {x: 6, y: -3, z: 0}
    second:
      m_TileIndex: 60
      m_TileSpriteIndex: 84
      m_TileMatrixIndex: 0
      m_TileColorIndex: 0
      m_ObjectToInstantiate: {fileID: 0}
      m_TileFlags: 1
      m_ColliderType: 1
  - first: {x: 7, y: -3, z: 0}
    second:
      m_TileIndex: 61
      m_TileSpriteIndex: 83
      m_TileMatrixIndex: 0
      m_TileColorIndex: 0
      m_ObjectToInstantiate: {fileID: 0}
      m_TileFlags: 1
      m_ColliderType: 1
  - first: {x: 9, y: -3, z: 0}
    second:
      m_TileIndex: 62
      m_TileSpriteIndex: 18
      m_TileMatrixIndex: 0
      m_TileColorIndex: 0
      m_ObjectToInstantiate: {fileID: 0}
      m_TileFlags: 1
      m_ColliderType: 1
  - first: {x: 10, y: -3, z: 0}
    second:
      m_TileIndex: 63
      m_TileSpriteIndex: 82
      m_TileMatrixIndex: 0
      m_TileColorIndex: 0
      m_ObjectToInstantiate: {fileID: 0}
      m_TileFlags: 1
      m_ColliderType: 1
  - first: {x: 11, y: -3, z: 0}
    second:
      m_TileIndex: 64
      m_TileSpriteIndex: 71
      m_TileMatrixIndex: 0
      m_TileColorIndex: 0
      m_ObjectToInstantiate: {fileID: 0}
      m_TileFlags: 1
      m_ColliderType: 1
  - first: {x: 13, y: -3, z: 0}
    second:
      m_TileIndex: 65
      m_TileSpriteIndex: 65
      m_TileMatrixIndex: 0
      m_TileColorIndex: 0
      m_ObjectToInstantiate: {fileID: 0}
      m_TileFlags: 1
      m_ColliderType: 1
  - first: {x: 14, y: -3, z: 0}
    second:
      m_TileIndex: 66
      m_TileSpriteIndex: 66
      m_TileMatrixIndex: 0
      m_TileColorIndex: 0
      m_ObjectToInstantiate: {fileID: 0}
      m_TileFlags: 1
      m_ColliderType: 1
  - first: {x: 15, y: -3, z: 0}
    second:
      m_TileIndex: 67
      m_TileSpriteIndex: 67
      m_TileMatrixIndex: 0
      m_TileColorIndex: 0
      m_ObjectToInstantiate: {fileID: 0}
      m_TileFlags: 1
      m_ColliderType: 1
  - first: {x: 17, y: -3, z: 0}
    second:
      m_TileIndex: 68
      m_TileSpriteIndex: 68
      m_TileMatrixIndex: 0
      m_TileColorIndex: 0
      m_ObjectToInstantiate: {fileID: 0}
      m_TileFlags: 1
      m_ColliderType: 1
  - first: {x: 18, y: -3, z: 0}
    second:
      m_TileIndex: 69
      m_TileSpriteIndex: 69
      m_TileMatrixIndex: 0
      m_TileColorIndex: 0
      m_ObjectToInstantiate: {fileID: 0}
      m_TileFlags: 1
      m_ColliderType: 1
  - first: {x: 19, y: -3, z: 0}
    second:
      m_TileIndex: 70
      m_TileSpriteIndex: 70
      m_TileMatrixIndex: 0
      m_TileColorIndex: 0
      m_ObjectToInstantiate: {fileID: 0}
      m_TileFlags: 1
      m_ColliderType: 1
  - first: {x: 24, y: -3, z: 0}
    second:
      m_TileIndex: 74
      m_TileSpriteIndex: 74
      m_TileMatrixIndex: 0
      m_TileColorIndex: 0
      m_ObjectToInstantiate: {fileID: 0}
      m_TileFlags: 1
      m_ColliderType: 1
  - first: {x: 25, y: -3, z: 0}
    second:
      m_TileIndex: 75
      m_TileSpriteIndex: 75
      m_TileMatrixIndex: 0
      m_TileColorIndex: 0
      m_ObjectToInstantiate: {fileID: 0}
      m_TileFlags: 1
      m_ColliderType: 1
  - first: {x: 26, y: -3, z: 0}
    second:
      m_TileIndex: 76
      m_TileSpriteIndex: 76
      m_TileMatrixIndex: 0
      m_TileColorIndex: 0
      m_ObjectToInstantiate: {fileID: 0}
      m_TileFlags: 1
      m_ColliderType: 1
  - first: {x: 27, y: -3, z: 0}
    second:
      m_TileIndex: 77
      m_TileSpriteIndex: 77
      m_TileMatrixIndex: 0
      m_TileColorIndex: 0
      m_ObjectToInstantiate: {fileID: 0}
      m_TileFlags: 1
      m_ColliderType: 1
  - first: {x: 28, y: -3, z: 0}
    second:
      m_TileIndex: 78
      m_TileSpriteIndex: 78
      m_TileMatrixIndex: 0
      m_TileColorIndex: 0
      m_ObjectToInstantiate: {fileID: 0}
      m_TileFlags: 1
      m_ColliderType: 1
  - first: {x: 29, y: -3, z: 0}
    second:
      m_TileIndex: 79
      m_TileSpriteIndex: 79
      m_TileMatrixIndex: 0
      m_TileColorIndex: 0
      m_ObjectToInstantiate: {fileID: 0}
      m_TileFlags: 1
      m_ColliderType: 1
  - first: {x: 30, y: -3, z: 0}
    second:
      m_TileIndex: 80
      m_TileSpriteIndex: 80
      m_TileMatrixIndex: 0
      m_TileColorIndex: 0
      m_ObjectToInstantiate: {fileID: 0}
      m_TileFlags: 1
      m_ColliderType: 1
  - first: {x: 31, y: -3, z: 0}
    second:
      m_TileIndex: 81
      m_TileSpriteIndex: 17
      m_TileMatrixIndex: 0
      m_TileColorIndex: 0
      m_ObjectToInstantiate: {fileID: 0}
      m_TileFlags: 1
      m_ColliderType: 1
  - first: {x: 1, y: -2, z: 0}
    second:
      m_TileIndex: 29
      m_TileSpriteIndex: 63
      m_TileMatrixIndex: 0
      m_TileColorIndex: 0
      m_ObjectToInstantiate: {fileID: 0}
      m_TileFlags: 1
      m_ColliderType: 1
  - first: {x: 2, y: -2, z: 0}
    second:
      m_TileIndex: 30
      m_TileSpriteIndex: 62
      m_TileMatrixIndex: 0
      m_TileColorIndex: 0
      m_ObjectToInstantiate: {fileID: 0}
      m_TileFlags: 1
      m_ColliderType: 1
  - first: {x: 3, y: -2, z: 0}
    second:
      m_TileIndex: 31
      m_TileSpriteIndex: 61
      m_TileMatrixIndex: 0
      m_TileColorIndex: 0
      m_ObjectToInstantiate: {fileID: 0}
      m_TileFlags: 1
      m_ColliderType: 1
  - first: {x: 5, y: -2, z: 0}
    second:
      m_TileIndex: 32
      m_TileSpriteIndex: 60
      m_TileMatrixIndex: 0
      m_TileColorIndex: 0
      m_ObjectToInstantiate: {fileID: 0}
      m_TileFlags: 1
      m_ColliderType: 1
  - first: {x: 6, y: -2, z: 0}
    second:
      m_TileIndex: 33
      m_TileSpriteIndex: 59
      m_TileMatrixIndex: 0
      m_TileColorIndex: 0
      m_ObjectToInstantiate: {fileID: 0}
      m_TileFlags: 1
      m_ColliderType: 1
  - first: {x: 7, y: -2, z: 0}
    second:
      m_TileIndex: 34
      m_TileSpriteIndex: 58
      m_TileMatrixIndex: 0
      m_TileColorIndex: 0
      m_ObjectToInstantiate: {fileID: 0}
      m_TileFlags: 1
      m_ColliderType: 1
  - first: {x: 9, y: -2, z: 0}
    second:
      m_TileIndex: 35
      m_TileSpriteIndex: 57
      m_TileMatrixIndex: 0
      m_TileColorIndex: 0
      m_ObjectToInstantiate: {fileID: 0}
      m_TileFlags: 1
      m_ColliderType: 1
  - first: {x: 10, y: -2, z: 0}
    second:
      m_TileIndex: 36
      m_TileSpriteIndex: 56
      m_TileMatrixIndex: 0
      m_TileColorIndex: 0
      m_ObjectToInstantiate: {fileID: 0}
      m_TileFlags: 1
      m_ColliderType: 1
  - first: {x: 11, y: -2, z: 0}
    second:
      m_TileIndex: 37
      m_TileSpriteIndex: 55
      m_TileMatrixIndex: 0
      m_TileColorIndex: 0
      m_ObjectToInstantiate: {fileID: 0}
      m_TileFlags: 1
      m_ColliderType: 1
  - first: {x: 13, y: -2, z: 0}
    second:
      m_TileIndex: 38
      m_TileSpriteIndex: 44
      m_TileMatrixIndex: 0
      m_TileColorIndex: 0
      m_ObjectToInstantiate: {fileID: 0}
      m_TileFlags: 1
      m_ColliderType: 1
  - first: {x: 14, y: -2, z: 0}
    second:
      m_TileIndex: 39
      m_TileSpriteIndex: 39
      m_TileMatrixIndex: 0
      m_TileColorIndex: 0
      m_ObjectToInstantiate: {fileID: 0}
      m_TileFlags: 1
      m_ColliderType: 1
  - first: {x: 15, y: -2, z: 0}
    second:
      m_TileIndex: 40
      m_TileSpriteIndex: 40
      m_TileMatrixIndex: 0
      m_TileColorIndex: 0
      m_ObjectToInstantiate: {fileID: 0}
      m_TileFlags: 1
      m_ColliderType: 1
  - first: {x: 17, y: -2, z: 0}
    second:
      m_TileIndex: 41
      m_TileSpriteIndex: 41
      m_TileMatrixIndex: 0
      m_TileColorIndex: 0
      m_ObjectToInstantiate: {fileID: 0}
      m_TileFlags: 1
      m_ColliderType: 1
  - first: {x: 18, y: -2, z: 0}
    second:
      m_TileIndex: 42
      m_TileSpriteIndex: 42
      m_TileMatrixIndex: 0
      m_TileColorIndex: 0
      m_ObjectToInstantiate: {fileID: 0}
      m_TileFlags: 1
      m_ColliderType: 1
  - first: {x: 19, y: -2, z: 0}
    second:
      m_TileIndex: 43
      m_TileSpriteIndex: 43
      m_TileMatrixIndex: 0
      m_TileColorIndex: 0
      m_ObjectToInstantiate: {fileID: 0}
      m_TileFlags: 1
      m_ColliderType: 1
  - first: {x: 24, y: -2, z: 0}
    second:
      m_TileIndex: 47
      m_TileSpriteIndex: 47
      m_TileMatrixIndex: 0
      m_TileColorIndex: 0
      m_ObjectToInstantiate: {fileID: 0}
      m_TileFlags: 1
      m_ColliderType: 1
  - first: {x: 25, y: -2, z: 0}
    second:
      m_TileIndex: 48
      m_TileSpriteIndex: 48
      m_TileMatrixIndex: 0
      m_TileColorIndex: 0
      m_ObjectToInstantiate: {fileID: 0}
      m_TileFlags: 1
      m_ColliderType: 1
  - first: {x: 26, y: -2, z: 0}
    second:
      m_TileIndex: 49
      m_TileSpriteIndex: 49
      m_TileMatrixIndex: 0
      m_TileColorIndex: 0
      m_ObjectToInstantiate: {fileID: 0}
      m_TileFlags: 1
      m_ColliderType: 1
  - first: {x: 27, y: -2, z: 0}
    second:
      m_TileIndex: 50
      m_TileSpriteIndex: 19
      m_TileMatrixIndex: 0
      m_TileColorIndex: 0
      m_ObjectToInstantiate: {fileID: 0}
      m_TileFlags: 1
      m_ColliderType: 1
  - first: {x: 28, y: -2, z: 0}
    second:
      m_TileIndex: 51
      m_TileSpriteIndex: 45
      m_TileMatrixIndex: 0
      m_TileColorIndex: 0
      m_ObjectToInstantiate: {fileID: 0}
      m_TileFlags: 1
      m_ColliderType: 1
  - first: {x: 29, y: -2, z: 0}
    second:
      m_TileIndex: 52
      m_TileSpriteIndex: 46
      m_TileMatrixIndex: 0
      m_TileColorIndex: 0
      m_ObjectToInstantiate: {fileID: 0}
      m_TileFlags: 1
      m_ColliderType: 1
  - first: {x: 30, y: -2, z: 0}
    second:
      m_TileIndex: 53
      m_TileSpriteIndex: 53
      m_TileMatrixIndex: 0
      m_TileColorIndex: 0
      m_ObjectToInstantiate: {fileID: 0}
      m_TileFlags: 1
      m_ColliderType: 1
  - first: {x: 31, y: -2, z: 0}
    second:
      m_TileIndex: 54
      m_TileSpriteIndex: 54
      m_TileMatrixIndex: 0
      m_TileColorIndex: 0
      m_ObjectToInstantiate: {fileID: 0}
      m_TileFlags: 1
      m_ColliderType: 1
  - first: {x: 1, y: -1, z: 0}
    second:
      m_TileIndex: 217
      m_TileSpriteIndex: 217
      m_TileMatrixIndex: 0
      m_TileColorIndex: 0
      m_ObjectToInstantiate: {fileID: 0}
      m_TileFlags: 1
      m_ColliderType: 1
  - first: {x: 2, y: -1, z: 0}
    second:
      m_TileIndex: 216
      m_TileSpriteIndex: 216
      m_TileMatrixIndex: 0
      m_TileColorIndex: 0
      m_ObjectToInstantiate: {fileID: 0}
      m_TileFlags: 1
      m_ColliderType: 1
  - first: {x: 3, y: -1, z: 0}
    second:
      m_TileIndex: 215
      m_TileSpriteIndex: 215
      m_TileMatrixIndex: 0
      m_TileColorIndex: 0
      m_ObjectToInstantiate: {fileID: 0}
      m_TileFlags: 1
      m_ColliderType: 1
  - first: {x: 5, y: -1, z: 0}
    second:
      m_TileIndex: 214
      m_TileSpriteIndex: 214
      m_TileMatrixIndex: 0
      m_TileColorIndex: 0
      m_ObjectToInstantiate: {fileID: 0}
      m_TileFlags: 1
      m_ColliderType: 1
  - first: {x: 6, y: -1, z: 0}
    second:
      m_TileIndex: 213
      m_TileSpriteIndex: 213
      m_TileMatrixIndex: 0
      m_TileColorIndex: 0
      m_ObjectToInstantiate: {fileID: 0}
      m_TileFlags: 1
      m_ColliderType: 1
  - first: {x: 7, y: -1, z: 0}
    second:
      m_TileIndex: 212
      m_TileSpriteIndex: 212
      m_TileMatrixIndex: 0
      m_TileColorIndex: 0
      m_ObjectToInstantiate: {fileID: 0}
      m_TileFlags: 1
      m_ColliderType: 1
  - first: {x: 9, y: -1, z: 0}
    second:
      m_TileIndex: 211
      m_TileSpriteIndex: 38
      m_TileMatrixIndex: 0
      m_TileColorIndex: 0
      m_ObjectToInstantiate: {fileID: 0}
      m_TileFlags: 1
      m_ColliderType: 1
  - first: {x: 10, y: -1, z: 0}
    second:
      m_TileIndex: 210
      m_TileSpriteIndex: 37
      m_TileMatrixIndex: 0
      m_TileColorIndex: 0
      m_ObjectToInstantiate: {fileID: 0}
      m_TileFlags: 1
      m_ColliderType: 1
  - first: {x: 11, y: -1, z: 0}
    second:
      m_TileIndex: 136
      m_TileSpriteIndex: 36
      m_TileMatrixIndex: 0
      m_TileColorIndex: 0
      m_ObjectToInstantiate: {fileID: 0}
      m_TileFlags: 1
      m_ColliderType: 1
  - first: {x: 13, y: -1, z: 0}
    second:
      m_TileIndex: 135
      m_TileSpriteIndex: 35
      m_TileMatrixIndex: 0
      m_TileColorIndex: 0
      m_ObjectToInstantiate: {fileID: 0}
      m_TileFlags: 1
      m_ColliderType: 1
  - first: {x: 14, y: -1, z: 0}
    second:
      m_TileIndex: 124
      m_TileSpriteIndex: 34
      m_TileMatrixIndex: 0
      m_TileColorIndex: 0
      m_ObjectToInstantiate: {fileID: 0}
      m_TileFlags: 1
      m_ColliderType: 1
  - first: {x: 15, y: -1, z: 0}
    second:
      m_TileIndex: 108
      m_TileSpriteIndex: 33
      m_TileMatrixIndex: 0
      m_TileColorIndex: 0
      m_ObjectToInstantiate: {fileID: 0}
      m_TileFlags: 1
      m_ColliderType: 1
  - first: {x: 17, y: -1, z: 0}
    second:
      m_TileIndex: 99
      m_TileSpriteIndex: 32
      m_TileMatrixIndex: 0
      m_TileColorIndex: 0
      m_ObjectToInstantiate: {fileID: 0}
      m_TileFlags: 1
      m_ColliderType: 1
  - first: {x: 18, y: -1, z: 0}
    second:
      m_TileIndex: 98
      m_TileSpriteIndex: 31
      m_TileMatrixIndex: 0
      m_TileColorIndex: 0
      m_ObjectToInstantiate: {fileID: 0}
      m_TileFlags: 1
      m_ColliderType: 1
  - first: {x: 19, y: -1, z: 0}
    second:
      m_TileIndex: 97
      m_TileSpriteIndex: 30
      m_TileMatrixIndex: 0
      m_TileColorIndex: 0
      m_ObjectToInstantiate: {fileID: 0}
      m_TileFlags: 1
      m_ColliderType: 1
  - first: {x: 24, y: -1, z: 0}
    second:
      m_TileIndex: 73
      m_TileSpriteIndex: 23
      m_TileMatrixIndex: 0
      m_TileColorIndex: 0
      m_ObjectToInstantiate: {fileID: 0}
      m_TileFlags: 1
      m_ColliderType: 1
  - first: {x: 25, y: -1, z: 0}
    second:
      m_TileIndex: 72
      m_TileSpriteIndex: 29
      m_TileMatrixIndex: 0
      m_TileColorIndex: 0
      m_ObjectToInstantiate: {fileID: 0}
      m_TileFlags: 1
      m_ColliderType: 1
  - first: {x: 26, y: -1, z: 0}
    second:
      m_TileIndex: 71
      m_TileSpriteIndex: 20
      m_TileMatrixIndex: 0
      m_TileColorIndex: 0
      m_ObjectToInstantiate: {fileID: 0}
      m_TileFlags: 1
      m_ColliderType: 1
  - first: {x: 27, y: -1, z: 0}
    second:
      m_TileIndex: 55
      m_TileSpriteIndex: 24
      m_TileMatrixIndex: 0
      m_TileColorIndex: 0
      m_ObjectToInstantiate: {fileID: 0}
      m_TileFlags: 1
      m_ColliderType: 1
  - first: {x: 28, y: -1, z: 0}
    second:
      m_TileIndex: 46
      m_TileSpriteIndex: 25
      m_TileMatrixIndex: 0
      m_TileColorIndex: 0
      m_ObjectToInstantiate: {fileID: 0}
      m_TileFlags: 1
      m_ColliderType: 1
  - first: {x: 29, y: -1, z: 0}
    second:
      m_TileIndex: 45
      m_TileSpriteIndex: 26
      m_TileMatrixIndex: 0
      m_TileColorIndex: 0
      m_ObjectToInstantiate: {fileID: 0}
      m_TileFlags: 1
      m_ColliderType: 1
  - first: {x: 30, y: -1, z: 0}
    second:
      m_TileIndex: 27
      m_TileSpriteIndex: 27
      m_TileMatrixIndex: 0
      m_TileColorIndex: 0
      m_ObjectToInstantiate: {fileID: 0}
      m_TileFlags: 1
      m_ColliderType: 1
  - first: {x: 31, y: -1, z: 0}
    second:
      m_TileIndex: 28
      m_TileSpriteIndex: 28
      m_TileMatrixIndex: 0
      m_TileColorIndex: 0
      m_ObjectToInstantiate: {fileID: 0}
      m_TileFlags: 1
      m_ColliderType: 1
  - first: {x: 1, y: 0, z: 0}
    second:
      m_TileIndex: 220
      m_TileSpriteIndex: 220
      m_TileMatrixIndex: 0
      m_TileColorIndex: 0
      m_ObjectToInstantiate: {fileID: 0}
      m_TileFlags: 1
      m_ColliderType: 1
  - first: {x: 2, y: 0, z: 0}
    second:
      m_TileIndex: 219
      m_TileSpriteIndex: 219
      m_TileMatrixIndex: 0
      m_TileColorIndex: 0
      m_ObjectToInstantiate: {fileID: 0}
      m_TileFlags: 1
      m_ColliderType: 1
  - first: {x: 3, y: 0, z: 0}
    second:
      m_TileIndex: 218
      m_TileSpriteIndex: 218
      m_TileMatrixIndex: 0
      m_TileColorIndex: 0
      m_ObjectToInstantiate: {fileID: 0}
      m_TileFlags: 1
      m_ColliderType: 1
  m_AnimatedTiles: {}
  m_TileAssetArray:
  - m_RefCount: 0
    m_Data: {fileID: 0}
  - m_RefCount: 0
    m_Data: {fileID: 0}
  - m_RefCount: 0
    m_Data: {fileID: 0}
  - m_RefCount: 0
    m_Data: {fileID: 0}
  - m_RefCount: 0
    m_Data: {fileID: 0}
  - m_RefCount: 0
    m_Data: {fileID: 0}
  - m_RefCount: 0
    m_Data: {fileID: 0}
  - m_RefCount: 0
    m_Data: {fileID: 0}
  - m_RefCount: 0
    m_Data: {fileID: 0}
  - m_RefCount: 0
    m_Data: {fileID: 0}
  - m_RefCount: 0
    m_Data: {fileID: 0}
  - m_RefCount: 1
    m_Data: {fileID: 11400000, guid: 2a1365ee35fa3c94cac579dc14636495, type: 2}
  - m_RefCount: 1
    m_Data: {fileID: 11400000, guid: 9095cba1cee2b9048835a4edf409d80c, type: 2}
  - m_RefCount: 1
    m_Data: {fileID: 11400000, guid: 2e80507f93932924db7cf09d2d600817, type: 2}
  - m_RefCount: 0
    m_Data: {fileID: 0}
  - m_RefCount: 1
    m_Data: {fileID: 11400000, guid: 8a4ed1a378bc3a54fb5e9bc059360efa, type: 2}
  - m_RefCount: 1
    m_Data: {fileID: 11400000, guid: a652d85b3aed61e4893a052ba2dd769b, type: 2}
  - m_RefCount: 1
    m_Data: {fileID: 11400000, guid: 727f3b70b49698748be7415741dd30a4, type: 2}
  - m_RefCount: 1
    m_Data: {fileID: 11400000, guid: 3dd5f343fd33a294989ff0a9b31ff0f0, type: 2}
  - m_RefCount: 1
    m_Data: {fileID: 11400000, guid: 4b2d1b21e403ed14fae8ae5f3136cb92, type: 2}
  - m_RefCount: 1
    m_Data: {fileID: 11400000, guid: 2d526fc214171c8498278d367dd63dd5, type: 2}
  - m_RefCount: 1
    m_Data: {fileID: 11400000, guid: 23566ca96c4ff704cb96a95c3e986f0b, type: 2}
  - m_RefCount: 1
    m_Data: {fileID: 11400000, guid: 8e200279f3720aa44974767870be6b61, type: 2}
  - m_RefCount: 1
    m_Data: {fileID: 11400000, guid: efd74ac37c131e444b5a5cb3b171f75e, type: 2}
  - m_RefCount: 1
    m_Data: {fileID: 11400000, guid: ac4face170a428d4ca932d1b3f120f76, type: 2}
  - m_RefCount: 1
    m_Data: {fileID: 11400000, guid: 88b868041f8229a4bbb1f000c8a2c228, type: 2}
  - m_RefCount: 1
    m_Data: {fileID: 11400000, guid: 5e77ea97f47799241a11fedb31b858b8, type: 2}
  - m_RefCount: 1
    m_Data: {fileID: 11400000, guid: 05caf10360f611840bdf2a6545464d75, type: 2}
  - m_RefCount: 1
    m_Data: {fileID: 11400000, guid: 4f0016c61ad55604aa984e073acefec5, type: 2}
  - m_RefCount: 1
    m_Data: {fileID: 11400000, guid: 82755fc866055ec4aaec859dcf2f785d, type: 2}
  - m_RefCount: 1
    m_Data: {fileID: 11400000, guid: 29e73e2c1b9e24c459a45de8d893518e, type: 2}
  - m_RefCount: 1
    m_Data: {fileID: 11400000, guid: 97cc4246038071840a5901459d290f83, type: 2}
  - m_RefCount: 1
    m_Data: {fileID: 11400000, guid: 2d91bc5136a45e844ba4feb0a42915f5, type: 2}
  - m_RefCount: 1
    m_Data: {fileID: 11400000, guid: fa70a878024a0ab4a987058762f976ee, type: 2}
  - m_RefCount: 1
    m_Data: {fileID: 11400000, guid: 46addb233411a944daa8487750084abd, type: 2}
  - m_RefCount: 1
    m_Data: {fileID: 11400000, guid: 70a10179fb4ad824ea80d259a500f12c, type: 2}
  - m_RefCount: 1
    m_Data: {fileID: 11400000, guid: 043dff20e0483ec42978f01ec08ca0db, type: 2}
  - m_RefCount: 1
    m_Data: {fileID: 11400000, guid: eea42c911b5366840928b1df0b075e25, type: 2}
  - m_RefCount: 1
    m_Data: {fileID: 11400000, guid: 53c4bc0ada0f9f646a60de2dd4fae4ce, type: 2}
  - m_RefCount: 1
    m_Data: {fileID: 11400000, guid: bc7893380519efb4b80863c1ae9084e6, type: 2}
  - m_RefCount: 1
    m_Data: {fileID: 11400000, guid: 5719beff6d0506041b72f550a416baba, type: 2}
  - m_RefCount: 1
    m_Data: {fileID: 11400000, guid: 4e91e2ab2232e364c8b819e90974f7fb, type: 2}
  - m_RefCount: 1
    m_Data: {fileID: 11400000, guid: 96541a70fba7af64396d35a6a416d13a, type: 2}
  - m_RefCount: 1
    m_Data: {fileID: 11400000, guid: 9daff9c4a8bf69f4ebe11aafcb543d5b, type: 2}
  - m_RefCount: 1
    m_Data: {fileID: 11400000, guid: 124c06a666ee2974aaba9528d49ee875, type: 2}
  - m_RefCount: 1
    m_Data: {fileID: 11400000, guid: c48d2696b95736c41adb2bd5c29481bd, type: 2}
  - m_RefCount: 1
    m_Data: {fileID: 11400000, guid: f808da92ba38eb64284e1c0c948f03f3, type: 2}
  - m_RefCount: 1
    m_Data: {fileID: 11400000, guid: 42c56780d47fe21458abeea4fc7c750b, type: 2}
  - m_RefCount: 1
    m_Data: {fileID: 11400000, guid: ab1078854490a5a489a1a400e8922647, type: 2}
  - m_RefCount: 1
    m_Data: {fileID: 11400000, guid: 8b3d91dacb617ff4189c797c28514333, type: 2}
  - m_RefCount: 1
    m_Data: {fileID: 11400000, guid: 037c17bdde644ef469365086eea80363, type: 2}
  - m_RefCount: 1
    m_Data: {fileID: 11400000, guid: a2879878b4fee664c8e852598b1b3a50, type: 2}
  - m_RefCount: 1
    m_Data: {fileID: 11400000, guid: ec0b6a9e6777ffa4186502695f3457b5, type: 2}
  - m_RefCount: 1
    m_Data: {fileID: 11400000, guid: 2a7b0e185e3ee444a9b78fe8a79e600a, type: 2}
  - m_RefCount: 1
    m_Data: {fileID: 11400000, guid: 3a448c9532ba70c43821fcc07c680c75, type: 2}
  - m_RefCount: 1
    m_Data: {fileID: 11400000, guid: 6d983fb6e6d8b7e4a8980fd074ddf842, type: 2}
  - m_RefCount: 1
    m_Data: {fileID: 11400000, guid: 642d539ce5bff5b4f90bfe27588d8f8c, type: 2}
  - m_RefCount: 1
    m_Data: {fileID: 11400000, guid: 96d528eabce9bdd438ecd8d3c973f289, type: 2}
  - m_RefCount: 1
    m_Data: {fileID: 11400000, guid: 90832142f1a88324f9f5a1f0500acdfe, type: 2}
  - m_RefCount: 1
    m_Data: {fileID: 11400000, guid: 9119a64108a3e59418da81fae6ea9c90, type: 2}
  - m_RefCount: 1
    m_Data: {fileID: 11400000, guid: 35445a2b3b78bca469ebcf1700289d1a, type: 2}
  - m_RefCount: 1
    m_Data: {fileID: 11400000, guid: eb5b08bb8c9b0d4408ddb30445cad16c, type: 2}
  - m_RefCount: 1
    m_Data: {fileID: 11400000, guid: 31b62babc3bc7bd46ba7ac730878d0ee, type: 2}
  - m_RefCount: 1
    m_Data: {fileID: 11400000, guid: 1810be00b366e9a43bdc59fad5f09fdd, type: 2}
  - m_RefCount: 1
    m_Data: {fileID: 11400000, guid: 82b6fbb1a4c6f794e9e394663ad56dba, type: 2}
  - m_RefCount: 1
    m_Data: {fileID: 11400000, guid: e1b6817a27446d6479c51cb87277de4a, type: 2}
  - m_RefCount: 1
    m_Data: {fileID: 11400000, guid: 8eb28405a796b9d4196ac3eaaa5c0faa, type: 2}
  - m_RefCount: 1
    m_Data: {fileID: 11400000, guid: d1f9befb410cf844fa88b68ab33479b8, type: 2}
  - m_RefCount: 1
    m_Data: {fileID: 11400000, guid: cbdd927683ee111408bbd7218600e662, type: 2}
  - m_RefCount: 1
    m_Data: {fileID: 11400000, guid: c872e78f6a60efb40bc49002d5996777, type: 2}
  - m_RefCount: 1
    m_Data: {fileID: 11400000, guid: 609f45611f5715a47a990f854e014afb, type: 2}
  - m_RefCount: 1
    m_Data: {fileID: 11400000, guid: 4d4d8870198fce341b64111ad08c9770, type: 2}
  - m_RefCount: 1
    m_Data: {fileID: 11400000, guid: 31d27ab13af5d2946812c5c386828d5a, type: 2}
  - m_RefCount: 1
    m_Data: {fileID: 11400000, guid: 0940f2e1f3e10a3449c773a7a5d1fb3d, type: 2}
  - m_RefCount: 1
    m_Data: {fileID: 11400000, guid: d3e73b6db1c3db840b8005e8d31bbcdb, type: 2}
  - m_RefCount: 1
    m_Data: {fileID: 11400000, guid: 5e888a51df120174e8dee8476b2e6fa4, type: 2}
  - m_RefCount: 1
    m_Data: {fileID: 11400000, guid: 896b63ca61feccc46b5b23ba9c7ce3f0, type: 2}
  - m_RefCount: 1
    m_Data: {fileID: 11400000, guid: cbe53ce706c43d0448aaac00b1621fee, type: 2}
  - m_RefCount: 1
    m_Data: {fileID: 11400000, guid: a8c8b1a16587f1c4b9f33a9170fe60a7, type: 2}
  - m_RefCount: 1
    m_Data: {fileID: 11400000, guid: 1bfdb1de6fbc9294395fc6e8091db991, type: 2}
  - m_RefCount: 1
    m_Data: {fileID: 11400000, guid: ef427365c1d8cdc4d9315682b4455d24, type: 2}
  - m_RefCount: 1
    m_Data: {fileID: 11400000, guid: cc39429cc59c60740a6f8cb3aaa69952, type: 2}
  - m_RefCount: 1
    m_Data: {fileID: 11400000, guid: 9a78545d4ff0bda4a9b727220d5cb1a9, type: 2}
  - m_RefCount: 1
    m_Data: {fileID: 11400000, guid: 9db5fb34b0775fb4e8018af00e14a6b9, type: 2}
  - m_RefCount: 1
    m_Data: {fileID: 11400000, guid: 4a378ffc1331490469e6ff1b378e867e, type: 2}
  - m_RefCount: 1
    m_Data: {fileID: 11400000, guid: 2b723ee3645c2164b817a95e98039538, type: 2}
  - m_RefCount: 1
    m_Data: {fileID: 11400000, guid: 85e118ebaddbf1941ad83fe1b8be5eee, type: 2}
  - m_RefCount: 1
    m_Data: {fileID: 11400000, guid: e1ba398a19e1e1c4aa9ea368839fa1ce, type: 2}
  - m_RefCount: 1
    m_Data: {fileID: 11400000, guid: 49d809f671570294cb794d470e8de571, type: 2}
  - m_RefCount: 1
    m_Data: {fileID: 11400000, guid: fd3d75d09998704408aeff99174deee9, type: 2}
  - m_RefCount: 1
    m_Data: {fileID: 11400000, guid: 36ae3135e9e87554491bfc0bc4565ea4, type: 2}
  - m_RefCount: 1
    m_Data: {fileID: 11400000, guid: 419f7148f4889b4479afec95a242bf7a, type: 2}
  - m_RefCount: 1
    m_Data: {fileID: 11400000, guid: e783105ae5a5c8c4a964f3ddb051a55a, type: 2}
  - m_RefCount: 1
    m_Data: {fileID: 11400000, guid: 9610667b463bc094c8be2e1d1302e369, type: 2}
  - m_RefCount: 1
    m_Data: {fileID: 11400000, guid: c3521271c53fb1c4ca9239bd9f5b7b1f, type: 2}
  - m_RefCount: 1
    m_Data: {fileID: 11400000, guid: 5c4e130bf1f16e447845cf7f4176f8f2, type: 2}
  - m_RefCount: 1
    m_Data: {fileID: 11400000, guid: 2235711a4d50688409f91e0e55fc7741, type: 2}
  - m_RefCount: 1
    m_Data: {fileID: 11400000, guid: 05d1cbe5c4894e44d9de097ea97eeed5, type: 2}
  - m_RefCount: 1
    m_Data: {fileID: 11400000, guid: 839840737cb688249843fe29cc1dc266, type: 2}
  - m_RefCount: 1
    m_Data: {fileID: 11400000, guid: 497922c65c64db74a90929e4aa1af765, type: 2}
  - m_RefCount: 1
    m_Data: {fileID: 11400000, guid: a06605aa5793b484996861d9d51d16db, type: 2}
  - m_RefCount: 1
    m_Data: {fileID: 11400000, guid: 339aff1b7d7e7a24c86f8c5a4234d2bc, type: 2}
  - m_RefCount: 1
    m_Data: {fileID: 11400000, guid: 42ffe2e75f05fe04e81ff1c8543c20e1, type: 2}
  - m_RefCount: 1
    m_Data: {fileID: 11400000, guid: a08be7d7a0b2bb94e9fd720cfe40700c, type: 2}
  - m_RefCount: 1
    m_Data: {fileID: 11400000, guid: f90cda18a4ca21c46a3cfa58c9de0ead, type: 2}
  - m_RefCount: 1
    m_Data: {fileID: 11400000, guid: 98cb115bb5bc3364995e09874acba11a, type: 2}
  - m_RefCount: 1
    m_Data: {fileID: 11400000, guid: 6ea36e3ad16fd2e44be11856b73a640a, type: 2}
  - m_RefCount: 1
    m_Data: {fileID: 11400000, guid: 9dbb52b14df50c247a03e03dcfc65786, type: 2}
  - m_RefCount: 1
    m_Data: {fileID: 11400000, guid: 5224d6c271adab7459a11536e34e8a13, type: 2}
  - m_RefCount: 1
    m_Data: {fileID: 11400000, guid: da92a0c06ed26024faedc1101448cf99, type: 2}
  - m_RefCount: 1
    m_Data: {fileID: 11400000, guid: e0633ef15f533ec44a6b2e8d820344cd, type: 2}
  - m_RefCount: 1
    m_Data: {fileID: 11400000, guid: 4e2f77f3221dc5343bd4dd902b7c9346, type: 2}
  - m_RefCount: 1
    m_Data: {fileID: 11400000, guid: 210278da1cb3af948ba940fa54e4627a, type: 2}
  - m_RefCount: 1
    m_Data: {fileID: 11400000, guid: 67d16a53a99d35344986927a8d93abba, type: 2}
  - m_RefCount: 1
    m_Data: {fileID: 11400000, guid: 1208f72e3d8a59c47ac1577140a74b78, type: 2}
  - m_RefCount: 1
    m_Data: {fileID: 11400000, guid: 8a674f6a8180f4846ab85bd6af7c41d4, type: 2}
  - m_RefCount: 1
    m_Data: {fileID: 11400000, guid: 6ad6722e6976563449708cdd30dc8f03, type: 2}
  - m_RefCount: 1
    m_Data: {fileID: 11400000, guid: ea553539d0e6e5446abee766a17c1455, type: 2}
  - m_RefCount: 1
    m_Data: {fileID: 11400000, guid: 85dfcd0bc706a02479dac18e284755d3, type: 2}
  - m_RefCount: 1
    m_Data: {fileID: 11400000, guid: 8489acda93f30df4ba2df717b1c2423b, type: 2}
  - m_RefCount: 1
    m_Data: {fileID: 11400000, guid: e43f328ffbed17a4996fbebad35335a4, type: 2}
  - m_RefCount: 1
    m_Data: {fileID: 11400000, guid: c9a6d5930c1af7a46b5e18fd52fab005, type: 2}
  - m_RefCount: 1
    m_Data: {fileID: 11400000, guid: 62c6df2e626ebdf4ca31c078c3357475, type: 2}
  - m_RefCount: 1
    m_Data: {fileID: 11400000, guid: 7a990b536225c5d479513397165b2317, type: 2}
  - m_RefCount: 1
    m_Data: {fileID: 11400000, guid: 96b809ed028b2244bb0185f222634b7e, type: 2}
  - m_RefCount: 1
    m_Data: {fileID: 11400000, guid: 816838f7d93dc3b48b68f39be2680709, type: 2}
  - m_RefCount: 1
    m_Data: {fileID: 11400000, guid: 84e13a0a7b60260439dbd6ba54039919, type: 2}
  - m_RefCount: 1
    m_Data: {fileID: 11400000, guid: b1b5d5595c956724999f826e21168574, type: 2}
  - m_RefCount: 1
    m_Data: {fileID: 11400000, guid: d755986ee975a3c4791d1f472c0731bd, type: 2}
  - m_RefCount: 1
    m_Data: {fileID: 11400000, guid: 8f071130e4bfdff4dbbcd2e9d9921a9c, type: 2}
  - m_RefCount: 1
    m_Data: {fileID: 11400000, guid: fa67706242c3da141bd4cb05bc1b1171, type: 2}
  - m_RefCount: 1
    m_Data: {fileID: 11400000, guid: 57f59a1a44b75ff41884aac23067c827, type: 2}
  - m_RefCount: 1
    m_Data: {fileID: 11400000, guid: 09f79a375b1d88c4381a9ad46ceb79af, type: 2}
  - m_RefCount: 1
    m_Data: {fileID: 11400000, guid: f8bf9af645304c249976ad9ec308b323, type: 2}
  - m_RefCount: 1
    m_Data: {fileID: 11400000, guid: fe7ac2130af548b4285d7c76dc13802a, type: 2}
  - m_RefCount: 1
    m_Data: {fileID: 11400000, guid: 765f5c785afeb5540adf9422300fca0f, type: 2}
  - m_RefCount: 1
    m_Data: {fileID: 11400000, guid: cc59b7376dd80754786980bf72f94582, type: 2}
  - m_RefCount: 1
    m_Data: {fileID: 11400000, guid: e619d339fe02bbc4480c32e5d5104643, type: 2}
  - m_RefCount: 1
    m_Data: {fileID: 11400000, guid: 009c001d9548c6544b6eb81435516f4d, type: 2}
  - m_RefCount: 1
    m_Data: {fileID: 11400000, guid: 61f9975c0c4e37f479a2b7c537c51145, type: 2}
  - m_RefCount: 1
    m_Data: {fileID: 11400000, guid: 16ca6299b9e83b140bb59066d3baa9ef, type: 2}
  - m_RefCount: 1
    m_Data: {fileID: 11400000, guid: ce474e5b62688474b9863f78f417bebf, type: 2}
  - m_RefCount: 1
    m_Data: {fileID: 11400000, guid: 04615c50786495d4cbe13b6619f5f6fc, type: 2}
  - m_RefCount: 1
    m_Data: {fileID: 11400000, guid: c9ab22b5c8e137b469ca2791f961ee43, type: 2}
  - m_RefCount: 1
    m_Data: {fileID: 11400000, guid: c44b69f6bd569d84ea2bfd024880f600, type: 2}
  - m_RefCount: 1
    m_Data: {fileID: 11400000, guid: 472991342358ecd46b3294aabb807896, type: 2}
  - m_RefCount: 1
    m_Data: {fileID: 11400000, guid: 41078886fa0ff0a47bc2c85dc5cc5a8d, type: 2}
  - m_RefCount: 1
    m_Data: {fileID: 11400000, guid: 7a31281cec1b70a459a5c566101ec548, type: 2}
  - m_RefCount: 1
    m_Data: {fileID: 11400000, guid: 1dae9a5149deac54f8a652269f5d1d44, type: 2}
  - m_RefCount: 1
    m_Data: {fileID: 11400000, guid: 986c8cf846742424c806e21d5287b407, type: 2}
  - m_RefCount: 1
    m_Data: {fileID: 11400000, guid: 119295f511167fb46bc126f7142d2dec, type: 2}
  - m_RefCount: 1
    m_Data: {fileID: 11400000, guid: 29729dc80c4069e48a44a2a5458ec3cf, type: 2}
  - m_RefCount: 1
    m_Data: {fileID: 11400000, guid: 37bdf69bd45581a4388884bd969f887b, type: 2}
  - m_RefCount: 1
    m_Data: {fileID: 11400000, guid: fb17c034484519c48988215dfc05da93, type: 2}
  - m_RefCount: 1
    m_Data: {fileID: 11400000, guid: e2c0db814b8b3d54d9766501cd1ab012, type: 2}
  - m_RefCount: 1
    m_Data: {fileID: 11400000, guid: 6a06e7a074afaf145bd8b0869c69d02b, type: 2}
  - m_RefCount: 1
    m_Data: {fileID: 11400000, guid: aac52f8f1ce45b14f9d725d6c512e1b9, type: 2}
  - m_RefCount: 1
    m_Data: {fileID: 11400000, guid: 85bb7a9d28d437441b049dba723e3e4e, type: 2}
  - m_RefCount: 1
    m_Data: {fileID: 11400000, guid: a8013e4867017c24a93d0e910019d30c, type: 2}
  - m_RefCount: 1
    m_Data: {fileID: 11400000, guid: f0c806ffb6beb834cab40cedf6105743, type: 2}
  - m_RefCount: 1
    m_Data: {fileID: 11400000, guid: 64f9429cf552c0a4cb887fe7ec324039, type: 2}
  - m_RefCount: 1
    m_Data: {fileID: 11400000, guid: 59057634139d4f04cb8d7bb8be1dab56, type: 2}
  - m_RefCount: 1
    m_Data: {fileID: 11400000, guid: 00f4153299347b9479e343262c31ec39, type: 2}
  - m_RefCount: 1
    m_Data: {fileID: 11400000, guid: 62ac10c4054db5148932071ed0c8c1d0, type: 2}
  - m_RefCount: 1
    m_Data: {fileID: 11400000, guid: f7558dd932c1c7c4da3cbc87852f2e78, type: 2}
  - m_RefCount: 1
    m_Data: {fileID: 11400000, guid: 2143d4a6a1547124b9c063e6daea467e, type: 2}
  - m_RefCount: 1
    m_Data: {fileID: 11400000, guid: ac14edc3476f1824a82d2257f0fc9fa4, type: 2}
  - m_RefCount: 1
    m_Data: {fileID: 11400000, guid: d99580979b87e0842b11f57a5eb49095, type: 2}
  - m_RefCount: 1
    m_Data: {fileID: 11400000, guid: 5ec05320f6752b848bc8186db850237a, type: 2}
  - m_RefCount: 1
    m_Data: {fileID: 11400000, guid: 576df8f40e530a34997c50a85b7c8b4e, type: 2}
  - m_RefCount: 1
    m_Data: {fileID: 11400000, guid: 68cb6524514cb88418c4d146fee59656, type: 2}
  - m_RefCount: 1
    m_Data: {fileID: 11400000, guid: 584828535c4722542a7838b957ffb06b, type: 2}
  - m_RefCount: 1
    m_Data: {fileID: 11400000, guid: dbd38e6e6a37630438184f9f843bbd0b, type: 2}
  - m_RefCount: 1
    m_Data: {fileID: 11400000, guid: 91654cd89acc3784e800331f3450cfc6, type: 2}
  - m_RefCount: 1
    m_Data: {fileID: 11400000, guid: 4dd033a79e1719c4e9841498bddee552, type: 2}
  - m_RefCount: 1
    m_Data: {fileID: 11400000, guid: d6f8b45b67d83b34d86c84a136cc2073, type: 2}
  - m_RefCount: 1
    m_Data: {fileID: 11400000, guid: 8a9b889a0629514459a3e9bd5858aeb5, type: 2}
  - m_RefCount: 1
    m_Data: {fileID: 11400000, guid: f2477e0a4e62a1f4988f4684ddf6628f, type: 2}
  - m_RefCount: 1
    m_Data: {fileID: 11400000, guid: 7f77de677d8021749bc039f8303873a1, type: 2}
  - m_RefCount: 1
    m_Data: {fileID: 11400000, guid: c039ef64b810b3c448ab561fdf59b66e, type: 2}
  - m_RefCount: 1
    m_Data: {fileID: 11400000, guid: 7db50a92681dc4e4caee82d103b4e5f4, type: 2}
  - m_RefCount: 1
    m_Data: {fileID: 11400000, guid: ca627401a57b72a4c85ca4186976daa6, type: 2}
  - m_RefCount: 1
    m_Data: {fileID: 11400000, guid: 112df430d36a92e42a502b96f2c00b9c, type: 2}
  - m_RefCount: 1
    m_Data: {fileID: 11400000, guid: b1ebc9d1a74105a468e3b74939c0bdc9, type: 2}
  - m_RefCount: 1
    m_Data: {fileID: 11400000, guid: 30d9db09407080e499566bee54157a5d, type: 2}
  - m_RefCount: 1
    m_Data: {fileID: 11400000, guid: c3006116e4fb897498256b1b9aa5ccf2, type: 2}
  - m_RefCount: 1
    m_Data: {fileID: 11400000, guid: 328cdaa0533dc9240829cecbf69eb8db, type: 2}
  - m_RefCount: 1
    m_Data: {fileID: 11400000, guid: 21ac005eced26824dab9854bcdda6ce5, type: 2}
  - m_RefCount: 1
    m_Data: {fileID: 11400000, guid: ecbef614ea0875f40b316a997b2aac4f, type: 2}
  - m_RefCount: 1
    m_Data: {fileID: 11400000, guid: eec53d8d456860d4cad0c48d19887b58, type: 2}
  - m_RefCount: 1
    m_Data: {fileID: 11400000, guid: 0d4ab4ea15f3fcb4d958137cc0863026, type: 2}
  - m_RefCount: 1
    m_Data: {fileID: 11400000, guid: 8b03705840dfb2f4d8f78f41375dd45f, type: 2}
  - m_RefCount: 1
    m_Data: {fileID: 11400000, guid: 0e84b2722b84cd44d9dccab1716663d0, type: 2}
  - m_RefCount: 1
    m_Data: {fileID: 11400000, guid: 223d5d37bf66aa547b241e7d4c4733b2, type: 2}
  - m_RefCount: 1
    m_Data: {fileID: 11400000, guid: 736c38abcf6742b4886e930859d96272, type: 2}
  - m_RefCount: 1
    m_Data: {fileID: 11400000, guid: 81b0ff79ed678ee4a946077824d2d29d, type: 2}
  - m_RefCount: 1
    m_Data: {fileID: 11400000, guid: 1d05e9a91eafb30449cb96cc43daf2ae, type: 2}
  - m_RefCount: 1
    m_Data: {fileID: 11400000, guid: 3c62bff0c0330da47868b407497ef3e9, type: 2}
  - m_RefCount: 1
    m_Data: {fileID: 11400000, guid: 40197b8fb0ac497428779fdba38ea50e, type: 2}
  - m_RefCount: 1
    m_Data: {fileID: 11400000, guid: aea342b417e378c458b22cf2ce8448b7, type: 2}
  - m_RefCount: 1
    m_Data: {fileID: 11400000, guid: f8e82d83be650174196a43d31459455e, type: 2}
  - m_RefCount: 1
    m_Data: {fileID: 11400000, guid: 923c182b8d9f556408cae05de74ee0a5, type: 2}
  - m_RefCount: 1
    m_Data: {fileID: 11400000, guid: 09b6747198977ce4ba2d3901a77fcd58, type: 2}
  - m_RefCount: 1
    m_Data: {fileID: 11400000, guid: 71682ec8b778e1b4d80374fc8778481b, type: 2}
  - m_RefCount: 1
    m_Data: {fileID: 11400000, guid: 5c69007a06cd5a7439cd59bc7dbc2b3a, type: 2}
  - m_RefCount: 1
    m_Data: {fileID: 11400000, guid: 26096c7a156bf254e9c92411bc9b3148, type: 2}
  - m_RefCount: 1
    m_Data: {fileID: 11400000, guid: 77aca9ab33fce294aa3a176ed55ecfe4, type: 2}
  - m_RefCount: 1
    m_Data: {fileID: 11400000, guid: 3b3ae96c454605c47aa957f5b1fbcacf, type: 2}
  - m_RefCount: 1
    m_Data: {fileID: 11400000, guid: e4c599d38ad8fd34ea8d5d019bd02f78, type: 2}
  - m_RefCount: 1
    m_Data: {fileID: 11400000, guid: bd0a92b12f2c1b04e8bd827fa1a2767f, type: 2}
  - m_RefCount: 1
    m_Data: {fileID: 11400000, guid: 94e8ee21d1d740845acc9897a01fd0bf, type: 2}
  - m_RefCount: 1
    m_Data: {fileID: 11400000, guid: 3d09f62871d3fd24396880dfc68e3d42, type: 2}
  - m_RefCount: 1
    m_Data: {fileID: 11400000, guid: c40863ab7da676c4c93dd9809240f4cf, type: 2}
  - m_RefCount: 1
    m_Data: {fileID: 11400000, guid: cdb4266f770b19847800a8c5adc07abd, type: 2}
  - m_RefCount: 1
    m_Data: {fileID: 11400000, guid: abccd8caa34727c4d842a11c571e666d, type: 2}
  - m_RefCount: 1
    m_Data: {fileID: 11400000, guid: 411ff3c1b7505154c8abc0847cb95241, type: 2}
  - m_RefCount: 1
    m_Data: {fileID: 11400000, guid: 6d374670bd40bbc45bb8a33b91422e0e, type: 2}
  - m_RefCount: 1
    m_Data: {fileID: 11400000, guid: d9d963db6214cec43bd58eeab00b8841, type: 2}
  - m_RefCount: 1
    m_Data: {fileID: 11400000, guid: c16c95257cff0f1489d48f24ac35ff66, type: 2}
  - m_RefCount: 1
    m_Data: {fileID: 11400000, guid: 77e509e583d21f54187b424df5e09904, type: 2}
  - m_RefCount: 1
    m_Data: {fileID: 11400000, guid: 317fbd6b33680234d93f5a6c2e0e3e0f, type: 2}
  - m_RefCount: 1
    m_Data: {fileID: 11400000, guid: bbf33ee0806539b4aaf00992c9950f1b, type: 2}
  - m_RefCount: 1
    m_Data: {fileID: 11400000, guid: 979b65ad4ffc5194aa37acd12ab98b97, type: 2}
  - m_RefCount: 1
    m_Data: {fileID: 11400000, guid: cf6a9a1b8569d0743a3d8f749e435c7a, type: 2}
  - m_RefCount: 1
    m_Data: {fileID: 11400000, guid: 690e239c21a32c646bb146e630188ec2, type: 2}
  - m_RefCount: 1
    m_Data: {fileID: 11400000, guid: a135d3f224a4dfa4e8294ad63f407343, type: 2}
  m_TileSpriteArray:
  - m_RefCount: 0
    m_Data: {fileID: 0}
  - m_RefCount: 0
    m_Data: {fileID: 0}
  - m_RefCount: 0
    m_Data: {fileID: 0}
  - m_RefCount: 0
    m_Data: {fileID: 0}
  - m_RefCount: 0
    m_Data: {fileID: 0}
  - m_RefCount: 0
    m_Data: {fileID: 0}
  - m_RefCount: 0
    m_Data: {fileID: 0}
  - m_RefCount: 0
    m_Data: {fileID: 0}
  - m_RefCount: 0
    m_Data: {fileID: 0}
  - m_RefCount: 0
    m_Data: {fileID: 0}
  - m_RefCount: 0
    m_Data: {fileID: 0}
  - m_RefCount: 0
    m_Data: {fileID: 0}
  - m_RefCount: 1
    m_Data: {fileID: 21300426, guid: 5440c4a827cc78c4d968ed14042cbf81, type: 3}
  - m_RefCount: 1
    m_Data: {fileID: 21300424, guid: 5440c4a827cc78c4d968ed14042cbf81, type: 3}
  - m_RefCount: 1
    m_Data: {fileID: 21300272, guid: 5440c4a827cc78c4d968ed14042cbf81, type: 3}
  - m_RefCount: 1
    m_Data: {fileID: 21300216, guid: 5440c4a827cc78c4d968ed14042cbf81, type: 3}
  - m_RefCount: 1
    m_Data: {fileID: 21300194, guid: 5440c4a827cc78c4d968ed14042cbf81, type: 3}
  - m_RefCount: 1
    m_Data: {fileID: 21300142, guid: 5440c4a827cc78c4d968ed14042cbf81, type: 3}
  - m_RefCount: 1
    m_Data: {fileID: 21300110, guid: 5440c4a827cc78c4d968ed14042cbf81, type: 3}
  - m_RefCount: 1
    m_Data: {fileID: 21300088, guid: 5440c4a827cc78c4d968ed14042cbf81, type: 3}
  - m_RefCount: 1
    m_Data: {fileID: 21300040, guid: 5440c4a827cc78c4d968ed14042cbf81, type: 3}
  - m_RefCount: 1
    m_Data: {fileID: 21300270, guid: 5440c4a827cc78c4d968ed14042cbf81, type: 3}
  - m_RefCount: 1
    m_Data: {fileID: 21300248, guid: 5440c4a827cc78c4d968ed14042cbf81, type: 3}
  - m_RefCount: 1
    m_Data: {fileID: 21300036, guid: 5440c4a827cc78c4d968ed14042cbf81, type: 3}
  - m_RefCount: 1
    m_Data: {fileID: 21300042, guid: 5440c4a827cc78c4d968ed14042cbf81, type: 3}
  - m_RefCount: 1
    m_Data: {fileID: 21300044, guid: 5440c4a827cc78c4d968ed14042cbf81, type: 3}
  - m_RefCount: 1
    m_Data: {fileID: 21300046, guid: 5440c4a827cc78c4d968ed14042cbf81, type: 3}
  - m_RefCount: 1
    m_Data: {fileID: 21300048, guid: 5440c4a827cc78c4d968ed14042cbf81, type: 3}
  - m_RefCount: 1
    m_Data: {fileID: 21300050, guid: 5440c4a827cc78c4d968ed14042cbf81, type: 3}
  - m_RefCount: 1
    m_Data: {fileID: 21300038, guid: 5440c4a827cc78c4d968ed14042cbf81, type: 3}
  - m_RefCount: 1
    m_Data: {fileID: 21300034, guid: 5440c4a827cc78c4d968ed14042cbf81, type: 3}
  - m_RefCount: 1
    m_Data: {fileID: 21300032, guid: 5440c4a827cc78c4d968ed14042cbf81, type: 3}
  - m_RefCount: 1
    m_Data: {fileID: 21300030, guid: 5440c4a827cc78c4d968ed14042cbf81, type: 3}
  - m_RefCount: 1
    m_Data: {fileID: 21300028, guid: 5440c4a827cc78c4d968ed14042cbf81, type: 3}
  - m_RefCount: 1
    m_Data: {fileID: 21300026, guid: 5440c4a827cc78c4d968ed14042cbf81, type: 3}
  - m_RefCount: 1
    m_Data: {fileID: 21300024, guid: 5440c4a827cc78c4d968ed14042cbf81, type: 3}
  - m_RefCount: 1
    m_Data: {fileID: 21300022, guid: 5440c4a827cc78c4d968ed14042cbf81, type: 3}
  - m_RefCount: 1
    m_Data: {fileID: 21300020, guid: 5440c4a827cc78c4d968ed14042cbf81, type: 3}
  - m_RefCount: 1
    m_Data: {fileID: 21300018, guid: 5440c4a827cc78c4d968ed14042cbf81, type: 3}
  - m_RefCount: 1
    m_Data: {fileID: 21300072, guid: 5440c4a827cc78c4d968ed14042cbf81, type: 3}
  - m_RefCount: 1
    m_Data: {fileID: 21300074, guid: 5440c4a827cc78c4d968ed14042cbf81, type: 3}
  - m_RefCount: 1
    m_Data: {fileID: 21300076, guid: 5440c4a827cc78c4d968ed14042cbf81, type: 3}
  - m_RefCount: 1
    m_Data: {fileID: 21300078, guid: 5440c4a827cc78c4d968ed14042cbf81, type: 3}
  - m_RefCount: 1
    m_Data: {fileID: 21300080, guid: 5440c4a827cc78c4d968ed14042cbf81, type: 3}
  - m_RefCount: 1
    m_Data: {fileID: 21300070, guid: 5440c4a827cc78c4d968ed14042cbf81, type: 3}
  - m_RefCount: 1
    m_Data: {fileID: 21300090, guid: 5440c4a827cc78c4d968ed14042cbf81, type: 3}
  - m_RefCount: 1
    m_Data: {fileID: 21300092, guid: 5440c4a827cc78c4d968ed14042cbf81, type: 3}
  - m_RefCount: 1
    m_Data: {fileID: 21300082, guid: 5440c4a827cc78c4d968ed14042cbf81, type: 3}
  - m_RefCount: 1
    m_Data: {fileID: 21300084, guid: 5440c4a827cc78c4d968ed14042cbf81, type: 3}
  - m_RefCount: 1
    m_Data: {fileID: 21300086, guid: 5440c4a827cc78c4d968ed14042cbf81, type: 3}
  - m_RefCount: 1
    m_Data: {fileID: 21300380, guid: 5440c4a827cc78c4d968ed14042cbf81, type: 3}
  - m_RefCount: 1
    m_Data: {fileID: 21300360, guid: 5440c4a827cc78c4d968ed14042cbf81, type: 3}
  - m_RefCount: 1
    m_Data: {fileID: 21300358, guid: 5440c4a827cc78c4d968ed14042cbf81, type: 3}
  - m_RefCount: 1
    m_Data: {fileID: 21300094, guid: 5440c4a827cc78c4d968ed14042cbf81, type: 3}
  - m_RefCount: 1
    m_Data: {fileID: 21300096, guid: 5440c4a827cc78c4d968ed14042cbf81, type: 3}
  - m_RefCount: 1
    m_Data: {fileID: 21300068, guid: 5440c4a827cc78c4d968ed14042cbf81, type: 3}
  - m_RefCount: 1
    m_Data: {fileID: 21300066, guid: 5440c4a827cc78c4d968ed14042cbf81, type: 3}
  - m_RefCount: 1
    m_Data: {fileID: 21300064, guid: 5440c4a827cc78c4d968ed14042cbf81, type: 3}
  - m_RefCount: 1
    m_Data: {fileID: 21300062, guid: 5440c4a827cc78c4d968ed14042cbf81, type: 3}
  - m_RefCount: 1
    m_Data: {fileID: 21300060, guid: 5440c4a827cc78c4d968ed14042cbf81, type: 3}
  - m_RefCount: 1
    m_Data: {fileID: 21300058, guid: 5440c4a827cc78c4d968ed14042cbf81, type: 3}
  - m_RefCount: 1
    m_Data: {fileID: 21300056, guid: 5440c4a827cc78c4d968ed14042cbf81, type: 3}
  - m_RefCount: 1
    m_Data: {fileID: 21300054, guid: 5440c4a827cc78c4d968ed14042cbf81, type: 3}
  - m_RefCount: 1
    m_Data: {fileID: 21300052, guid: 5440c4a827cc78c4d968ed14042cbf81, type: 3}
  - m_RefCount: 1
    m_Data: {fileID: 21300340, guid: 5440c4a827cc78c4d968ed14042cbf81, type: 3}
  - m_RefCount: 1
    m_Data: {fileID: 21300116, guid: 5440c4a827cc78c4d968ed14042cbf81, type: 3}
  - m_RefCount: 1
    m_Data: {fileID: 21300118, guid: 5440c4a827cc78c4d968ed14042cbf81, type: 3}
  - m_RefCount: 1
    m_Data: {fileID: 21300120, guid: 5440c4a827cc78c4d968ed14042cbf81, type: 3}
  - m_RefCount: 1
    m_Data: {fileID: 21300122, guid: 5440c4a827cc78c4d968ed14042cbf81, type: 3}
  - m_RefCount: 1
    m_Data: {fileID: 21300124, guid: 5440c4a827cc78c4d968ed14042cbf81, type: 3}
  - m_RefCount: 1
    m_Data: {fileID: 21300126, guid: 5440c4a827cc78c4d968ed14042cbf81, type: 3}
  - m_RefCount: 1
    m_Data: {fileID: 21300114, guid: 5440c4a827cc78c4d968ed14042cbf81, type: 3}
  - m_RefCount: 1
    m_Data: {fileID: 21300144, guid: 5440c4a827cc78c4d968ed14042cbf81, type: 3}
  - m_RefCount: 1
    m_Data: {fileID: 21300146, guid: 5440c4a827cc78c4d968ed14042cbf81, type: 3}
  - m_RefCount: 1
    m_Data: {fileID: 21300128, guid: 5440c4a827cc78c4d968ed14042cbf81, type: 3}
  - m_RefCount: 1
    m_Data: {fileID: 21300130, guid: 5440c4a827cc78c4d968ed14042cbf81, type: 3}
  - m_RefCount: 1
    m_Data: {fileID: 21300132, guid: 5440c4a827cc78c4d968ed14042cbf81, type: 3}
  - m_RefCount: 1
    m_Data: {fileID: 21300134, guid: 5440c4a827cc78c4d968ed14042cbf81, type: 3}
  - m_RefCount: 1
    m_Data: {fileID: 21300136, guid: 5440c4a827cc78c4d968ed14042cbf81, type: 3}
  - m_RefCount: 1
    m_Data: {fileID: 21300138, guid: 5440c4a827cc78c4d968ed14042cbf81, type: 3}
  - m_RefCount: 1
    m_Data: {fileID: 21300140, guid: 5440c4a827cc78c4d968ed14042cbf81, type: 3}
  - m_RefCount: 1
    m_Data: {fileID: 21300320, guid: 5440c4a827cc78c4d968ed14042cbf81, type: 3}
  - m_RefCount: 1
    m_Data: {fileID: 21300112, guid: 5440c4a827cc78c4d968ed14042cbf81, type: 3}
  - m_RefCount: 1
    m_Data: {fileID: 21300108, guid: 5440c4a827cc78c4d968ed14042cbf81, type: 3}
  - m_RefCount: 1
    m_Data: {fileID: 21300106, guid: 5440c4a827cc78c4d968ed14042cbf81, type: 3}
  - m_RefCount: 1
    m_Data: {fileID: 21300104, guid: 5440c4a827cc78c4d968ed14042cbf81, type: 3}
  - m_RefCount: 1
    m_Data: {fileID: 21300102, guid: 5440c4a827cc78c4d968ed14042cbf81, type: 3}
  - m_RefCount: 1
    m_Data: {fileID: 21300100, guid: 5440c4a827cc78c4d968ed14042cbf81, type: 3}
  - m_RefCount: 1
    m_Data: {fileID: 21300098, guid: 5440c4a827cc78c4d968ed14042cbf81, type: 3}
  - m_RefCount: 1
    m_Data: {fileID: 21300318, guid: 5440c4a827cc78c4d968ed14042cbf81, type: 3}
  - m_RefCount: 1
    m_Data: {fileID: 21300316, guid: 5440c4a827cc78c4d968ed14042cbf81, type: 3}
  - m_RefCount: 1
    m_Data: {fileID: 21300162, guid: 5440c4a827cc78c4d968ed14042cbf81, type: 3}
  - m_RefCount: 1
    m_Data: {fileID: 21300164, guid: 5440c4a827cc78c4d968ed14042cbf81, type: 3}
  - m_RefCount: 1
    m_Data: {fileID: 21300166, guid: 5440c4a827cc78c4d968ed14042cbf81, type: 3}
  - m_RefCount: 1
    m_Data: {fileID: 21300168, guid: 5440c4a827cc78c4d968ed14042cbf81, type: 3}
  - m_RefCount: 1
    m_Data: {fileID: 21300170, guid: 5440c4a827cc78c4d968ed14042cbf81, type: 3}
  - m_RefCount: 1
    m_Data: {fileID: 21300172, guid: 5440c4a827cc78c4d968ed14042cbf81, type: 3}
  - m_RefCount: 1
    m_Data: {fileID: 21300160, guid: 5440c4a827cc78c4d968ed14042cbf81, type: 3}
  - m_RefCount: 1
    m_Data: {fileID: 21300196, guid: 5440c4a827cc78c4d968ed14042cbf81, type: 3}
  - m_RefCount: 1
    m_Data: {fileID: 21300198, guid: 5440c4a827cc78c4d968ed14042cbf81, type: 3}
  - m_RefCount: 1
    m_Data: {fileID: 21300174, guid: 5440c4a827cc78c4d968ed14042cbf81, type: 3}
  - m_RefCount: 1
    m_Data: {fileID: 21300176, guid: 5440c4a827cc78c4d968ed14042cbf81, type: 3}
  - m_RefCount: 1
    m_Data: {fileID: 21300178, guid: 5440c4a827cc78c4d968ed14042cbf81, type: 3}
  - m_RefCount: 1
    m_Data: {fileID: 21300180, guid: 5440c4a827cc78c4d968ed14042cbf81, type: 3}
  - m_RefCount: 1
    m_Data: {fileID: 21300182, guid: 5440c4a827cc78c4d968ed14042cbf81, type: 3}
  - m_RefCount: 1
    m_Data: {fileID: 21300184, guid: 5440c4a827cc78c4d968ed14042cbf81, type: 3}
  - m_RefCount: 1
    m_Data: {fileID: 21300186, guid: 5440c4a827cc78c4d968ed14042cbf81, type: 3}
  - m_RefCount: 1
    m_Data: {fileID: 21300188, guid: 5440c4a827cc78c4d968ed14042cbf81, type: 3}
  - m_RefCount: 1
    m_Data: {fileID: 21300158, guid: 5440c4a827cc78c4d968ed14042cbf81, type: 3}
  - m_RefCount: 1
    m_Data: {fileID: 21300156, guid: 5440c4a827cc78c4d968ed14042cbf81, type: 3}
  - m_RefCount: 1
    m_Data: {fileID: 21300154, guid: 5440c4a827cc78c4d968ed14042cbf81, type: 3}
  - m_RefCount: 1
    m_Data: {fileID: 21300152, guid: 5440c4a827cc78c4d968ed14042cbf81, type: 3}
  - m_RefCount: 1
    m_Data: {fileID: 21300150, guid: 5440c4a827cc78c4d968ed14042cbf81, type: 3}
  - m_RefCount: 1
    m_Data: {fileID: 21300148, guid: 5440c4a827cc78c4d968ed14042cbf81, type: 3}
  - m_RefCount: 1
    m_Data: {fileID: 21300314, guid: 5440c4a827cc78c4d968ed14042cbf81, type: 3}
  - m_RefCount: 1
    m_Data: {fileID: 21300302, guid: 5440c4a827cc78c4d968ed14042cbf81, type: 3}
  - m_RefCount: 1
    m_Data: {fileID: 21300282, guid: 5440c4a827cc78c4d968ed14042cbf81, type: 3}
  - m_RefCount: 1
    m_Data: {fileID: 21300206, guid: 5440c4a827cc78c4d968ed14042cbf81, type: 3}
  - m_RefCount: 1
    m_Data: {fileID: 21300208, guid: 5440c4a827cc78c4d968ed14042cbf81, type: 3}
  - m_RefCount: 1
    m_Data: {fileID: 21300210, guid: 5440c4a827cc78c4d968ed14042cbf81, type: 3}
  - m_RefCount: 1
    m_Data: {fileID: 21300212, guid: 5440c4a827cc78c4d968ed14042cbf81, type: 3}
  - m_RefCount: 1
    m_Data: {fileID: 21300214, guid: 5440c4a827cc78c4d968ed14042cbf81, type: 3}
  - m_RefCount: 1
    m_Data: {fileID: 21300242, guid: 5440c4a827cc78c4d968ed14042cbf81, type: 3}
  - m_RefCount: 1
    m_Data: {fileID: 21300218, guid: 5440c4a827cc78c4d968ed14042cbf81, type: 3}
  - m_RefCount: 1
    m_Data: {fileID: 21300204, guid: 5440c4a827cc78c4d968ed14042cbf81, type: 3}
  - m_RefCount: 1
    m_Data: {fileID: 21300250, guid: 5440c4a827cc78c4d968ed14042cbf81, type: 3}
  - m_RefCount: 1
    m_Data: {fileID: 21300252, guid: 5440c4a827cc78c4d968ed14042cbf81, type: 3}
  - m_RefCount: 1
    m_Data: {fileID: 21300220, guid: 5440c4a827cc78c4d968ed14042cbf81, type: 3}
  - m_RefCount: 1
    m_Data: {fileID: 21300222, guid: 5440c4a827cc78c4d968ed14042cbf81, type: 3}
  - m_RefCount: 1
    m_Data: {fileID: 21300224, guid: 5440c4a827cc78c4d968ed14042cbf81, type: 3}
  - m_RefCount: 1
    m_Data: {fileID: 21300226, guid: 5440c4a827cc78c4d968ed14042cbf81, type: 3}
  - m_RefCount: 1
    m_Data: {fileID: 21300228, guid: 5440c4a827cc78c4d968ed14042cbf81, type: 3}
  - m_RefCount: 1
    m_Data: {fileID: 21300230, guid: 5440c4a827cc78c4d968ed14042cbf81, type: 3}
  - m_RefCount: 1
    m_Data: {fileID: 21300232, guid: 5440c4a827cc78c4d968ed14042cbf81, type: 3}
  - m_RefCount: 1
    m_Data: {fileID: 21300234, guid: 5440c4a827cc78c4d968ed14042cbf81, type: 3}
  - m_RefCount: 1
    m_Data: {fileID: 21300202, guid: 5440c4a827cc78c4d968ed14042cbf81, type: 3}
  - m_RefCount: 1
    m_Data: {fileID: 21300200, guid: 5440c4a827cc78c4d968ed14042cbf81, type: 3}
  - m_RefCount: 1
    m_Data: {fileID: 21300192, guid: 5440c4a827cc78c4d968ed14042cbf81, type: 3}
  - m_RefCount: 1
    m_Data: {fileID: 21300190, guid: 5440c4a827cc78c4d968ed14042cbf81, type: 3}
  - m_RefCount: 1
    m_Data: {fileID: 21300240, guid: 5440c4a827cc78c4d968ed14042cbf81, type: 3}
  - m_RefCount: 1
    m_Data: {fileID: 21300244, guid: 5440c4a827cc78c4d968ed14042cbf81, type: 3}
  - m_RefCount: 1
    m_Data: {fileID: 21300246, guid: 5440c4a827cc78c4d968ed14042cbf81, type: 3}
  - m_RefCount: 1
    m_Data: {fileID: 21300280, guid: 5440c4a827cc78c4d968ed14042cbf81, type: 3}
  - m_RefCount: 1
    m_Data: {fileID: 21300278, guid: 5440c4a827cc78c4d968ed14042cbf81, type: 3}
  - m_RefCount: 1
    m_Data: {fileID: 21300262, guid: 5440c4a827cc78c4d968ed14042cbf81, type: 3}
  - m_RefCount: 1
    m_Data: {fileID: 21300254, guid: 5440c4a827cc78c4d968ed14042cbf81, type: 3}
  - m_RefCount: 1
    m_Data: {fileID: 21300256, guid: 5440c4a827cc78c4d968ed14042cbf81, type: 3}
  - m_RefCount: 1
    m_Data: {fileID: 21300258, guid: 5440c4a827cc78c4d968ed14042cbf81, type: 3}
  - m_RefCount: 1
    m_Data: {fileID: 21300260, guid: 5440c4a827cc78c4d968ed14042cbf81, type: 3}
  - m_RefCount: 1
    m_Data: {fileID: 21300264, guid: 5440c4a827cc78c4d968ed14042cbf81, type: 3}
  - m_RefCount: 1
    m_Data: {fileID: 21300266, guid: 5440c4a827cc78c4d968ed14042cbf81, type: 3}
  - m_RefCount: 1
    m_Data: {fileID: 21300268, guid: 5440c4a827cc78c4d968ed14042cbf81, type: 3}
  - m_RefCount: 1
    m_Data: {fileID: 21300276, guid: 5440c4a827cc78c4d968ed14042cbf81, type: 3}
  - m_RefCount: 1
    m_Data: {fileID: 21300274, guid: 5440c4a827cc78c4d968ed14042cbf81, type: 3}
  - m_RefCount: 1
    m_Data: {fileID: 21300238, guid: 5440c4a827cc78c4d968ed14042cbf81, type: 3}
  - m_RefCount: 1
    m_Data: {fileID: 21300236, guid: 5440c4a827cc78c4d968ed14042cbf81, type: 3}
  - m_RefCount: 1
    m_Data: {fileID: 21300288, guid: 5440c4a827cc78c4d968ed14042cbf81, type: 3}
  - m_RefCount: 1
    m_Data: {fileID: 21300290, guid: 5440c4a827cc78c4d968ed14042cbf81, type: 3}
  - m_RefCount: 1
    m_Data: {fileID: 21300292, guid: 5440c4a827cc78c4d968ed14042cbf81, type: 3}
  - m_RefCount: 1
    m_Data: {fileID: 21300294, guid: 5440c4a827cc78c4d968ed14042cbf81, type: 3}
  - m_RefCount: 1
    m_Data: {fileID: 21300296, guid: 5440c4a827cc78c4d968ed14042cbf81, type: 3}
  - m_RefCount: 1
    m_Data: {fileID: 21300298, guid: 5440c4a827cc78c4d968ed14042cbf81, type: 3}
  - m_RefCount: 1
    m_Data: {fileID: 21300300, guid: 5440c4a827cc78c4d968ed14042cbf81, type: 3}
  - m_RefCount: 1
    m_Data: {fileID: 21300304, guid: 5440c4a827cc78c4d968ed14042cbf81, type: 3}
  - m_RefCount: 1
    m_Data: {fileID: 21300306, guid: 5440c4a827cc78c4d968ed14042cbf81, type: 3}
  - m_RefCount: 1
    m_Data: {fileID: 21300308, guid: 5440c4a827cc78c4d968ed14042cbf81, type: 3}
  - m_RefCount: 1
    m_Data: {fileID: 21300310, guid: 5440c4a827cc78c4d968ed14042cbf81, type: 3}
  - m_RefCount: 1
    m_Data: {fileID: 21300312, guid: 5440c4a827cc78c4d968ed14042cbf81, type: 3}
  - m_RefCount: 1
    m_Data: {fileID: 21300286, guid: 5440c4a827cc78c4d968ed14042cbf81, type: 3}
  - m_RefCount: 1
    m_Data: {fileID: 21300284, guid: 5440c4a827cc78c4d968ed14042cbf81, type: 3}
  - m_RefCount: 1
    m_Data: {fileID: 21300326, guid: 5440c4a827cc78c4d968ed14042cbf81, type: 3}
  - m_RefCount: 1
    m_Data: {fileID: 21300328, guid: 5440c4a827cc78c4d968ed14042cbf81, type: 3}
  - m_RefCount: 1
    m_Data: {fileID: 21300330, guid: 5440c4a827cc78c4d968ed14042cbf81, type: 3}
  - m_RefCount: 1
    m_Data: {fileID: 21300332, guid: 5440c4a827cc78c4d968ed14042cbf81, type: 3}
  - m_RefCount: 1
    m_Data: {fileID: 21300334, guid: 5440c4a827cc78c4d968ed14042cbf81, type: 3}
  - m_RefCount: 1
    m_Data: {fileID: 21300336, guid: 5440c4a827cc78c4d968ed14042cbf81, type: 3}
  - m_RefCount: 1
    m_Data: {fileID: 21300338, guid: 5440c4a827cc78c4d968ed14042cbf81, type: 3}
  - m_RefCount: 1
    m_Data: {fileID: 21300342, guid: 5440c4a827cc78c4d968ed14042cbf81, type: 3}
  - m_RefCount: 1
    m_Data: {fileID: 21300344, guid: 5440c4a827cc78c4d968ed14042cbf81, type: 3}
  - m_RefCount: 1
    m_Data: {fileID: 21300346, guid: 5440c4a827cc78c4d968ed14042cbf81, type: 3}
  - m_RefCount: 1
    m_Data: {fileID: 21300348, guid: 5440c4a827cc78c4d968ed14042cbf81, type: 3}
  - m_RefCount: 1
    m_Data: {fileID: 21300350, guid: 5440c4a827cc78c4d968ed14042cbf81, type: 3}
  - m_RefCount: 1
    m_Data: {fileID: 21300324, guid: 5440c4a827cc78c4d968ed14042cbf81, type: 3}
  - m_RefCount: 1
    m_Data: {fileID: 21300322, guid: 5440c4a827cc78c4d968ed14042cbf81, type: 3}
  - m_RefCount: 1
    m_Data: {fileID: 21300366, guid: 5440c4a827cc78c4d968ed14042cbf81, type: 3}
  - m_RefCount: 1
    m_Data: {fileID: 21300368, guid: 5440c4a827cc78c4d968ed14042cbf81, type: 3}
  - m_RefCount: 1
    m_Data: {fileID: 21300370, guid: 5440c4a827cc78c4d968ed14042cbf81, type: 3}
  - m_RefCount: 1
    m_Data: {fileID: 21300372, guid: 5440c4a827cc78c4d968ed14042cbf81, type: 3}
  - m_RefCount: 1
    m_Data: {fileID: 21300374, guid: 5440c4a827cc78c4d968ed14042cbf81, type: 3}
  - m_RefCount: 1
    m_Data: {fileID: 21300376, guid: 5440c4a827cc78c4d968ed14042cbf81, type: 3}
  - m_RefCount: 1
    m_Data: {fileID: 21300378, guid: 5440c4a827cc78c4d968ed14042cbf81, type: 3}
  - m_RefCount: 1
    m_Data: {fileID: 21300382, guid: 5440c4a827cc78c4d968ed14042cbf81, type: 3}
  - m_RefCount: 1
    m_Data: {fileID: 21300384, guid: 5440c4a827cc78c4d968ed14042cbf81, type: 3}
  - m_RefCount: 1
    m_Data: {fileID: 21300386, guid: 5440c4a827cc78c4d968ed14042cbf81, type: 3}
  - m_RefCount: 1
    m_Data: {fileID: 21300388, guid: 5440c4a827cc78c4d968ed14042cbf81, type: 3}
  - m_RefCount: 1
    m_Data: {fileID: 21300390, guid: 5440c4a827cc78c4d968ed14042cbf81, type: 3}
  - m_RefCount: 1
    m_Data: {fileID: 21300364, guid: 5440c4a827cc78c4d968ed14042cbf81, type: 3}
  - m_RefCount: 1
    m_Data: {fileID: 21300362, guid: 5440c4a827cc78c4d968ed14042cbf81, type: 3}
  - m_RefCount: 1
    m_Data: {fileID: 21300356, guid: 5440c4a827cc78c4d968ed14042cbf81, type: 3}
  - m_RefCount: 1
    m_Data: {fileID: 21300354, guid: 5440c4a827cc78c4d968ed14042cbf81, type: 3}
  - m_RefCount: 1
    m_Data: {fileID: 21300352, guid: 5440c4a827cc78c4d968ed14042cbf81, type: 3}
  - m_RefCount: 1
    m_Data: {fileID: 21300422, guid: 5440c4a827cc78c4d968ed14042cbf81, type: 3}
  - m_RefCount: 1
    m_Data: {fileID: 21300420, guid: 5440c4a827cc78c4d968ed14042cbf81, type: 3}
  - m_RefCount: 1
    m_Data: {fileID: 21300406, guid: 5440c4a827cc78c4d968ed14042cbf81, type: 3}
  - m_RefCount: 1
    m_Data: {fileID: 21300408, guid: 5440c4a827cc78c4d968ed14042cbf81, type: 3}
  - m_RefCount: 1
    m_Data: {fileID: 21300410, guid: 5440c4a827cc78c4d968ed14042cbf81, type: 3}
  - m_RefCount: 1
    m_Data: {fileID: 21300412, guid: 5440c4a827cc78c4d968ed14042cbf81, type: 3}
  - m_RefCount: 1
    m_Data: {fileID: 21300414, guid: 5440c4a827cc78c4d968ed14042cbf81, type: 3}
  - m_RefCount: 1
    m_Data: {fileID: 21300416, guid: 5440c4a827cc78c4d968ed14042cbf81, type: 3}
  - m_RefCount: 1
    m_Data: {fileID: 21300418, guid: 5440c4a827cc78c4d968ed14042cbf81, type: 3}
  - m_RefCount: 1
    m_Data: {fileID: 21300404, guid: 5440c4a827cc78c4d968ed14042cbf81, type: 3}
  - m_RefCount: 1
    m_Data: {fileID: 21300402, guid: 5440c4a827cc78c4d968ed14042cbf81, type: 3}
  - m_RefCount: 1
    m_Data: {fileID: 21300016, guid: 5440c4a827cc78c4d968ed14042cbf81, type: 3}
  - m_RefCount: 1
    m_Data: {fileID: 21300014, guid: 5440c4a827cc78c4d968ed14042cbf81, type: 3}
  - m_RefCount: 1
    m_Data: {fileID: 21300012, guid: 5440c4a827cc78c4d968ed14042cbf81, type: 3}
  - m_RefCount: 1
    m_Data: {fileID: 21300010, guid: 5440c4a827cc78c4d968ed14042cbf81, type: 3}
  - m_RefCount: 1
    m_Data: {fileID: 21300008, guid: 5440c4a827cc78c4d968ed14042cbf81, type: 3}
  - m_RefCount: 1
    m_Data: {fileID: 21300006, guid: 5440c4a827cc78c4d968ed14042cbf81, type: 3}
  - m_RefCount: 1
    m_Data: {fileID: 21300004, guid: 5440c4a827cc78c4d968ed14042cbf81, type: 3}
  - m_RefCount: 1
    m_Data: {fileID: 21300002, guid: 5440c4a827cc78c4d968ed14042cbf81, type: 3}
  - m_RefCount: 1
    m_Data: {fileID: 21300000, guid: 5440c4a827cc78c4d968ed14042cbf81, type: 3}
  - m_RefCount: 1
    m_Data: {fileID: 21300400, guid: 5440c4a827cc78c4d968ed14042cbf81, type: 3}
  - m_RefCount: 1
    m_Data: {fileID: 21300398, guid: 5440c4a827cc78c4d968ed14042cbf81, type: 3}
  - m_RefCount: 1
    m_Data: {fileID: 21300396, guid: 5440c4a827cc78c4d968ed14042cbf81, type: 3}
  - m_RefCount: 1
    m_Data: {fileID: 21300394, guid: 5440c4a827cc78c4d968ed14042cbf81, type: 3}
  - m_RefCount: 1
    m_Data: {fileID: 21300392, guid: 5440c4a827cc78c4d968ed14042cbf81, type: 3}
  m_TileMatrixArray:
  - m_RefCount: 214
    m_Data:
      e00: 1
      e01: 0
      e02: 0
      e03: 0
      e10: 0
      e11: 1
      e12: 0
      e13: 0
      e20: 0
      e21: 0
      e22: 1
      e23: 0
      e30: 0
      e31: 0
      e32: 0
      e33: 1
  m_TileColorArray:
  - m_RefCount: 214
    m_Data: {r: 1, g: 1, b: 1, a: 1}
  - m_RefCount: 0
    m_Data: {r: 3.1e-44, g: 3.1e-44, b: 3.1e-44, a: 3.1e-44}
  - m_RefCount: 0
    m_Data: {r: 3.2e-44, g: 3.2e-44, b: 3.2e-44, a: 3.2e-44}
  - m_RefCount: 0
    m_Data: {r: 3.1e-44, g: 3.1e-44, b: 3.1e-44, a: 3.1e-44}
  - m_RefCount: 0
    m_Data: {r: 3.2e-44, g: 3.2e-44, b: 3.2e-44, a: 3.2e-44}
  - m_RefCount: 0
    m_Data: {r: 3.1e-44, g: 3.1e-44, b: 3.1e-44, a: 3.1e-44}
  - m_RefCount: 0
    m_Data: {r: 1.9809e-41, g: 1.9809e-41, b: 1.9809e-41, a: 1.9809e-41}
  - m_RefCount: 0
    m_Data: {r: 1e-45, g: 1e-45, b: 1e-45, a: 1e-45}
  - m_RefCount: 0
    m_Data: {r: 0, g: 0, b: 0, a: 0}
  - m_RefCount: 0
    m_Data: {r: NaN, g: NaN, b: NaN, a: NaN}
  - m_RefCount: 0
    m_Data: {r: 3.2e-44, g: 3.2e-44, b: 3.2e-44, a: 3.2e-44}
  - m_RefCount: 0
    m_Data: {r: 3.1e-44, g: 3.1e-44, b: 3.1e-44, a: 3.1e-44}
  - m_RefCount: 0
    m_Data: {r: 3.2e-44, g: 3.2e-44, b: 3.2e-44, a: 3.2e-44}
  - m_RefCount: 0
    m_Data: {r: 3.1e-44, g: 3.1e-44, b: 3.1e-44, a: 3.1e-44}
  - m_RefCount: 0
    m_Data: {r: 3e-45, g: 3e-45, b: 3e-45, a: 3e-45}
  m_AnimationFrameRate: 1
  m_Color: {r: 1, g: 1, b: 1, a: 1}
  m_Origin: {x: -15, y: -20, z: 0}
  m_Size: {x: 47, y: 24, z: 1}
  m_TileAnchor: {x: 0.5, y: 0.5, z: 0}
  m_TileOrientation: 0
  m_TileOrientationMatrix:
    e00: 1
    e01: 0
    e02: 0
    e03: 0
    e10: 0
    e11: 1
    e12: 0
    e13: 0
    e20: 0
    e21: 0
    e22: 1
    e23: 0
    e30: 0
    e31: 0
    e32: 0
    e33: 1
--- !u!483693784 &5333344357711255986
TilemapRenderer:
  m_ObjectHideFlags: 0
  m_CorrespondingSourceObject: {fileID: 0}
  m_PrefabInstance: {fileID: 0}
  m_PrefabAsset: {fileID: 0}
  m_GameObject: {fileID: 6445793576785947255}
  m_Enabled: 0
  m_CastShadows: 0
  m_ReceiveShadows: 0
  m_DynamicOccludee: 0
  m_MotionVectors: 1
  m_LightProbeUsage: 0
  m_ReflectionProbeUsage: 0
  m_RenderingLayerMask: 1
  m_RendererPriority: 0
  m_Materials:
  - {fileID: 10754, guid: 0000000000000000f000000000000000, type: 0}
  m_StaticBatchInfo:
    firstSubMesh: 0
    subMeshCount: 0
  m_StaticBatchRoot: {fileID: 0}
  m_ProbeAnchor: {fileID: 0}
  m_LightProbeVolumeOverride: {fileID: 0}
  m_ScaleInLightmap: 1
  m_PreserveUVs: 0
  m_IgnoreNormalsForChartDetection: 0
  m_ImportantGI: 0
  m_StitchLightmapSeams: 0
  m_SelectedEditorRenderState: 0
  m_MinimumChartSize: 4
  m_AutoUVMaxDistance: 0.5
  m_AutoUVMaxAngle: 89
  m_LightmapParameters: {fileID: 0}
  m_SortingLayerID: 0
  m_SortingLayer: 0
  m_SortingOrder: 0
  m_ChunkSize: {x: 32, y: 32, z: 32}
  m_ChunkCullingBounds: {x: 0, y: 0, z: 0}
  m_MaxChunkCount: 16
  m_MaxFrameAge: 16
  m_SortOrder: 0
  m_Mode: 0
  m_DetectChunkCullingBounds: 0
  m_MaskInteraction: 0
--- !u!114 &114881574566081358
MonoBehaviour:
  m_ObjectHideFlags: 0
  m_CorrespondingSourceObject: {fileID: 0}
  m_PrefabInstance: {fileID: 0}
  m_PrefabAsset: {fileID: 0}
  m_GameObject: {fileID: 0}
  m_Enabled: 1
  m_EditorHideFlags: 0
  m_Script: {fileID: 12395, guid: 0000000000000000e000000000000000, type: 0}
  m_Name: Palette Settings
  m_EditorClassIdentifier: 
  cellSizing: 0
