%YAML 1.1
%TAG !u! tag:unity3d.com,2011:
--- !u!78 &1
TagManager:
  serializedVersion: 2
  tags:
  - MidPoint
  - Item
  - Fire
  - Smoke
  - Sink
  - Teleporter
  - Bathroom
  - Locker
  - Others
  layers:
  - Default
  - TransparentFX
  - Ignore Raycast
  - 
  - Water
  - UI
  - 
  - 
  - Player
  - Ground
  - Weapon
  - Fire
  - Barricade
  - Interactable
  - Colliders
  - Ceiling
  - 
  - 
  - 
  - 
  - 
  - 
  - 
  - 
  - 
  - 
  - 
  - 
  - 
  - 
  - 
  - 
  m_SortingLayers:
  - name: Default
    uniqueID: 0
    locked: 0
